,V1,V2,V3,V4,V5,V6,V7,V8,V9,V10,V11,V12,V13,V14,V15,V16,Class
5,0,1,1,0,1,1,0,0,0,0,0,0,1,1,1,1,democrat
8,0,1,0,1,1,1,0,0,0,0,0,1,1,1,0,1,republican
19,1,1,1,0,0,0,1,1,1,0,1,0,0,0,1,1,democrat
23,1,1,1,0,0,0,1,1,1,0,0,0,0,0,1,1,democrat
25,1,0,1,0,0,0,1,1,1,1,0,0,0,0,1,1,democrat
26,1,0,1,0,0,0,1,1,1,0,1,0,0,0,1,1,democrat
27,1,1,1,0,0,0,1,1,1,0,1,0,0,0,1,1,democrat
28,1,0,0,1,1,0,1,1,1,0,0,1,1,1,0,1,republican
29,1,1,1,0,0,0,1,1,1,0,1,0,0,0,1,1,democrat
30,0,1,0,1,1,1,0,0,0,0,0,1,1,1,0,0,republican
32,1,1,1,0,0,0,1,1,1,1,0,0,1,0,1,1,democrat
33,0,1,0,1,1,1,0,0,0,0,0,1,1,1,0,1,republican
34,1,1,1,0,0,0,1,1,1,0,0,0,0,0,1,1,democrat
35,0,1,0,1,1,1,0,0,0,0,0,1,1,1,0,0,republican
37,1,1,0,1,1,1,0,0,0,0,0,0,1,1,0,1,republican
38,0,1,0,1,1,1,0,0,0,1,0,1,1,1,0,0,republican
39,1,0,1,0,0,0,1,1,1,1,1,0,1,0,1,1,democrat
42,1,0,1,0,0,0,1,1,1,0,0,0,0,0,0,1,democrat
43,1,0,1,0,0,0,1,1,1,0,0,0,0,0,1,1,democrat
46,1,1,1,0,0,0,1,1,1,0,0,0,0,0,0,1,democrat
48,1,1,1,0,0,0,1,1,0,0,0,0,0,1,0,1,democrat
50,1,1,1,0,0,0,1,1,1,0,1,0,0,0,1,1,democrat
53,1,1,0,1,1,1,0,0,0,1,0,1,1,1,0,0,republican
55,0,1,0,1,1,1,0,0,0,1,1,1,1,1,0,0,republican
56,0,1,0,1,1,1,0,0,0,1,1,1,1,1,0,1,republican
57,0,1,0,1,1,1,0,0,0,1,0,1,1,1,0,1,republican
58,0,1,0,1,1,1,0,0,0,1,0,1,1,1,0,1,republican
61,0,1,0,1,1,1,0,0,0,0,0,1,1,1,0,0,republican
63,1,1,1,0,0,0,1,1,1,0,1,0,0,0,0,1,democrat
65,1,1,0,1,1,1,1,0,0,0,0,1,1,1,0,1,republican
66,0,1,0,1,1,1,1,0,0,0,1,1,1,1,0,1,republican
67,0,1,0,1,1,1,0,0,0,1,0,1,1,1,0,0,republican
69,1,1,1,0,0,0,1,1,1,0,0,0,0,0,1,1,democrat
71,1,1,1,1,0,0,1,1,1,1,1,0,0,1,0,1,republican
73,1,0,1,1,1,0,1,0,1,1,0,0,1,1,0,1,republican
74,1,0,1,0,0,1,1,1,1,1,1,0,0,1,1,1,democrat
75,0,1,1,1,1,1,0,0,0,1,1,0,1,1,0,0,democrat
77,0,1,1,1,1,1,0,1,1,1,1,1,1,1,0,1,democrat
78,1,1,1,0,1,1,0,0,0,1,1,0,1,1,0,1,democrat
79,0,0,0,1,1,0,0,0,0,1,0,1,1,1,0,0,republican
82,0,0,0,1,1,1,0,0,0,1,0,1,1,1,0,1,republican
83,0,0,0,1,1,1,0,0,0,0,0,1,1,1,0,0,republican
85,0,0,1,0,1,1,0,0,0,1,1,1,1,1,0,1,democrat
86,0,0,0,1,1,1,0,0,0,1,0,1,1,1,0,0,republican
87,0,0,0,1,1,1,0,0,0,0,0,1,1,1,0,0,republican
88,0,1,1,0,1,1,1,0,1,1,1,0,1,1,0,1,democrat
90,1,0,1,0,0,0,1,1,1,1,0,0,0,0,1,1,democrat
91,1,0,1,0,0,0,1,1,1,1,1,0,0,0,1,1,democrat
93,1,0,1,0,0,0,1,0,1,1,1,0,0,0,1,1,democrat
94,1,0,1,0,1,1,0,0,0,0,0,0,0,0,0,1,democrat
97,1,0,0,0,1,1,1,0,0,1,1,0,0,1,0,1,democrat
98,1,1,1,0,0,1,1,1,1,1,0,0,0,0,0,1,democrat
100,1,0,0,0,1,1,0,0,0,0,1,1,0,1,0,1,democrat
101,1,0,1,0,1,1,1,0,0,0,1,0,0,1,0,1,democrat
105,1,1,1,0,0,0,0,1,1,0,1,0,0,0,1,1,democrat
106,0,1,0,1,1,1,0,0,0,0,0,1,1,1,0,1,republican
110,0,0,1,0,0,0,1,1,1,1,0,0,0,0,1,1,democrat
116,1,0,1,0,0,0,1,1,1,0,1,0,0,0,1,1,democrat
117,1,1,1,1,1,0,1,0,0,0,0,1,1,1,0,1,republican
118,0,1,1,0,0,0,0,1,1,1,1,0,0,0,1,1,democrat
119,0,0,0,1,1,1,0,0,0,0,0,1,1,1,0,0,republican
122,0,0,0,1,1,1,0,0,0,1,0,1,0,1,0,1,republican
131,0,0,1,0,0,1,0,1,1,1,0,0,0,1,0,1,democrat
133,0,0,0,1,1,1,0,0,0,1,0,1,1,1,0,1,republican
135,0,0,0,1,1,1,0,0,0,1,0,1,1,1,0,0,republican
136,0,1,0,1,1,1,0,0,0,1,1,1,1,0,0,1,republican
138,0,0,1,0,0,1,1,1,1,1,0,0,0,1,0,1,democrat
139,1,0,1,0,0,1,1,1,1,0,0,0,0,0,1,1,democrat
140,0,0,0,1,0,0,1,1,1,1,0,0,1,1,0,1,republican
142,0,0,0,1,1,1,1,1,1,1,0,1,1,1,0,1,republican
146,0,1,0,1,1,1,0,0,0,0,0,1,1,1,0,1,republican
147,0,0,0,0,0,0,1,1,1,1,0,1,1,1,1,1,democrat
148,0,1,0,1,1,1,0,0,0,1,1,1,1,1,0,1,republican
149,0,0,1,0,0,0,1,1,1,1,0,0,1,0,1,1,democrat
150,1,1,0,1,1,1,0,0,0,1,0,1,1,1,0,1,republican
152,0,1,1,0,0,1,0,1,1,1,1,0,1,0,1,1,democrat
153,0,0,1,0,0,1,1,1,1,1,1,0,1,1,0,1,democrat
154,0,1,0,1,1,1,0,0,0,0,0,1,1,1,0,0,republican
156,1,1,0,1,1,1,1,0,0,0,0,1,1,1,0,0,republican
158,0,1,0,1,1,1,0,0,0,1,0,1,1,1,0,0,republican
160,0,1,0,0,1,1,0,0,0,0,0,1,1,1,1,1,democrat
161,0,0,0,0,1,1,1,0,0,0,0,1,1,1,0,1,democrat
162,0,1,1,0,1,1,1,0,0,0,1,1,1,1,0,1,democrat
163,0,1,0,1,1,1,1,0,0,0,0,1,1,1,0,1,republican
166,1,0,1,1,1,1,1,1,0,1,0,1,0,1,1,1,republican
167,1,0,1,1,1,1,1,1,0,1,1,1,0,1,1,1,republican
169,1,0,1,0,0,0,1,1,1,1,1,0,0,1,0,1,democrat
173,0,0,0,0,1,1,0,0,0,1,1,1,1,1,0,1,democrat
175,0,1,1,0,0,0,1,1,1,1,0,0,0,0,1,1,democrat
176,0,0,1,1,0,0,1,1,1,1,0,0,0,1,1,1,republican
179,1,0,1,0,0,0,1,1,1,1,0,0,0,0,1,1,democrat
181,0,0,1,0,0,0,1,1,1,1,1,0,0,0,1,1,democrat
184,0,0,1,0,0,0,1,1,1,1,1,0,0,0,1,1,democrat
186,0,1,1,0,0,0,1,1,1,1,1,0,0,0,1,1,democrat
189,1,0,1,0,0,0,1,1,1,0,0,0,0,0,1,1,democrat
192,0,0,0,0,0,1,1,1,1,0,1,0,0,1,1,1,democrat
193,0,0,1,0,0,0,1,1,1,0,0,0,0,0,1,1,democrat
200,0,0,1,0,0,0,1,1,1,0,0,0,0,1,1,1,democrat
201,1,1,1,0,0,0,1,1,1,0,0,0,0,0,1,1,democrat
202,1,0,1,0,0,1,1,1,1,1,1,0,0,0,1,1,democrat
203,1,0,1,0,0,0,1,1,1,1,0,0,0,0,1,1,democrat
204,0,0,1,1,1,1,1,0,0,0,0,1,1,1,0,1,republican
205,0,0,1,0,0,1,1,1,1,1,0,1,0,0,0,1,democrat
206,0,0,0,1,1,1,0,0,0,1,0,1,0,1,0,1,republican
209,1,1,1,0,0,0,1,1,1,1,1,0,0,0,0,1,democrat
210,0,0,1,0,0,1,1,1,1,0,0,0,0,0,1,1,democrat
211,0,1,0,1,1,1,0,0,0,1,0,1,1,1,0,1,republican
212,0,0,1,0,0,0,1,1,1,0,1,0,0,0,1,1,democrat
213,0,1,1,0,0,1,0,1,1,0,1,0,1,0,1,1,democrat
214,1,1,0,1,1,1,0,0,0,1,0,1,1,1,0,1,republican
217,0,1,0,1,1,1,0,0,0,1,0,1,1,1,0,0,republican
219,0,1,1,0,0,0,0,1,1,0,1,0,0,1,1,1,democrat
223,0,0,0,1,1,0,0,0,0,0,0,1,1,1,0,1,republican
226,0,0,1,0,0,1,1,1,1,0,1,0,0,1,1,1,democrat
229,0,1,1,1,1,1,1,0,1,1,0,1,1,1,0,1,republican
230,0,1,0,1,1,1,0,0,0,0,0,1,1,1,0,1,republican
231,0,1,0,1,1,1,0,0,1,1,0,1,1,1,0,1,republican
233,0,1,0,1,1,1,0,0,0,1,0,1,1,1,0,1,republican
235,0,0,0,1,1,1,0,0,0,1,0,1,0,1,0,1,republican
236,0,0,1,0,0,0,1,1,1,0,0,0,0,0,1,1,democrat
237,1,0,1,0,0,1,1,1,0,0,0,1,1,0,0,1,democrat
239,0,0,0,1,1,1,1,0,0,1,0,0,0,1,1,1,republican
241,1,0,1,0,0,0,1,1,1,1,1,0,0,1,1,1,democrat
244,1,0,1,0,0,0,0,1,1,1,0,0,0,0,1,1,democrat
245,1,0,1,0,0,0,1,1,1,1,1,0,0,0,1,1,democrat
250,0,1,0,1,1,1,0,0,0,0,0,1,1,1,0,0,republican
251,0,1,0,1,1,1,0,0,0,0,0,1,1,1,0,0,republican
252,1,1,1,0,0,1,1,1,1,0,0,0,0,0,1,1,democrat
253,0,1,0,1,1,1,0,0,0,0,0,1,1,1,0,1,republican
254,1,0,1,0,0,0,1,1,1,1,0,0,0,0,0,1,democrat
255,1,0,1,0,0,0,1,1,1,1,0,0,0,1,1,1,democrat
256,0,0,0,1,1,0,0,0,0,0,0,1,0,1,0,0,republican
258,0,0,1,0,0,0,1,1,1,0,1,0,0,0,1,1,democrat
259,1,0,1,0,0,0,1,1,1,0,0,0,0,0,0,1,democrat
260,1,0,1,0,0,0,1,1,1,1,0,0,0,0,0,1,democrat
265,1,0,1,0,0,0,1,1,1,1,0,0,0,0,0,1,democrat
266,0,0,0,1,1,1,0,0,0,1,0,1,0,1,0,1,republican
267,1,0,0,0,0,0,1,1,1,1,0,0,0,1,0,1,republican
269,1,0,1,0,0,0,1,1,1,0,0,0,0,0,0,1,democrat
270,1,1,1,0,0,0,1,1,1,0,0,0,0,0,1,1,democrat
274,1,0,0,1,1,0,1,0,0,1,0,0,0,1,1,1,republican
276,0,0,0,1,1,1,0,0,0,0,0,1,1,1,1,0,republican
277,0,0,1,1,1,1,1,1,0,1,0,0,0,1,0,1,republican
278,0,0,0,1,1,1,0,0,0,0,0,1,1,1,0,1,republican
279,0,0,0,1,1,1,0,0,0,1,0,1,1,1,0,0,republican
280,0,0,1,0,0,0,1,1,1,1,0,0,0,1,0,1,democrat
283,0,0,0,1,1,1,0,0,0,0,0,1,1,1,0,1,republican
285,0,0,1,0,0,1,1,1,1,1,1,0,0,0,1,1,democrat
288,1,1,1,0,1,1,0,1,0,1,1,0,1,1,1,1,democrat
292,1,0,1,0,0,1,1,1,0,1,1,0,1,1,1,1,democrat
293,1,1,1,0,0,1,1,1,1,1,1,0,1,1,1,1,democrat
296,0,0,1,1,1,1,0,0,0,1,0,1,1,1,1,1,republican
298,0,1,0,0,0,0,1,1,1,1,1,0,0,0,1,1,democrat
299,0,1,1,0,0,1,1,1,1,1,0,0,1,1,1,1,democrat
300,0,0,0,1,1,0,1,1,1,1,0,1,1,1,0,1,republican
302,0,0,0,1,1,1,1,0,0,1,0,1,1,1,0,1,republican
303,0,0,0,1,1,1,0,0,0,0,0,1,1,1,0,0,republican
305,0,0,0,1,1,1,0,0,0,1,0,1,1,1,0,0,republican
306,0,0,0,1,1,1,0,0,0,0,0,1,1,1,0,0,republican
308,0,0,0,1,1,1,0,0,0,1,0,1,1,1,0,0,republican
309,1,0,0,0,0,1,1,1,1,1,0,0,0,1,1,1,democrat
310,0,0,0,1,1,1,0,0,0,1,0,1,1,1,1,0,republican
311,0,0,1,0,0,1,1,1,1,1,0,0,1,0,0,1,democrat
312,1,1,1,0,0,0,1,1,1,1,0,0,0,0,1,1,democrat
313,0,1,1,1,1,1,0,0,0,1,0,1,1,1,0,1,republican
314,0,1,0,1,1,1,1,1,0,0,1,1,1,1,1,1,republican
316,0,0,0,0,0,1,0,1,1,0,1,1,1,1,1,0,democrat
317,1,0,0,0,0,0,1,1,1,1,0,0,0,0,1,1,democrat
320,0,1,1,0,0,1,0,1,1,1,0,0,1,1,0,1,democrat
321,1,1,1,0,0,0,1,1,1,1,0,0,1,0,0,1,democrat
324,0,1,0,1,1,1,0,0,0,0,1,1,1,1,0,0,republican
326,1,1,0,1,0,0,1,1,1,0,1,0,0,1,0,1,democrat
327,0,1,0,1,1,1,0,0,0,0,0,1,1,1,0,1,republican
328,1,1,1,0,0,0,1,1,1,0,1,0,0,0,0,1,democrat
330,0,1,0,1,1,1,0,0,0,1,0,1,1,1,0,0,republican
333,0,0,1,0,0,0,1,1,1,0,0,0,0,0,1,1,democrat
337,1,0,1,0,0,0,1,1,1,0,0,0,0,0,1,1,democrat
338,1,0,1,0,0,0,1,1,1,1,0,0,0,1,1,1,democrat
339,1,0,0,1,1,1,0,0,0,0,1,1,1,1,0,0,republican
340,0,0,0,1,1,1,0,0,0,1,1,1,0,1,0,1,republican
343,0,0,0,1,1,0,1,0,1,1,0,0,0,1,0,1,republican
344,0,0,1,0,0,0,1,1,1,1,1,0,0,0,1,1,democrat
345,0,0,0,1,1,1,1,0,0,1,0,1,0,1,1,1,republican
346,0,0,0,1,1,1,0,0,0,1,0,1,1,1,0,1,republican
347,1,0,0,1,1,1,0,0,0,1,0,1,1,1,0,0,republican
349,0,1,1,1,1,1,1,1,1,0,0,1,1,1,0,1,republican
350,0,1,0,0,0,1,1,0,1,0,1,0,0,0,1,1,democrat
351,0,0,1,1,1,1,1,1,1,1,0,1,1,1,1,1,republican
353,0,0,1,1,1,1,1,0,0,1,1,1,1,1,0,1,republican
355,1,0,1,1,0,0,0,1,1,1,0,0,0,1,1,1,republican
356,0,0,0,1,1,1,0,0,0,0,0,1,1,1,0,0,republican
357,0,0,0,1,1,1,0,0,0,0,0,1,1,1,0,0,republican
360,1,0,1,0,0,1,1,1,1,1,0,0,1,0,0,1,democrat
362,1,1,1,0,0,1,1,1,1,1,1,1,1,0,0,1,democrat
363,1,1,0,1,1,1,0,0,0,1,1,0,1,0,0,0,republican
364,1,1,0,1,1,1,0,0,0,0,1,0,1,1,0,1,republican
365,0,1,0,0,1,1,0,0,0,1,1,0,1,1,0,0,democrat
368,0,1,1,0,0,1,1,1,0,1,0,0,0,0,1,1,democrat
369,0,1,0,1,1,1,0,0,0,0,0,0,1,1,0,1,republican
374,0,1,0,1,1,1,0,0,0,0,0,1,1,1,0,1,republican
375,0,1,0,1,1,1,0,0,0,0,1,1,0,1,0,0,democrat
378,0,0,0,1,1,1,0,0,0,0,0,1,1,1,0,1,republican
379,0,0,0,1,1,1,0,0,0,0,0,1,1,1,0,1,republican
383,1,1,1,0,1,1,0,1,1,1,1,0,0,0,0,1,democrat
384,1,1,1,1,1,1,0,0,0,0,1,1,1,1,0,1,democrat
385,1,1,0,0,1,1,0,0,0,0,1,1,1,1,1,0,democrat
391,1,1,0,0,0,0,0,1,1,0,1,0,0,0,1,0,democrat
392,1,1,0,1,1,1,0,0,0,0,1,1,1,1,0,1,republican
396,1,1,1,0,1,1,0,1,0,0,1,0,1,0,1,1,democrat
398,0,1,1,0,1,1,0,1,0,0,0,0,0,0,0,1,democrat
401,0,1,0,1,1,1,0,0,0,1,1,1,1,1,0,0,republican
404,1,1,0,1,1,1,0,0,0,1,0,1,1,1,0,1,republican
405,0,0,0,1,1,1,0,0,0,0,0,1,1,1,0,1,republican
406,1,0,1,0,1,1,0,0,1,1,0,0,1,1,0,1,democrat
407,0,0,0,1,1,1,0,0,0,0,1,1,1,1,0,0,democrat
409,0,0,0,1,1,1,0,0,0,0,0,1,1,1,0,0,republican
410,0,0,0,1,1,1,0,0,0,0,1,1,1,1,0,1,republican
411,1,0,1,0,0,1,1,1,1,1,1,0,0,0,0,1,democrat
412,0,0,0,1,1,1,0,0,0,1,0,1,1,1,0,1,republican
414,1,1,1,0,0,0,1,1,1,0,0,0,0,0,0,1,democrat
416,1,1,0,1,1,1,0,0,0,1,0,0,1,1,0,1,republican
417,1,1,1,0,0,0,1,1,1,1,1,0,1,0,0,1,democrat
418,1,1,1,0,0,0,1,1,0,1,0,0,0,0,0,1,democrat
419,1,1,1,0,0,0,1,1,1,0,0,0,0,0,0,1,democrat
420,1,1,1,1,1,1,1,1,0,1,0,0,1,1,0,1,republican
421,0,1,1,0,1,1,1,1,0,0,1,0,1,0,1,1,democrat
422,0,0,1,0,0,1,1,1,1,0,1,0,0,0,1,1,democrat
423,0,1,1,0,0,1,1,1,1,0,1,0,0,1,1,1,democrat
426,1,0,1,0,0,0,1,1,1,1,0,0,0,0,1,1,democrat
427,0,0,0,1,1,1,1,1,0,1,0,1,1,1,0,1,republican
430,0,0,1,1,1,1,0,0,1,1,0,1,1,1,0,1,republican
431,0,0,1,0,0,0,1,1,1,1,0,0,0,0,0,1,democrat
