{
  "training_filenames": ["training0.csv","training1.csv","training2.csv","training3.csv","training4.csv","training5.csv","training6.csv","training7.csv","training8.csv","training9.csv","training10.csv","training11.csv","training12.csv","training13.csv","training14.csv","training15.csv","training16.csv","training17.csv","training18.csv","training19.csv","training20.csv","training21.csv","training22.csv","training23.csv","training24.csv","training25.csv","training26.csv","training27.csv","training28.csv","training29.csv","training30.csv","training31.csv","training32.csv","training33.csv","training34.csv","training35.csv","training36.csv","training37.csv","training38.csv","training39.csv","training40.csv","training41.csv","training42.csv","training43.csv","training44.csv","training45.csv","training46.csv","training47.csv","training48.csv","training49.csv","training50.csv","training51.csv","training52.csv","training53.csv","training54.csv","training55.csv","training56.csv","training57.csv","training58.csv","training59.csv","training60.csv","training61.csv","training62.csv","training63.csv","training64.csv","training65.csv","training66.csv","training67.csv","training68.csv","training69.csv","training70.csv","training71.csv","training72.csv","training73.csv","training74.csv","training75.csv","training76.csv","training77.csv","training78.csv","training79.csv","training80.csv","training81.csv","training82.csv","training83.csv","training84.csv","training85.csv","training86.csv","training87.csv","training88.csv","training89.csv","training90.csv","training91.csv","training92.csv","training93.csv","training94.csv","training95.csv","training96.csv","training97.csv","training98.csv","training99.csv"],
  "testing_filenames": ["testing0.csv","testing1.csv","testing2.csv","testing3.csv","testing4.csv","testing5.csv","testing6.csv","testing7.csv","testing8.csv","testing9.csv","testing10.csv","testing11.csv","testing12.csv","testing13.csv","testing14.csv","testing15.csv","testing16.csv","testing17.csv","testing18.csv","testing19.csv","testing20.csv","testing21.csv","testing22.csv","testing23.csv","testing24.csv","testing25.csv","testing26.csv","testing27.csv","testing28.csv","testing29.csv","testing30.csv","testing31.csv","testing32.csv","testing33.csv","testing34.csv","testing35.csv","testing36.csv","testing37.csv","testing38.csv","testing39.csv","testing40.csv","testing41.csv","testing42.csv","testing43.csv","testing44.csv","testing45.csv","testing46.csv","testing47.csv","testing48.csv","testing49.csv","testing50.csv","testing51.csv","testing52.csv","testing53.csv","testing54.csv","testing55.csv","testing56.csv","testing57.csv","testing58.csv","testing59.csv","testing60.csv","testing61.csv","testing62.csv","testing63.csv","testing64.csv","testing65.csv","testing66.csv","testing67.csv","testing68.csv","testing69.csv","testing70.csv","testing71.csv","testing72.csv","testing73.csv","testing74.csv","testing75.csv","testing76.csv","testing77.csv","testing78.csv","testing79.csv","testing80.csv","testing81.csv","testing82.csv","testing83.csv","testing84.csv","testing85.csv","testing86.csv","testing87.csv","testing88.csv","testing89.csv","testing90.csv","testing91.csv","testing92.csv","testing93.csv","testing94.csv","testing95.csv","testing96.csv","testing97.csv","testing98.csv","testing99.csv"],
  "optimization_filenames": ["validation0.csv","validation1.csv","validation2.csv","validation3.csv","validation4.csv","validation5.csv","validation6.csv","validation7.csv","validation8.csv","validation9.csv","validation10.csv","validation11.csv","validation12.csv","validation13.csv","validation14.csv","validation15.csv","validation16.csv","validation17.csv","validation18.csv","validation19.csv","validation20.csv","validation21.csv","validation22.csv","validation23.csv","validation24.csv","validation25.csv","validation26.csv","validation27.csv","validation28.csv","validation29.csv","validation30.csv","validation31.csv","validation32.csv","validation33.csv","validation34.csv","validation35.csv","validation36.csv","validation37.csv","validation38.csv","validation39.csv","validation40.csv","validation41.csv","validation42.csv","validation43.csv","validation44.csv","validation45.csv","validation46.csv","validation47.csv","validation48.csv","validation49.csv","validation50.csv","validation51.csv","validation52.csv","validation53.csv","validation54.csv","validation55.csv","validation56.csv","validation57.csv","validation58.csv","validation59.csv","validation60.csv","validation61.csv","validation62.csv","validation63.csv","validation64.csv","validation65.csv","validation66.csv","validation67.csv","validation68.csv","validation69.csv","validation70.csv","validation71.csv","validation72.csv","validation73.csv","validation74.csv","validation75.csv","validation76.csv","validation77.csv","validation78.csv","validation79.csv","validation80.csv","validation81.csv","validation82.csv","validation83.csv","validation84.csv","validation85.csv","validation86.csv","validation87.csv","validation88.csv","validation89.csv","validation90.csv","validation91.csv","validation92.csv","validation93.csv","validation94.csv","validation95.csv","validation96.csv","validation97.csv","validation98.csv","validation99.csv"],
  "target_name": "Class",
  "columns_not_use": [],
  "breast_cancer_dataset": "/Users/ericm/Documents/Github/GARF-Testing/VSCode/dataset/train_test_validation_breast_cancer/breast_cancer/",
  "john_wise_dataset": "/Users/ericm/Documents/Github/GARF-Testing/VSCode/dataset/train_test_validation_john_wise/johnwise_cleaned/"
}