{
    "iris_dataset": {
        "target_name": "Class",
        "columns_not_use": [],
        "file_name": "/Users/ericm/Documents/Github/GARF-Testing/VSCode/dataset/original_cleaned_dataset/UCI/iris.csv"
    },
    
    "bank_dataset": {
        "target_name": "Class",
        "columns_not_use": [],
        "file_name": "/Users/ericm/Documents/Github/GARF-Testing/VSCode/dataset/original_cleaned_dataset/UCI/bank.csv"
    },

    "wine_dataset": {
        "target_name": "Class",
        "columns_not_use": [],
        "file_name": "/Users/ericm/Documents/Github/GARF-Testing/VSCode/dataset/original_cleaned_dataset/UCI/wine.csv"
    },

    "breast_cancer_dataset": {
        "target_name": "Class",
        "columns_not_use": ["id"],
        "file_name": "/Users/ericm/Documents/Github/GARF-Testing/VSCode/dataset/original_cleaned_dataset/UCI/breast_cancer.csv"
    },

    "abalone_dataset": {
        "target_name": "Class",
        "columns_not_use": [],
        "file_name": "/Users/ericm/Documents/Github/GARF-Testing/VSCode/dataset/original_cleaned_dataset/UCI/abalone.csv"
    }
}