"day","outlook","temp","humidity","windy","play"
0,"sunny","hot","high","FALSE","yes"
1,"sunny","cool","normal","TRUE","yes"
2,"overcast","mild","high","TRUE","yes"
3,"rain","hot","normal","FALSE","yes"
4,"rain","mild","high","FALSE","yes"
5,"rain","cool","normal","FALSE","yes"
6,"overcast","cool","normal","TRUE","no"
7,"sunny","mild","normal","FALSE","yes"
8,"sunny","mild","high","TRUE","no"
9,"rain","hot","high","FALSE","no"
10,"sunny","hot","high","TRUE","no"
11,"overcast","mild","high","FALSE","no"
12,"overcast","cool","normal","FALSE","yes"
13,"rain","mild","normal","TRUE","yes"