rownames,V1,V2,V3,V4,V5,V6,V7,V8,V9,V10,V11,V12,V13
1,1,1,4,3.0,5480.0,8.0,20.0,,,5000.0,-15.0,30.56,200.0
2,1,2,5,3.0,5660.0,6.0,,38.0,,,-14.0,,300.0
3,1,3,6,3.0,5710.0,4.0,28.0,40.0,,2693.0,-25.0,47.66,250.0
4,1,4,7,5.0,5700.0,3.0,37.0,45.0,,590.0,-24.0,55.04,100.0
5,1,5,1,5.0,5760.0,3.0,51.0,54.0,45.32,1450.0,25.0,57.02,60.0
6,1,6,2,6.0,5720.0,4.0,69.0,35.0,49.64,1568.0,15.0,53.78,60.0
7,1,7,3,4.0,5790.0,6.0,19.0,45.0,46.4,2631.0,-33.0,54.14,100.0
8,1,8,4,4.0,5790.0,3.0,25.0,55.0,52.7,554.0,-28.0,64.76,250.0
9,1,9,5,6.0,5700.0,3.0,73.0,41.0,48.02,2083.0,23.0,52.52,120.0
10,1,10,6,7.0,5700.0,3.0,59.0,44.0,,2654.0,-2.0,48.38,120.0
11,1,11,7,4.0,5770.0,8.0,27.0,54.0,,5000.0,-19.0,48.56,120.0
12,1,12,1,6.0,5720.0,3.0,44.0,51.0,54.32,111.0,9.0,63.14,150.0
13,1,13,2,5.0,5760.0,6.0,33.0,51.0,57.56,492.0,-44.0,64.58,40.0
14,1,14,3,4.0,5780.0,6.0,19.0,54.0,56.12,5000.0,-44.0,56.3,200.0
15,1,15,4,4.0,5830.0,3.0,19.0,58.0,62.24,1249.0,-53.0,75.74,250.0
16,1,16,5,7.0,5870.0,2.0,19.0,61.0,64.94,5000.0,-67.0,65.48,200.0
17,1,17,6,5.0,5840.0,5.0,19.0,64.0,,5000.0,-40.0,63.32,200.0
18,1,18,7,9.0,5780.0,4.0,59.0,67.0,,639.0,1.0,66.02,150.0
19,1,19,1,4.0,5680.0,5.0,73.0,52.0,56.48,393.0,-68.0,69.8,10.0
20,1,20,2,3.0,5720.0,4.0,19.0,54.0,,5000.0,-66.0,54.68,140.0
21,1,21,3,4.0,5760.0,3.0,19.0,54.0,53.6,5000.0,-58.0,51.98,250.0
22,1,22,4,4.0,5730.0,4.0,26.0,58.0,52.7,5000.0,-26.0,51.98,200.0
23,1,23,5,5.0,5700.0,5.0,59.0,69.0,51.08,3044.0,18.0,52.88,150.0
24,1,24,6,6.0,5650.0,5.0,70.0,51.0,,3641.0,23.0,47.66,140.0
25,1,25,7,9.0,5680.0,3.0,64.0,53.0,,111.0,-10.0,59.54,50.0
26,1,26,1,5.0,5780.0,3.0,,56.0,53.6,692.0,-25.0,67.1,0.0
27,1,27,2,6.0,5820.0,5.0,19.0,59.0,59.36,597.0,-52.0,70.52,70.0
28,1,28,3,6.0,5830.0,4.0,,59.0,60.08,,-44.0,,150.0
29,1,29,4,6.0,5810.0,5.0,19.0,64.0,56.66,1791.0,-15.0,64.76,150.0
30,1,30,5,11.0,5790.0,3.0,28.0,63.0,57.38,793.0,-15.0,65.84,120.0
31,1,31,6,10.0,5800.0,2.0,32.0,63.0,,531.0,-38.0,75.92,40.0
32,2,1,7,7.0,5820.0,5.0,19.0,62.0,,419.0,-29.0,75.74,120.0
33,2,2,1,12.0,5770.0,8.0,76.0,63.0,57.2,816.0,-7.0,66.2,6.0
34,2,3,2,9.0,5670.0,3.0,69.0,54.0,45.5,3651.0,62.0,49.1,30.0
35,2,4,3,2.0,5590.0,3.0,76.0,36.0,37.4,5000.0,70.0,37.94,100.0
36,2,5,4,3.0,5410.0,6.0,64.0,31.0,32.18,5000.0,28.0,32.36,200.0
37,2,6,5,3.0,5350.0,7.0,62.0,30.0,32.54,1341.0,18.0,45.86,60.0
38,2,7,6,2.0,5480.0,9.0,72.0,36.0,,5000.0,0.0,38.66,350.0
39,2,8,7,3.0,5600.0,7.0,76.0,42.0,,3799.0,-18.0,45.86,250.0
40,2,9,1,3.0,5490.0,11.0,72.0,37.0,38.48,5000.0,32.0,38.12,350.0
41,2,10,2,4.0,5560.0,10.0,72.0,41.0,40.46,5000.0,-1.0,37.58,300.0
42,2,11,3,6.0,5700.0,3.0,32.0,46.0,,5000.0,-30.0,45.86,300.0
43,2,12,4,8.0,5680.0,5.0,50.0,51.0,47.12,5000.0,-8.0,45.5,300.0
44,2,13,5,6.0,5700.0,4.0,86.0,55.0,49.28,2398.0,21.0,53.78,200.0
45,2,14,6,4.0,5650.0,5.0,61.0,41.0,,5000.0,51.0,36.32,100.0
46,2,15,7,3.0,5610.0,5.0,62.0,41.0,,4281.0,42.0,41.36,250.0
47,2,16,1,7.0,5730.0,5.0,66.0,49.0,,1161.0,27.0,52.88,200.0
48,2,17,2,11.0,5770.0,5.0,68.0,45.0,52.88,2778.0,2.0,55.76,200.0
49,2,18,3,13.0,5770.0,3.0,82.0,55.0,55.4,442.0,26.0,58.28,40.0
50,2,19,4,4.0,5700.0,5.0,,45.0,38.12,,82.0,,2.0
51,2,20,5,6.0,5690.0,8.0,21.0,41.0,43.88,5000.0,-30.0,42.26,300.0
52,2,21,6,5.0,5700.0,3.0,19.0,45.0,,5000.0,-53.0,43.88,300.0
53,2,22,7,4.0,5730.0,11.0,19.0,51.0,,5000.0,-43.0,49.1,300.0
54,2,23,1,4.0,5690.0,7.0,19.0,53.0,50.18,5000.0,7.0,49.1,300.0
55,2,24,2,6.0,5640.0,5.0,68.0,50.0,37.4,5000.0,24.0,42.08,300.0
56,2,25,3,10.0,5720.0,6.0,63.0,60.0,53.06,1341.0,19.0,59.18,150.0
57,2,26,4,15.0,5740.0,3.0,54.0,54.0,56.48,1318.0,2.0,64.58,150.0
58,2,27,5,23.0,5740.0,3.0,47.0,53.0,58.82,885.0,-4.0,67.1,80.0
59,2,28,6,17.0,5740.0,3.0,56.0,53.0,,360.0,3.0,67.1,40.0
60,2,29,7,7.0,5670.0,7.0,61.0,44.0,,3497.0,73.0,49.46,40.0
61,3,1,1,2.0,5550.0,10.0,74.0,40.0,38.84,5000.0,73.0,40.1,80.0
62,3,2,2,3.0,5470.0,7.0,46.0,30.0,29.66,5000.0,44.0,29.3,300.0
63,3,3,3,3.0,5320.0,11.0,45.0,25.0,27.68,5000.0,39.0,27.5,200.0
64,3,4,4,5.0,,8.0,33.0,39.0,30.2,5000.0,15.0,30.02,500.0
65,3,5,5,4.0,5530.0,3.0,43.0,40.0,36.14,5000.0,-12.0,33.62,140.0
66,3,6,6,6.0,5600.0,3.0,21.0,45.0,,5000.0,-2.0,39.02,140.0
67,3,7,7,7.0,5660.0,7.0,57.0,51.0,,5000.0,30.0,42.08,140.0
68,3,8,1,7.0,5580.0,5.0,42.0,48.0,40.64,3608.0,24.0,39.38,100.0
69,3,9,2,6.0,5510.0,5.0,50.0,45.0,36.86,5000.0,38.0,32.9,140.0
70,3,10,3,3.0,5530.0,5.0,61.0,47.0,33.8,5000.0,56.0,35.6,200.0
71,3,11,4,2.0,5620.0,9.0,61.0,43.0,37.04,5000.0,66.0,34.34,120.0
72,3,12,5,8.0,5690.0,0.0,60.0,49.0,46.04,613.0,-27.0,59.72,300.0
73,3,13,6,12.0,5760.0,4.0,31.0,56.0,,334.0,-9.0,64.4,300.0
74,3,14,7,12.0,5740.0,3.0,66.0,53.0,,567.0,13.0,61.88,150.0
75,3,15,1,16.0,5780.0,5.0,53.0,61.0,57.92,488.0,-20.0,64.94,2.0
76,3,16,2,9.0,5790.0,2.0,42.0,63.0,57.02,531.0,-15.0,71.06,50.0
77,3,17,3,24.0,5760.0,3.0,60.0,70.0,58.64,508.0,7.0,66.56,70.0
78,3,18,4,13.0,5700.0,4.0,82.0,57.0,50.36,1571.0,68.0,56.3,17.0
79,3,19,5,8.0,5680.0,4.0,57.0,35.0,40.1,721.0,28.0,55.4,140.0
80,3,20,6,10.0,5720.0,5.0,21.0,52.0,,505.0,-49.0,67.28,140.0
81,3,21,7,8.0,5720.0,5.0,19.0,59.0,,377.0,-27.0,73.22,300.0
82,3,22,1,9.0,5730.0,4.0,32.0,67.0,59.54,442.0,-9.0,75.74,200.0
83,3,23,2,10.0,5710.0,5.0,77.0,57.0,57.38,902.0,54.0,60.44,250.0
84,3,24,3,13.0,5750.0,6.0,70.0,,56.3,3188.0,53.0,58.64,80.0
85,3,25,4,14.0,5720.0,4.0,71.0,42.0,44.96,1381.0,4.0,56.3,60.0
86,3,26,5,9.0,5710.0,3.0,19.0,55.0,51.8,5000.0,-16.0,50.0,100.0
87,3,27,6,11.0,5600.0,6.0,45.0,40.0,,5000.0,38.0,46.94,150.0
88,3,28,7,7.0,5630.0,4.0,44.0,39.0,,1302.0,40.0,52.7,150.0
89,3,29,1,9.0,5690.0,7.0,70.0,57.0,46.58,1292.0,-5.0,53.6,200.0
90,3,30,2,12.0,5730.0,6.0,45.0,58.0,52.52,5000.0,-14.0,52.7,100.0
91,3,31,3,12.0,5710.0,3.0,46.0,62.0,52.52,472.0,34.0,62.96,300.0
92,4,1,4,8.0,5610.0,6.0,50.0,51.0,50.0,1404.0,42.0,54.5,120.0
93,4,2,5,9.0,5680.0,5.0,69.0,61.0,51.44,944.0,35.0,55.76,100.0
94,4,3,6,5.0,5620.0,6.0,67.0,34.0,,5000.0,75.0,35.24,200.0
95,4,4,7,4.0,5420.0,7.0,69.0,35.0,,5000.0,41.0,30.92,200.0
96,4,5,1,4.0,5540.0,5.0,54.0,35.0,33.26,5000.0,62.0,33.44,200.0
97,4,6,2,9.0,5590.0,6.0,51.0,48.0,38.12,5000.0,44.0,42.08,300.0
98,4,7,3,13.0,5690.0,6.0,63.0,59.0,52.88,2014.0,31.0,53.42,300.0
99,4,8,4,5.0,5550.0,7.0,63.0,41.0,37.58,5000.0,56.0,37.22,250.0
100,4,9,5,10.0,5620.0,7.0,57.0,58.0,46.76,5000.0,27.0,47.66,120.0
101,4,10,6,10.0,5630.0,6.0,61.0,51.0,,524.0,57.0,54.68,140.0
102,4,11,7,7.0,5580.0,7.0,78.0,46.0,,5000.0,55.0,38.48,200.0
103,4,12,1,5.0,5560.0,4.0,65.0,40.0,34.7,5000.0,59.0,35.24,140.0
104,4,13,2,4.0,5440.0,5.0,44.0,35.0,33.08,5000.0,24.0,32.54,80.0
105,4,14,3,7.0,5480.0,7.0,51.0,46.0,37.4,2490.0,29.0,47.48,300.0
106,4,15,4,3.0,5620.0,5.0,73.0,39.0,39.56,5000.0,107.0,31.28,100.0
107,4,16,5,4.0,5450.0,11.0,35.0,32.0,,5000.0,36.0,33.44,300.0
108,4,17,6,7.0,5660.0,6.0,35.0,47.0,,5000.0,28.0,39.38,200.0
109,4,18,7,11.0,5680.0,6.0,61.0,50.0,,1144.0,30.0,53.6,120.0
110,4,19,1,15.0,5760.0,4.0,50.0,65.0,56.3,547.0,1.0,66.92,100.0
111,4,20,2,22.0,5790.0,4.0,57.0,66.0,63.68,413.0,10.0,69.62,120.0
112,4,21,3,17.0,5720.0,5.0,68.0,69.0,60.8,610.0,46.0,63.68,60.0
113,4,22,4,7.0,5660.0,6.0,58.0,59.0,42.8,3638.0,81.0,51.26,120.0
114,4,23,5,10.0,5710.0,5.0,65.0,64.0,56.3,3848.0,45.0,56.84,100.0
115,4,24,6,19.0,5780.0,7.0,78.0,68.0,,1479.0,40.0,68.0,100.0
116,4,25,7,18.0,5750.0,7.0,73.0,49.0,,1108.0,55.0,65.48,27.0
117,4,26,1,12.0,5700.0,5.0,41.0,52.0,49.64,869.0,0.0,58.1,40.0
118,4,27,2,6.0,5620.0,9.0,47.0,56.0,39.92,5000.0,43.0,38.3,140.0
119,4,28,3,9.0,5650.0,6.0,46.0,55.0,40.82,5000.0,49.0,37.94,150.0
120,4,29,4,19.0,5730.0,5.0,61.0,66.0,59.72,1148.0,31.0,60.8,100.0
121,4,30,5,21.0,5810.0,4.0,55.0,74.0,67.28,856.0,4.0,75.38,100.0
122,5,1,6,29.0,5790.0,4.0,60.0,76.0,,807.0,16.0,73.04,120.0
123,5,2,7,16.0,5740.0,8.0,78.0,70.0,,2040.0,46.0,63.5,150.0
124,5,3,1,5.0,,8.0,62.0,61.0,44.42,5000.0,63.0,42.62,100.0
125,5,4,2,11.0,5690.0,4.0,71.0,67.0,52.52,314.0,60.0,59.0,120.0
126,5,5,3,2.0,,4.0,67.0,45.0,41.72,5000.0,77.0,42.62,80.0
127,5,6,4,2.0,5680.0,6.0,77.0,41.0,42.98,5000.0,75.0,40.82,120.0
128,5,7,5,12.0,5650.0,8.0,66.0,61.0,51.8,1410.0,20.0,55.22,140.0
129,5,8,6,16.0,5730.0,6.0,74.0,68.0,,360.0,23.0,62.42,120.0
130,5,9,7,22.0,5730.0,3.0,78.0,69.0,,1568.0,32.0,67.64,70.0
131,5,10,1,20.0,5760.0,7.0,78.0,74.0,63.14,1184.0,40.0,68.72,80.0
132,5,11,2,27.0,5830.0,6.0,75.0,74.0,67.28,898.0,24.0,73.4,70.0
133,5,12,3,33.0,5880.0,3.0,80.0,80.0,73.04,436.0,0.0,86.36,40.0
134,5,13,4,25.0,5890.0,6.0,88.0,84.0,73.22,774.0,6.0,86.0,20.0
135,5,14,5,31.0,5850.0,4.0,76.0,78.0,71.24,1181.0,50.0,79.88,17.0
136,5,15,6,18.0,5820.0,6.0,63.0,80.0,,1991.0,47.0,69.62,40.0
137,5,16,7,16.0,,7.0,68.0,73.0,,2057.0,71.0,67.28,50.0
138,5,17,1,24.0,5800.0,7.0,78.0,76.0,,1597.0,56.0,68.0,50.0
139,5,18,2,16.0,5740.0,3.0,74.0,74.0,,1184.0,52.0,69.44,70.0
140,5,19,3,12.0,5710.0,7.0,63.0,66.0,,3005.0,58.0,59.18,80.0
141,5,20,4,9.0,5720.0,8.0,62.0,66.0,,2880.0,53.0,57.38,120.0
142,5,21,5,12.0,5710.0,7.0,69.0,63.0,,,66.0,56.3,120.0
143,5,22,6,16.0,5740.0,5.0,53.0,69.0,,2125.0,64.0,59.0,100.0
144,5,23,7,,5720.0,3.0,64.0,66.0,,1751.0,67.0,59.9,120.0
145,5,24,1,8.0,5690.0,9.0,62.0,62.0,,3720.0,74.0,50.9,120.0
146,5,25,2,9.0,5730.0,5.0,71.0,67.0,49.82,4337.0,66.0,59.36,200.0
147,5,26,3,29.0,5780.0,3.0,68.0,80.0,,2053.0,31.0,72.86,120.0
148,5,27,4,20.0,5790.0,7.0,79.0,76.0,,1958.0,70.0,70.52,40.0
149,5,28,5,5.0,5750.0,3.0,76.0,65.0,51.08,3644.0,86.0,59.36,70.0
150,5,29,6,5.0,5680.0,6.0,71.0,65.0,,1368.0,75.0,58.46,100.0
151,5,30,7,11.0,5720.0,3.0,66.0,63.0,,3539.0,73.0,53.6,120.0
152,5,31,1,12.0,5770.0,4.0,81.0,62.0,,2785.0,49.0,63.32,100.0
153,6,1,2,19.0,5800.0,4.0,72.0,68.0,,984.0,26.0,69.26,120.0
154,6,2,3,17.0,5780.0,8.0,92.0,68.0,64.76,1804.0,56.0,68.0,70.0
155,6,3,4,19.0,5740.0,6.0,71.0,69.0,64.4,3234.0,77.0,62.78,80.0
156,6,4,5,16.0,5730.0,6.0,64.0,66.0,60.44,3441.0,67.0,60.98,100.0
157,6,5,6,14.0,5760.0,6.0,68.0,70.0,,1578.0,61.0,60.8,100.0
158,6,6,7,10.0,5770.0,7.0,59.0,70.0,,1850.0,76.0,60.8,120.0
159,6,7,1,9.0,5690.0,8.0,67.0,64.0,54.5,2962.0,80.0,59.36,120.0
160,6,8,2,7.0,5650.0,6.0,66.0,61.0,53.78,2670.0,54.0,55.4,120.0
161,6,9,3,5.0,5610.0,3.0,61.0,52.0,42.08,5000.0,76.0,42.08,150.0
162,6,10,4,2.0,5570.0,9.0,81.0,48.0,41.72,5000.0,57.0,40.82,140.0
163,6,11,5,12.0,5690.0,5.0,63.0,59.0,51.8,5000.0,46.0,51.26,140.0
164,6,12,6,22.0,5760.0,3.0,58.0,67.0,,987.0,28.0,63.86,140.0
165,6,13,7,17.0,5810.0,5.0,68.0,66.0,,1148.0,43.0,66.92,140.0
166,6,14,1,26.0,5830.0,4.0,71.0,74.0,71.78,898.0,-24.0,77.9,60.0
167,6,15,2,27.0,5880.0,6.0,67.0,83.0,72.5,777.0,-1.0,82.58,30.0
168,6,16,3,14.0,5860.0,3.0,64.0,78.0,68.72,1279.0,75.0,71.6,17.0
169,6,17,4,11.0,5830.0,6.0,64.0,75.0,66.2,1046.0,69.0,68.72,80.0
170,6,18,5,23.0,5870.0,4.0,69.0,84.0,74.12,1167.0,50.0,74.3,60.0
171,6,19,6,26.0,5860.0,3.0,77.0,81.0,,987.0,45.0,75.74,100.0
172,6,20,7,21.0,5800.0,3.0,61.0,79.0,,1144.0,57.0,71.24,120.0
173,6,21,1,15.0,5800.0,4.0,69.0,79.0,66.2,977.0,60.0,70.7,150.0
174,6,22,2,20.0,5770.0,5.0,64.0,65.0,65.12,770.0,26.0,75.56,120.0
175,6,23,3,15.0,5860.0,4.0,33.0,81.0,72.68,629.0,-11.0,86.36,140.0
176,6,24,4,18.0,5870.0,7.0,38.0,84.0,76.1,337.0,-14.0,89.78,140.0
177,6,25,5,26.0,5870.0,4.0,54.0,83.0,,590.0,26.0,85.1,120.0
178,6,26,6,19.0,5860.0,6.0,39.0,90.0,,400.0,19.0,83.3,120.0
179,6,27,7,13.0,5880.0,5.0,43.0,90.0,,580.0,9.0,87.26,80.0
180,6,28,1,30.0,5870.0,7.0,55.0,93.0,,646.0,25.0,89.24,140.0
181,6,29,2,26.0,5860.0,4.0,77.0,88.0,,826.0,41.0,84.38,140.0
182,6,30,3,15.0,5830.0,5.0,63.0,72.0,,823.0,52.0,74.48,150.0
183,7,1,4,16.0,5820.0,5.0,65.0,72.0,,2116.0,47.0,70.34,120.0
184,7,2,5,16.0,5820.0,8.0,64.0,70.0,,2972.0,52.0,64.4,120.0
185,7,3,6,19.0,5860.0,6.0,68.0,78.0,,2752.0,41.0,69.98,140.0
186,7,4,7,23.0,5870.0,3.0,76.0,87.0,,1377.0,37.0,78.44,100.0
187,7,5,1,28.0,5890.0,6.0,71.0,91.0,,1486.0,33.0,79.88,50.0
188,7,6,2,34.0,5900.0,6.0,86.0,87.0,81.68,990.0,22.0,85.1,40.0
189,7,7,3,33.0,5890.0,5.0,65.0,91.0,,508.0,29.0,85.28,100.0
190,7,8,4,,5890.0,5.0,69.0,90.0,,688.0,37.0,83.3,80.0
191,7,9,5,24.0,5910.0,4.0,73.0,88.0,79.88,1204.0,56.0,79.88,100.0
192,7,10,6,17.0,5900.0,5.0,69.0,83.0,,2414.0,63.0,76.46,60.0
193,7,11,7,10.0,5860.0,3.0,64.0,78.0,,2385.0,67.0,70.34,50.0
194,7,12,1,14.0,5830.0,3.0,63.0,79.0,70.88,2326.0,64.0,71.24,70.0
195,7,13,2,13.0,5850.0,9.0,72.0,77.0,69.44,3389.0,56.0,68.72,80.0
196,7,14,3,17.0,5830.0,6.0,82.0,81.0,73.22,2818.0,58.0,71.78,80.0
197,7,15,4,15.0,,6.0,83.0,76.0,72.32,3083.0,75.0,72.32,80.0
198,7,16,5,22.0,5810.0,8.0,69.0,76.0,67.64,2394.0,54.0,69.62,90.0
199,7,17,6,19.0,5830.0,4.0,74.0,78.0,,2746.0,61.0,69.44,120.0
200,7,18,7,20.0,5830.0,5.0,69.0,75.0,,2493.0,55.0,72.5,120.0
201,7,19,1,25.0,5840.0,7.0,72.0,82.0,68.0,1528.0,42.0,73.94,100.0
202,7,20,2,28.0,5870.0,6.0,73.0,84.0,74.12,111.0,40.0,78.08,60.0
203,7,21,3,29.0,5870.0,4.0,90.0,86.0,74.48,1899.0,45.0,76.46,40.0
204,7,22,4,,5850.0,4.0,79.0,70.0,65.12,2020.0,37.0,73.22,50.0
205,7,23,5,23.0,5860.0,3.0,80.0,80.0,67.28,1289.0,32.0,75.2,40.0
206,7,24,6,26.0,5900.0,3.0,73.0,80.0,,984.0,35.0,78.8,70.0
207,7,25,7,14.0,5890.0,4.0,71.0,84.0,,836.0,28.0,81.5,80.0
208,7,26,1,13.0,5880.0,4.0,78.0,84.0,70.7,826.0,27.0,79.34,80.0
209,7,27,2,26.0,5890.0,6.0,80.0,81.0,69.8,1105.0,39.0,74.12,80.0
210,7,28,3,22.0,5870.0,8.0,74.0,85.0,71.42,1023.0,46.0,77.18,80.0
211,7,29,4,11.0,,6.0,70.0,79.0,67.82,1453.0,68.0,70.16,80.0
212,7,30,5,15.0,,6.0,71.0,72.0,66.02,2375.0,52.0,66.2,100.0
213,7,31,6,14.0,5820.0,6.0,63.0,73.0,,2956.0,46.0,67.28,120.0
214,8,1,7,13.0,5780.0,6.0,57.0,72.0,,2988.0,56.0,65.66,150.0
215,8,2,1,9.0,5770.0,3.0,55.0,68.0,62.6,4291.0,60.0,62.24,200.0
216,8,3,2,12.0,5790.0,4.0,65.0,65.0,56.48,3330.0,59.0,58.64,150.0
217,8,4,3,15.0,5820.0,6.0,,64.0,62.06,,31.0,,150.0
218,8,5,4,12.0,5840.0,6.0,,75.0,65.12,,35.0,,150.0
219,8,6,5,15.0,5800.0,7.0,,69.0,63.32,,49.0,,150.0
220,8,7,6,25.0,5830.0,4.0,,69.0,,,30.0,,100.0
221,8,8,7,18.0,5800.0,3.0,,72.0,,,43.0,,100.0
222,8,9,1,14.0,5840.0,7.0,65.0,79.0,67.1,1233.0,30.0,70.52,100.0
223,8,10,2,22.0,,3.0,74.0,78.0,66.02,1450.0,36.0,69.8,30.0
224,8,11,3,24.0,5910.0,5.0,72.0,81.0,70.88,1069.0,28.0,74.3,80.0
225,8,12,4,19.0,5890.0,5.0,79.0,80.0,69.8,984.0,57.0,73.4,70.0
226,8,13,5,16.0,5870.0,6.0,62.0,76.0,,1653.0,71.0,68.72,60.0
227,8,14,6,7.0,5780.0,7.0,65.0,59.0,,3930.0,68.0,59.18,150.0
228,8,15,7,2.0,5730.0,5.0,77.0,55.0,,5000.0,73.0,51.62,200.0
229,8,16,1,4.0,5780.0,7.0,70.0,66.0,51.44,5000.0,45.0,51.26,200.0
230,8,17,2,6.0,5750.0,7.0,58.0,64.0,56.48,4212.0,46.0,56.84,200.0
231,8,18,3,12.0,5760.0,5.0,58.0,62.0,52.16,5000.0,52.0,49.82,250.0
232,8,19,4,9.0,5730.0,7.0,72.0,67.0,,5000.0,31.0,57.38,300.0
233,8,20,5,15.0,5730.0,5.0,77.0,74.0,64.04,1545.0,43.0,65.66,70.0
234,8,21,6,17.0,5790.0,4.0,57.0,74.0,,994.0,44.0,69.62,300.0
235,8,22,7,13.0,5750.0,3.0,67.0,70.0,,1125.0,55.0,68.0,150.0
236,8,23,1,20.0,5880.0,3.0,73.0,77.0,,636.0,16.0,73.94,300.0
237,8,24,2,22.0,5890.0,7.0,70.0,83.0,70.88,748.0,32.0,77.0,30.0
238,8,25,3,24.0,5880.0,4.0,73.0,81.0,73.76,692.0,44.0,77.72,100.0
239,8,26,4,26.0,5870.0,7.0,73.0,73.0,75.2,807.0,39.0,78.8,100.0
240,8,27,5,32.0,5900.0,6.0,71.0,87.0,76.46,869.0,19.0,78.98,17.0
241,8,28,6,33.0,5920.0,4.0,77.0,89.0,,800.0,24.0,85.64,20.0
242,8,29,7,27.0,5930.0,3.0,68.0,92.0,,393.0,6.0,91.76,4.0
243,8,30,1,38.0,5950.0,5.0,62.0,92.0,82.4,557.0,0.0,90.68,70.0
244,8,31,2,23.0,5950.0,8.0,61.0,93.0,81.68,620.0,27.0,85.64,30.0
245,9,1,3,19.0,5900.0,5.0,71.0,93.0,82.58,1404.0,33.0,84.74,70.0
246,9,2,4,19.0,5890.0,8.0,77.0,86.0,71.42,898.0,21.0,80.6,60.0
247,9,3,5,15.0,5860.0,7.0,71.0,76.0,69.44,377.0,-2.0,83.3,40.0
248,9,4,6,28.0,5840.0,5.0,67.0,81.0,,528.0,17.0,78.8,50.0
249,9,5,7,10.0,5800.0,6.0,74.0,78.0,,2818.0,26.0,72.68,70.0
250,9,6,1,14.0,5760.0,7.0,65.0,73.0,,3247.0,10.0,67.28,140.0
251,9,7,2,26.0,5810.0,6.0,82.0,80.0,71.78,895.0,0.0,78.08,100.0
252,9,8,3,17.0,5850.0,4.0,67.0,81.0,70.88,721.0,0.0,80.24,120.0
253,9,9,4,3.0,,5.0,73.0,69.0,66.92,774.0,-27.0,75.56,100.0
254,9,10,5,2.0,,6.0,74.0,59.0,61.88,134.0,0.0,77.18,70.0
255,9,11,6,3.0,5760.0,7.0,87.0,52.0,,5000.0,39.0,51.8,150.0
256,9,12,7,14.0,5860.0,4.0,71.0,63.0,,1965.0,13.0,60.98,50.0
257,9,13,1,29.0,5830.0,5.0,77.0,72.0,68.72,1853.0,10.0,70.88,70.0
258,9,14,2,18.0,5840.0,5.0,78.0,75.0,69.26,2342.0,7.0,71.42,40.0
259,9,15,3,3.0,5800.0,7.0,72.0,55.0,54.32,5000.0,56.0,51.62,70.0
260,9,16,4,7.0,,10.0,67.0,59.0,51.44,5000.0,37.0,47.48,120.0
261,9,17,5,9.0,5790.0,3.0,71.0,61.0,50.54,4028.0,35.0,55.04,140.0
262,9,18,6,19.0,5830.0,5.0,71.0,71.0,,2716.0,26.0,63.68,140.0
263,9,19,7,8.0,5810.0,5.0,76.0,71.0,,3671.0,31.0,65.84,100.0
264,9,20,1,,5770.0,5.0,76.0,66.0,62.96,3431.0,26.0,62.24,50.0
265,9,21,2,23.0,5780.0,6.0,76.0,72.0,66.38,3795.0,31.0,66.92,70.0
266,9,22,3,13.0,5800.0,6.0,73.0,75.0,67.1,3120.0,35.0,66.92,40.0
267,9,23,4,,5770.0,3.0,66.0,71.0,63.68,4133.0,28.0,63.5,40.0
268,9,24,5,7.0,5800.0,5.0,80.0,65.0,60.08,2667.0,17.0,63.5,100.0
269,9,25,6,3.0,5780.0,9.0,73.0,61.0,,5000.0,39.0,52.7,120.0
270,9,26,7,5.0,5790.0,8.0,80.0,60.0,,5000.0,36.0,48.92,120.0
271,9,27,1,11.0,5770.0,5.0,75.0,64.0,55.94,308.0,25.0,68.72,140.0
272,9,28,2,12.0,5750.0,4.0,68.0,61.0,59.54,2982.0,18.0,59.9,120.0
273,9,29,3,5.0,5640.0,5.0,93.0,63.0,54.32,5000.0,30.0,52.7,70.0
274,9,30,4,4.0,5640.0,7.0,57.0,62.0,54.32,5000.0,25.0,51.26,150.0
275,10,1,5,5.0,5650.0,3.0,70.0,59.0,50.9,5000.0,38.0,47.66,200.0
276,10,2,6,4.0,5710.0,6.0,65.0,56.0,,5000.0,35.0,47.84,200.0
277,10,3,7,10.0,5760.0,6.0,66.0,59.0,,3070.0,13.0,60.08,200.0
278,10,4,1,17.0,5840.0,4.0,73.0,72.0,63.14,830.0,0.0,72.14,70.0
279,10,5,2,26.0,5880.0,3.0,77.0,71.0,67.64,711.0,-9.0,75.56,40.0
280,10,6,3,30.0,5890.0,5.0,80.0,75.0,71.06,1049.0,-10.0,78.98,50.0
281,10,7,4,18.0,5890.0,4.0,73.0,71.0,70.88,511.0,-39.0,83.84,17.0
282,10,8,5,12.0,5890.0,5.0,19.0,71.0,70.52,5000.0,-40.0,67.64,80.0
283,10,9,6,7.0,5890.0,6.0,19.0,73.0,,5000.0,-34.0,69.44,250.0
284,10,10,7,15.0,5850.0,3.0,73.0,78.0,,377.0,-3.0,78.8,200.0
285,10,11,1,12.0,5830.0,5.0,76.0,73.0,,862.0,27.0,73.58,2.0
286,10,12,2,7.0,5830.0,8.0,77.0,71.0,67.1,337.0,-17.0,81.14,20.0
287,10,13,3,28.0,5860.0,5.0,86.0,73.0,69.8,492.0,-2.0,82.22,7.0
288,10,14,4,22.0,5830.0,5.0,76.0,71.0,69.44,1394.0,13.0,75.02,30.0
289,10,15,5,18.0,5800.0,7.0,66.0,66.0,62.96,3146.0,27.0,64.04,50.0
290,10,16,6,14.0,5830.0,4.0,74.0,69.0,,2234.0,11.0,66.74,70.0
291,10,17,7,24.0,5790.0,5.0,71.0,69.0,,2109.0,21.0,69.62,17.0
292,10,18,1,10.0,5730.0,4.0,84.0,64.0,56.3,5000.0,23.0,54.5,80.0
293,10,19,2,14.0,5780.0,5.0,74.0,65.0,63.14,2270.0,-7.0,68.9,50.0
294,10,20,3,9.0,5740.0,7.0,48.0,54.0,62.96,2191.0,-13.0,68.72,60.0
295,10,21,4,12.0,5710.0,8.0,75.0,62.0,58.64,3448.0,12.0,58.64,60.0
296,10,22,5,7.0,5690.0,6.0,74.0,56.0,52.34,5000.0,13.0,48.92,80.0
297,10,23,6,7.0,5670.0,4.0,67.0,55.0,,5000.0,11.0,49.46,50.0
298,10,24,7,6.0,5760.0,4.0,75.0,58.0,,2719.0,25.0,56.84,50.0
299,10,25,1,13.0,5820.0,5.0,71.0,48.0,,1899.0,21.0,62.06,40.0
300,10,26,2,5.0,5790.0,3.0,35.0,54.0,,5000.0,-41.0,52.52,40.0
301,10,27,3,3.0,5760.0,5.0,23.0,57.0,53.42,5000.0,-21.0,50.9,300.0
302,10,28,4,7.0,5800.0,6.0,19.0,60.0,57.02,5000.0,-19.0,54.32,200.0
303,10,29,5,8.0,5810.0,7.0,59.0,61.0,55.76,2385.0,10.0,60.44,150.0
304,10,30,6,10.0,5750.0,4.0,60.0,63.0,,1938.0,0.0,62.6,100.0
305,10,31,7,12.0,5840.0,0.0,38.0,65.0,,590.0,-11.0,69.98,100.0
306,11,1,1,7.0,5860.0,3.0,,66.0,65.12,,-32.0,,60.0
307,11,2,2,5.0,5870.0,6.0,,68.0,68.9,,-42.0,,150.0
308,11,3,3,6.0,5920.0,3.0,22.0,71.0,69.08,328.0,-40.0,80.6,150.0
309,11,4,4,4.0,5900.0,0.0,,70.0,68.72,,-43.0,,200.0
310,11,5,5,5.0,5860.0,7.0,19.0,70.0,62.78,5000.0,-29.0,61.7,300.0
311,11,6,6,11.0,5840.0,3.0,,70.0,,,-9.0,,120.0
312,11,7,7,20.0,5840.0,0.0,45.0,68.0,,597.0,-22.0,73.58,30.0
313,11,8,1,4.0,5850.0,5.0,,64.0,64.04,,-25.0,,100.0
314,11,9,2,14.0,5810.0,2.0,47.0,69.0,60.98,469.0,-4.0,71.78,50.0
315,11,10,3,16.0,5770.0,2.0,73.0,59.0,57.2,1541.0,18.0,63.14,20.0
316,11,11,4,5.0,5710.0,4.0,67.0,49.0,44.24,5000.0,24.0,41.9,200.0
317,11,12,5,3.0,5500.0,9.0,56.0,39.0,41.36,5000.0,15.0,41.72,120.0
318,11,13,6,5.0,5660.0,3.0,54.0,50.0,,5000.0,27.0,44.6,300.0
319,11,14,7,1.0,5700.0,3.0,71.0,46.0,,5000.0,54.0,42.8,200.0
320,11,15,1,5.0,5810.0,5.0,59.0,54.0,54.5,5000.0,-28.0,53.6,70.0
321,11,16,2,4.0,5860.0,0.0,25.0,60.0,61.52,5000.0,-38.0,63.5,140.0
322,11,17,3,11.0,5900.0,0.0,24.0,62.0,62.6,5000.0,-36.0,60.08,150.0
323,11,18,4,6.0,5850.0,5.0,41.0,65.0,59.54,2014.0,-20.0,69.98,200.0
324,11,19,5,8.0,5780.0,3.0,50.0,66.0,59.72,436.0,1.0,70.34,4.0
325,11,20,6,14.0,5790.0,0.0,76.0,66.0,,830.0,3.0,66.02,40.0
326,11,21,7,18.0,5780.0,2.0,82.0,63.0,,1112.0,-8.0,66.38,30.0
327,11,22,1,12.0,5770.0,2.0,81.0,62.0,60.62,1210.0,-17.0,67.82,30.0
328,11,23,2,9.0,5750.0,2.0,85.0,60.0,59.72,501.0,-22.0,70.88,2.0
329,11,24,3,7.0,5780.0,5.0,76.0,63.0,60.44,875.0,-15.0,68.9,0.0
330,11,25,4,14.0,5790.0,5.0,66.0,60.0,,1601.0,7.0,62.06,30.0
331,11,26,5,4.0,5750.0,6.0,58.0,58.0,42.62,5000.0,59.0,41.9,60.0
332,11,27,6,3.0,5670.0,8.0,19.0,34.0,,5000.0,-63.0,37.04,150.0
333,11,28,7,3.0,5760.0,0.0,19.0,36.0,,5000.0,-52.0,41.0,100.0
334,11,29,1,3.0,5770.0,4.0,19.0,44.0,51.26,2280.0,-54.0,55.76,250.0
335,11,30,2,3.0,5810.0,2.0,19.0,53.0,55.94,2047.0,-43.0,63.5,150.0
336,12,1,3,3.0,5810.0,2.0,19.0,52.0,57.74,5000.0,-69.0,56.48,200.0
337,12,2,4,3.0,5870.0,3.0,19.0,53.0,60.8,3720.0,-50.0,61.34,200.0
338,12,3,5,3.0,5830.0,2.0,27.0,58.0,59.0,311.0,-24.0,69.98,200.0
339,12,4,6,6.0,5760.0,0.0,64.0,55.0,,2536.0,28.0,56.48,80.0
340,12,5,7,6.0,5680.0,0.0,52.0,50.0,,1154.0,-22.0,61.52,60.0
341,12,6,1,5.0,5780.0,4.0,19.0,48.0,54.14,2933.0,-40.0,59.9,300.0
342,12,7,2,3.0,5810.0,3.0,19.0,51.0,58.28,3064.0,-33.0,62.78,200.0
343,12,8,3,4.0,5760.0,0.0,32.0,62.0,56.12,826.0,-16.0,64.76,300.0
344,12,9,4,7.0,5680.0,0.0,58.0,40.0,46.94,5000.0,2.0,42.98,50.0
345,12,10,5,5.0,5750.0,0.0,26.0,44.0,52.88,111.0,-52.0,68.18,40.0
346,12,11,6,5.0,5790.0,5.0,19.0,49.0,,5000.0,-48.0,54.68,70.0
347,12,12,7,4.0,5770.0,3.0,19.0,53.0,,5000.0,-37.0,55.58,150.0
348,12,13,1,3.0,5750.0,0.0,19.0,53.0,51.98,5000.0,-26.0,51.08,150.0
349,12,14,2,2.0,5720.0,0.0,19.0,53.0,52.7,5000.0,-31.0,51.44,70.0
350,12,15,3,5.0,5760.0,3.0,19.0,55.0,58.1,948.0,-48.0,70.7,200.0
351,12,16,4,3.0,5780.0,0.0,19.0,51.0,54.32,5000.0,-50.0,50.9,120.0
352,12,17,5,4.0,5660.0,4.0,19.0,54.0,49.64,5000.0,-22.0,48.56,150.0
353,12,18,6,4.0,5610.0,2.0,58.0,48.0,,3687.0,-10.0,46.94,150.0
354,12,19,7,6.0,5640.0,0.0,51.0,53.0,,5000.0,0.0,44.24,60.0
355,12,20,1,6.0,5680.0,3.0,52.0,49.0,48.38,5000.0,-19.0,45.68,70.0
356,12,21,2,3.0,5650.0,5.0,19.0,48.0,47.12,5000.0,-28.0,45.32,150.0
357,12,22,3,4.0,5710.0,4.0,19.0,51.0,51.08,5000.0,-25.0,48.38,300.0
358,12,23,4,3.0,5680.0,4.0,57.0,47.0,45.32,508.0,-10.0,58.64,100.0
359,12,24,5,8.0,5630.0,4.0,50.0,50.0,,2851.0,-5.0,50.0,70.0
360,12,25,6,5.0,5770.0,0.0,,49.0,,,-35.0,,40.0
361,12,26,7,3.0,5800.0,7.0,19.0,51.0,,3143.0,,60.26,140.0
362,12,27,1,2.0,5730.0,3.0,53.0,51.0,49.28,111.0,-14.0,72.5,200.0
363,12,28,2,3.0,5690.0,3.0,23.0,51.0,49.28,5000.0,-36.0,51.26,70.0
364,12,29,3,5.0,5650.0,3.0,61.0,50.0,46.58,3704.0,18.0,46.94,40.0
365,12,30,4,1.0,5550.0,4.0,85.0,39.0,41.0,5000.0,8.0,39.92,100.0
366,12,31,5,2.0,,4.0,68.0,37.0,,5000.0,-3.0,37.22,70.0
