rownames,Motor,Screw,Pgain,Vgain,Class
1,E,E,5,4,4.0
2,B,D,6,5,11.0
3,D,D,4,3,6.0
4,B,A,3,2,48.0
5,D,B,6,5,6.0
6,E,C,4,3,20.0
7,C,A,3,2,46.0
8,A,A,3,2,49.0
9,C,A,6,5,19.0
10,D,A,4,1,27.0
11,B,E,6,5,9.0
12,E,C,5,4,7.0
13,B,C,4,1,4.0
14,E,C,3,1,29.0
15,C,C,5,4,11.0
16,E,B,3,2,37.0
17,D,C,3,1,23.0
18,B,C,5,4,9.0
19,B,B,5,4,12.0
20,C,E,4,2,2.0
21,E,D,4,3,24.0
22,A,D,4,3,30.0
23,B,C,6,5,9.0
24,A,C,4,2,13.0
25,A,B,6,5,13.0
26,E,C,6,5,7.0
27,A,A,3,1,47.0
28,A,E,4,2,9.0
29,C,D,3,2,37.0
30,B,B,3,2,43.0
31,B,E,4,2,6.0
32,B,C,3,1,41.0
33,C,E,4,1,12.0
34,C,A,6,2,12.0
35,C,C,6,5,11.0
36,E,E,3,2,29.0
37,D,E,3,1,10.0
38,E,C,4,2,1.0
39,C,B,6,5,12.0
40,C,D,4,1,2.0
41,D,B,4,1,16.0
42,C,B,4,3,22.0
43,C,C,4,3,24.0
44,B,D,4,1,3.0
45,B,A,5,3,15.0
46,A,B,4,3,27.0
47,B,A,4,1,20.0
48,E,D,4,2,8.0
49,C,E,3,2,42.0
50,D,D,3,1,17.0
51,D,A,6,5,8.0
52,C,B,3,2,44.0
53,B,E,3,2,45.0
54,C,D,5,4,11.0
55,B,B,4,2,18.0
56,A,E,4,3,31.0
57,A,A,4,2,22.0
58,B,D,4,3,27.0
59,E,A,3,2,50.0
60,B,C,4,3,25.0
61,E,B,4,2,13.0
62,E,A,5,4,13.0
63,E,B,5,4,8.0
64,C,A,6,1,12.0
65,D,A,4,3,18.0
66,C,B,4,2,11.0
67,D,B,3,2,36.0
68,D,C,3,2,34.0
69,C,A,5,2,12.0
70,B,D,4,2,7.0
71,B,A,6,5,20.0
72,D,A,4,2,4.0
73,C,B,5,4,12.0
74,A,E,6,5,11.0
75,A,C,4,1,6.0
76,A,E,5,4,11.0
77,E,C,4,1,4.0
78,B,B,3,1,44.0
79,A,D,3,2,45.0
80,E,D,3,2,34.0
81,E,A,3,1,51.0
82,A,C,6,5,11.0
83,C,E,5,4,9.0
84,C,A,5,4,19.0
85,E,A,6,5,13.0
86,B,E,5,4,9.0
87,E,E,4,3,21.0
88,B,A,4,2,21.0
89,B,D,5,4,11.0
90,C,C,4,2,6.0
91,A,A,5,3,16.0
92,C,E,4,3,28.0
93,A,A,4,3,30.0
94,C,A,6,3,12.0
95,A,E,4,1,3.0
96,A,D,6,5,11.0
97,E,D,3,1,23.0
98,C,B,4,1,8.0
99,B,D,3,2,42.0
100,B,B,4,3,26.0
101,B,C,4,2,11.0
102,A,E,3,2,44.0
103,B,D,3,1,41.0
104,D,B,5,4,7.0
105,C,C,4,1,3.0
106,C,D,4,2,3.0
107,E,B,4,1,32.0
108,D,B,3,1,34.0
109,E,B,6,5,8.0
110,D,A,3,1,38.0
111,A,D,5,4,11.0
112,C,A,4,1,18.0
113,C,D,6,5,9.0
114,B,A,4,3,28.0
115,E,A,4,3,33.0
116,A,A,4,1,21.0
117,A,C,4,3,26.0
118,E,D,6,5,5.0
119,E,A,4,2,26.0
120,C,D,3,1,35.0
121,B,B,4,1,13.0
122,C,A,4,2,19.0
123,C,A,5,1,12.0
124,C,E,3,1,34.0
125,C,A,3,1,43.0
126,C,A,4,3,27.0
127,C,C,3,1,37.0
128,D,A,5,4,8.0
129,A,B,5,4,13.0
130,C,C,3,2,43.0
131,E,D,5,4,5.0
132,D,C,4,3,12.0
133,E,E,6,5,4.0
134,D,B,4,2,6.0
135,A,D,4,2,9.0
136,B,B,6,5,12.0
137,A,B,4,1,14.0
138,A,C,5,4,11.0
139,B,E,4,1,2.0
140,C,B,3,1,41.0
141,E,E,4,2,11.0
142,B,E,4,3,30.0
143,A,E,3,1,41.0
144,A,B,4,2,20.0
145,A,C,3,1,41.0
146,E,C,3,2,35.0
147,B,A,3,1,46.0
148,D,D,3,2,35.0
149,A,C,3,2,45.0
150,E,A,4,1,22.0
151,B,A,5,4,20.0
152,E,E,3,1,17.0
153,D,E,3,2,23.0
154,E,B,3,1,35.0
155,A,D,4,1,3.0
156,A,D,3,1,42.0
157,E,B,4,3,26.0
158,A,B,3,1,45.0
159,D,B,4,3,13.0
160,A,A,5,4,20.0
161,D,A,3,2,39.0
162,C,E,6,5,9.0
163,B,C,3,2,44.0
164,B,E,3,1,40.0
165,C,D,4,3,25.0
166,A,B,3,2,44.0
167,A,A,6,5,20.0
