0
96.96969696969697
undefined
1
96.96969696969697
undefined
2
96.96969696969697
undefined
3
96.96969696969697
undefined
4
93.93939393939394
undefined
5
93.93939393939394
undefined
6
93.93939393939394
undefined
7
93.93939393939394
undefined
8
93.93939393939394
undefined
9
93.93939393939394
undefined
10
93.93939393939394
undefined
11
93.93939393939394
undefined
12
93.93939393939394
undefined
13
93.93939393939394
undefined
14
93.93939393939394
undefined
15
93.93939393939394
undefined
16
93.93939393939394
undefined
17
93.93939393939394
undefined
18
93.93939393939394
undefined
19
93.93939393939394
undefined
