0
90.9090909090909
undefined
1
90.9090909090909
undefined
2
90.9090909090909
undefined
3
93.93939393939394
undefined
4
93.93939393939394
undefined
5
93.93939393939394
undefined
6
93.93939393939394
undefined
7
93.93939393939394
undefined
8
90.9090909090909
undefined
9
90.9090909090909
undefined
10
93.93939393939394
undefined
11
90.9090909090909
undefined
12
90.9090909090909
undefined
13
93.93939393939394
undefined
14
90.9090909090909
undefined
15
93.93939393939394
undefined
16
93.93939393939394
undefined
17
93.93939393939394
undefined
18
93.93939393939394
undefined
19
93.93939393939394
undefined
