0
90.9090909090909
undefined
1
90.9090909090909
undefined
2
90.9090909090909
undefined
3
90.9090909090909
undefined
4
93.93939393939394
undefined
5
90.9090909090909
undefined
6
87.87878787878788
undefined
7
93.93939393939394
undefined
8
87.87878787878788
undefined
9
87.87878787878788
undefined
10
87.87878787878788
undefined
11
84.84848484848484
undefined
12
90.9090909090909
undefined
13
87.87878787878788
undefined
14
84.84848484848484
undefined
15
90.9090909090909
undefined
16
84.84848484848484
undefined
17
84.84848484848484
undefined
18
84.84848484848484
undefined
19
84.84848484848484
undefined
