0
87.87878787878788
undefined
1
87.87878787878788
undefined
2
87.87878787878788
undefined
3
87.87878787878788
undefined
4
87.87878787878788
undefined
5
87.87878787878788
undefined
6
87.87878787878788
undefined
7
87.87878787878788
undefined
8
87.87878787878788
undefined
9
87.87878787878788
undefined
10
87.87878787878788
undefined
11
87.87878787878788
undefined
12
87.87878787878788
undefined
13
87.87878787878788
undefined
14
87.87878787878788
undefined
15
87.87878787878788
undefined
16
87.87878787878788
undefined
17
87.87878787878788
undefined
18
87.87878787878788
undefined
19
87.87878787878788
undefined
