0
90.9090909090909
undefined
1
90.9090909090909
undefined
2
96.96969696969697
undefined
3
90.9090909090909
undefined
4
90.9090909090909
undefined
5
90.9090909090909
undefined
6
93.93939393939394
undefined
7
90.9090909090909
undefined
8
93.93939393939394
undefined
9
93.93939393939394
undefined
10
93.93939393939394
undefined
11
93.93939393939394
undefined
12
93.93939393939394
undefined
13
93.93939393939394
undefined
14
93.93939393939394
undefined
15
93.93939393939394
undefined
16
93.93939393939394
undefined
17
90.9090909090909
undefined
18
90.9090909090909
undefined
19
93.93939393939394
undefined
