0
84.84848484848484
undefined
1
84.84848484848484
undefined
2
84.84848484848484
undefined
3
84.84848484848484
undefined
4
84.84848484848484
undefined
5
84.84848484848484
undefined
6
81.81818181818183
undefined
7
81.81818181818183
undefined
8
81.81818181818183
undefined
9
81.81818181818183
undefined
10
81.81818181818183
undefined
11
81.81818181818183
undefined
12
81.81818181818183
undefined
13
81.81818181818183
undefined
14
81.81818181818183
undefined
15
81.81818181818183
undefined
16
81.81818181818183
undefined
17
81.81818181818183
undefined
18
81.81818181818183
undefined
19
84.84848484848484
undefined
