0
90.9090909090909
undefined
1
93.93939393939394
undefined
2
90.9090909090909
undefined
3
90.9090909090909
undefined
4
90.9090909090909
undefined
5
90.9090909090909
undefined
6
90.9090909090909
undefined
7
90.9090909090909
undefined
8
90.9090909090909
undefined
9
93.93939393939394
undefined
10
93.93939393939394
undefined
11
90.9090909090909
undefined
12
90.9090909090909
undefined
13
93.93939393939394
undefined
14
90.9090909090909
undefined
15
90.9090909090909
undefined
16
90.9090909090909
undefined
17
90.9090909090909
undefined
18
90.9090909090909
undefined
19
90.9090909090909
undefined
