0
96.96969696969697
undefined
1
96.96969696969697
undefined
2
96.96969696969697
undefined
3
96.96969696969697
undefined
4
96.96969696969697
undefined
5
96.96969696969697
undefined
6
96.96969696969697
undefined
7
96.96969696969697
undefined
8
96.96969696969697
undefined
9
96.96969696969697
undefined
10
96.96969696969697
undefined
11
96.96969696969697
undefined
12
96.96969696969697
undefined
13
96.96969696969697
undefined
14
96.96969696969697
undefined
15
93.93939393939394
undefined
16
93.93939393939394
undefined
17
93.93939393939394
undefined
18
96.96969696969697
undefined
19
93.93939393939394
undefined
