0
96.96969696969697
undefined
1
93.93939393939394
undefined
2
93.93939393939394
undefined
3
93.93939393939394
undefined
4
93.93939393939394
undefined
5
93.93939393939394
undefined
6
93.93939393939394
undefined
7
93.93939393939394
undefined
8
96.96969696969697
undefined
9
96.96969696969697
undefined
10
96.96969696969697
undefined
11
96.96969696969697
undefined
12
93.93939393939394
undefined
13
93.93939393939394
undefined
14
93.93939393939394
undefined
15
96.96969696969697
undefined
16
96.96969696969697
undefined
17
96.96969696969697
undefined
18
96.96969696969697
undefined
19
93.93939393939394
undefined
