0
93.93939393939394
undefined
1
93.93939393939394
undefined
2
93.93939393939394
undefined
3
93.93939393939394
undefined
4
93.93939393939394
undefined
5
93.93939393939394
undefined
6
90.9090909090909
undefined
7
90.9090909090909
undefined
8
90.9090909090909
undefined
9
90.9090909090909
undefined
10
90.9090909090909
undefined
11
90.9090909090909
undefined
12
90.9090909090909
undefined
13
90.9090909090909
undefined
14
90.9090909090909
undefined
15
87.87878787878788
undefined
16
87.87878787878788
undefined
17
87.87878787878788
undefined
18
87.87878787878788
undefined
19
87.87878787878788
undefined
