0
90.9090909090909
undefined
1
90.9090909090909
undefined
2
90.9090909090909
undefined
3
90.9090909090909
undefined
4
90.9090909090909
undefined
5
90.9090909090909
undefined
6
84.84848484848484
undefined
7
84.84848484848484
undefined
8
84.84848484848484
undefined
9
84.84848484848484
undefined
10
84.84848484848484
undefined
11
84.84848484848484
undefined
12
84.84848484848484
undefined
13
87.87878787878788
undefined
14
87.87878787878788
undefined
15
87.87878787878788
undefined
16
84.84848484848484
undefined
17
87.87878787878788
undefined
18
87.87878787878788
undefined
19
84.84848484848484
undefined
