0
93.93939393939394
undefined
1
93.93939393939394
undefined
2
93.93939393939394
undefined
3
93.93939393939394
undefined
4
93.93939393939394
undefined
5
90.9090909090909
undefined
6
90.9090909090909
undefined
7
90.9090909090909
undefined
8
90.9090909090909
undefined
9
90.9090909090909
undefined
10
93.93939393939394
undefined
11
96.96969696969697
undefined
12
93.93939393939394
undefined
13
90.9090909090909
undefined
14
93.93939393939394
undefined
15
93.93939393939394
undefined
16
93.93939393939394
undefined
17
93.93939393939394
undefined
18
90.9090909090909
undefined
19
90.9090909090909
undefined
