pregnant,glucose,pressure,triceps,insulin,mass,pedigree,age,Class
4,112,78,40,0,39.4,0.236,38,neg
6,183,94,0,0,40.8,1.461,45,neg
6,125,68,30,120,30.0,0.464,32,neg
2,107,74,30,100,33.6,0.404,23,neg
3,116,0,0,0,23.5,0.187,23,neg
1,133,102,28,140,32.8,0.234,45,pos
10,101,76,48,180,32.9,0.171,63,neg
1,130,60,23,170,28.6,0.692,21,neg
2,124,68,28,205,32.9,0.875,30,pos
2,75,64,24,55,29.7,0.37,33,neg
1,119,54,13,50,22.3,0.205,24,neg
13,129,0,30,0,39.9,0.569,44,pos
3,78,50,32,88,31.0,0.248,26,pos
1,143,86,30,330,30.1,0.892,23,neg
0,121,66,30,165,34.3,0.203,33,pos
6,194,78,0,0,23.5,0.129,59,pos
5,128,80,0,0,34.6,0.144,45,neg
0,74,52,10,36,27.8,0.269,22,neg
4,142,86,0,0,44.0,0.645,22,pos
2,90,70,17,0,27.3,0.085,22,neg
17,163,72,41,114,40.9,0.817,47,pos
5,0,80,32,0,41.0,0.346,37,pos
2,112,78,50,140,39.4,0.175,24,neg
2,84,0,0,0,0.0,0.304,21,neg
6,102,82,0,0,30.8,0.18,36,pos
5,108,72,43,75,36.1,0.263,33,neg
1,92,62,25,41,19.5,0.482,25,neg
4,158,78,0,0,32.9,0.803,31,pos
0,161,50,0,0,21.9,0.254,65,neg
2,158,90,0,0,31.6,0.805,66,pos
6,129,90,7,326,19.6,0.582,60,neg
3,193,70,31,0,34.9,0.241,25,pos
1,172,68,49,579,42.4,0.702,28,pos
0,117,0,0,0,33.8,0.932,44,neg
0,180,78,63,14,59.4,2.42,25,pos
4,127,88,11,155,34.5,0.598,28,neg
4,131,68,21,166,33.1,0.16,28,neg
5,168,64,0,0,32.9,0.135,41,pos
1,196,76,36,249,36.5,0.875,29,pos
4,115,72,0,0,28.9,0.376,46,pos
4,173,70,14,168,29.7,0.361,33,pos
1,138,82,0,0,40.1,0.236,28,neg
2,105,80,45,191,33.7,0.711,29,pos
4,109,64,44,99,34.8,0.905,26,pos
6,87,80,0,0,23.2,0.084,32,neg
4,151,90,38,0,29.7,0.294,36,neg
9,119,80,35,0,29.0,0.263,29,pos
2,92,52,0,0,30.1,0.141,22,neg
10,108,66,0,0,32.4,0.272,42,pos
0,179,50,36,159,37.8,0.455,22,pos
1,189,60,23,846,30.1,0.398,59,pos
13,106,70,0,0,34.2,0.251,52,neg
3,120,70,30,135,42.9,0.452,30,neg
5,117,86,30,105,39.1,0.251,42,neg
6,154,78,41,140,46.1,0.571,27,neg
7,195,70,33,145,25.1,0.163,55,pos
6,96,0,0,0,23.7,0.19,28,neg
0,106,70,37,148,39.4,0.605,22,neg
1,149,68,29,127,29.3,0.349,42,pos
4,97,60,23,0,28.2,0.443,22,neg
3,96,78,39,0,37.3,0.238,40,neg
3,100,68,23,81,31.6,0.949,28,neg
5,99,54,28,83,34.0,0.499,30,neg
1,199,76,43,0,42.9,1.394,22,pos
8,125,96,0,0,0.0,0.232,54,pos
1,119,88,41,170,45.3,0.507,26,neg
3,170,64,37,225,34.5,0.356,30,pos
13,145,82,19,110,22.2,0.245,57,neg
1,89,66,23,94,28.1,0.167,21,neg
7,119,0,0,0,25.2,0.209,37,neg
7,150,78,29,126,35.2,0.692,54,pos
1,96,122,0,0,22.4,0.207,27,neg
2,93,64,32,160,38.0,0.674,23,pos
8,85,55,20,0,24.4,0.136,42,neg
1,97,68,21,0,27.2,1.095,22,neg
0,101,65,28,0,24.6,0.237,22,neg
3,122,78,0,0,23.0,0.254,40,neg
2,85,65,0,0,39.6,0.93,27,neg
6,85,78,0,0,31.2,0.382,42,neg
6,80,80,36,0,39.8,0.177,28,neg
8,120,86,0,0,28.4,0.259,22,pos
1,111,94,0,0,32.8,0.265,45,neg
1,180,0,0,0,43.3,0.282,41,pos
4,141,74,0,0,27.6,0.244,40,neg
12,84,72,31,0,29.7,0.297,46,pos
1,109,60,8,182,25.4,0.947,21,neg
8,143,66,0,0,34.9,0.129,41,pos
2,100,70,52,57,40.5,0.677,25,neg
7,137,90,41,0,32.0,0.391,39,neg
2,146,70,38,360,28.0,0.337,29,pos
2,197,70,99,0,34.7,0.575,62,pos
5,136,84,41,88,35.0,0.286,35,pos
1,136,74,50,204,37.4,0.399,24,neg
2,108,62,10,278,25.3,0.881,22,neg
5,86,68,28,71,30.2,0.364,24,neg
13,158,114,0,0,42.3,0.257,44,pos
2,120,76,37,105,39.7,0.215,29,neg
11,120,80,37,150,42.3,0.785,48,pos
2,134,70,0,0,28.9,0.542,23,pos
1,87,68,34,77,37.6,0.401,24,neg
2,90,80,14,55,24.4,0.249,24,neg
11,135,0,0,0,52.3,0.578,40,pos
0,67,76,0,0,45.3,0.194,46,neg
1,71,78,50,45,33.2,0.422,21,neg
7,109,80,31,0,35.9,1.127,43,pos
8,112,72,0,0,23.6,0.84,58,neg
1,109,56,21,135,25.2,0.833,23,neg
7,187,68,39,304,37.7,0.254,41,pos
6,102,90,39,0,35.7,0.674,28,neg
4,189,110,31,0,28.5,0.68,37,neg
12,140,82,43,325,39.2,0.528,58,pos
10,122,68,0,0,31.2,0.258,41,neg
0,198,66,32,274,41.3,0.502,28,pos
4,183,0,0,0,28.4,0.212,36,pos
2,100,54,28,105,37.8,0.498,24,neg
3,163,70,18,105,31.6,0.268,28,pos
5,114,74,0,0,24.9,0.744,57,neg
0,141,0,0,0,42.4,0.205,29,pos
6,104,74,18,156,29.9,0.722,41,pos
0,162,76,56,100,53.2,0.759,25,pos
0,152,82,39,272,41.5,0.27,27,neg
0,98,82,15,84,25.2,0.299,22,neg
0,117,80,31,53,45.2,0.089,24,neg
2,197,70,45,543,30.5,0.158,53,pos
4,146,92,0,0,31.2,0.539,61,pos
1,117,88,24,145,34.5,0.403,40,pos
1,157,72,21,168,25.6,0.123,24,neg
3,158,76,36,245,31.6,0.851,28,pos
0,100,88,60,110,46.8,0.962,31,neg
4,85,58,22,49,27.8,0.306,28,neg
2,155,52,27,540,38.7,0.24,25,pos
1,86,66,52,65,41.3,0.917,29,neg
2,99,60,17,160,36.6,0.453,21,neg
6,144,72,27,228,33.9,0.255,40,neg
2,99,52,15,94,24.6,0.637,21,neg
1,109,58,18,116,28.5,0.219,22,neg
6,151,62,31,120,35.5,0.692,28,neg
7,150,66,42,342,34.7,0.718,42,neg
10,92,62,0,0,25.9,0.167,31,neg
1,84,64,23,115,36.9,0.471,28,neg
2,101,58,17,265,24.2,0.614,23,neg
0,124,56,13,105,21.8,0.452,21,neg
5,116,74,0,0,25.6,0.201,30,neg
1,87,60,37,75,37.2,0.509,22,neg
0,84,64,22,66,35.8,0.545,21,neg
2,71,70,27,0,28.0,0.586,22,neg
10,75,82,0,0,33.3,0.263,38,neg
6,162,62,0,0,24.3,0.178,50,pos
7,81,78,40,48,46.7,0.261,42,neg
9,72,78,25,0,31.6,0.28,38,neg
0,105,68,22,0,20.0,0.236,22,neg
1,124,74,36,0,27.8,0.1,30,neg
0,124,70,20,0,27.4,0.254,36,pos
0,137,40,35,168,43.1,2.288,33,pos
5,88,66,21,23,24.4,0.342,30,neg
2,88,58,26,16,28.4,0.766,22,neg
3,162,52,38,0,37.2,0.652,24,pos
2,122,70,27,0,36.8,0.34,27,neg
0,104,64,37,64,33.6,0.51,22,pos
1,107,68,19,0,26.5,0.165,24,neg
3,182,74,0,0,30.5,0.345,29,pos
1,79,60,42,48,43.5,0.678,23,neg
5,109,75,26,0,36.0,0.546,60,neg
8,151,78,32,210,42.9,0.516,36,pos
2,98,60,17,120,34.7,0.198,22,neg
5,111,72,28,0,23.9,0.407,27,neg
0,135,94,46,145,40.6,0.284,26,neg
6,105,80,28,0,32.5,0.878,26,neg
1,109,38,18,120,23.1,0.407,26,neg
1,181,64,30,180,34.1,0.328,38,pos
1,80,55,0,0,19.1,0.258,21,neg
8,179,72,42,130,32.7,0.719,36,pos
4,99,72,17,0,25.6,0.294,28,neg
12,151,70,40,271,41.8,0.742,38,pos
12,92,62,7,258,27.6,0.926,44,pos
1,125,70,24,110,24.3,0.221,25,neg
1,107,50,19,0,28.3,0.181,29,neg
3,121,52,0,0,36.0,0.127,25,pos
7,181,84,21,192,35.9,0.586,51,pos
3,125,58,0,0,31.6,0.151,24,neg
2,117,90,19,71,25.2,0.313,21,neg
1,193,50,16,375,25.9,0.655,24,neg
2,175,88,0,0,22.9,0.326,22,neg
4,144,58,28,140,29.5,0.287,37,neg
9,145,88,34,165,30.3,0.771,53,pos
1,97,70,40,0,38.1,0.218,30,neg
2,122,60,18,106,29.8,0.717,22,neg
5,123,74,40,77,34.1,0.269,28,neg
0,145,0,0,0,44.2,0.63,31,pos
4,83,86,19,0,29.3,0.317,34,neg
3,96,56,34,115,24.7,0.944,39,neg
4,125,80,0,0,32.3,0.536,27,pos
1,144,82,40,0,41.3,0.607,28,neg
7,114,76,17,110,23.8,0.466,31,neg
4,117,62,12,0,29.7,0.38,30,pos
4,137,84,0,0,31.2,0.252,30,neg
10,129,62,36,0,41.2,0.441,38,pos
7,147,76,0,0,39.4,0.257,43,pos
2,68,70,32,66,25.0,0.187,25,neg
4,91,70,32,88,33.1,0.446,22,neg
2,108,80,0,0,27.0,0.259,52,pos
4,197,70,39,744,36.7,2.329,31,neg
3,87,60,18,0,21.8,0.444,21,neg
0,105,64,41,142,41.5,0.173,22,neg
11,143,94,33,146,36.6,0.254,51,pos
8,155,62,26,495,34.0,0.543,46,pos
0,113,76,0,0,33.3,0.278,23,pos
7,103,66,32,0,39.1,0.344,31,pos
5,96,74,18,67,33.6,0.997,43,neg
8,95,72,0,0,36.8,0.485,57,neg
6,124,72,0,0,27.6,0.368,29,pos
1,108,60,46,178,35.5,0.415,24,neg
7,125,86,0,0,37.6,0.304,51,neg
3,142,80,15,0,32.4,0.2,63,neg
1,90,62,18,59,25.1,1.268,25,neg
13,106,72,54,0,36.6,0.178,45,neg
7,97,76,32,91,40.9,0.871,32,pos
0,128,68,19,180,30.5,1.391,25,pos
8,100,76,0,0,38.7,0.19,42,neg
3,102,44,20,94,30.8,0.4,26,neg
2,100,66,20,90,32.9,0.867,28,pos
1,81,72,18,40,26.6,0.283,24,neg
7,106,92,18,0,22.7,0.235,48,neg
10,162,84,0,0,27.7,0.182,54,neg
8,196,76,29,280,37.5,0.605,57,pos
1,151,60,0,0,26.1,0.179,22,neg
11,155,76,28,150,33.3,1.353,51,pos
0,101,76,0,0,35.7,0.198,26,neg
3,108,62,24,0,26.0,0.223,25,neg
6,91,0,0,0,29.8,0.501,31,neg
2,105,58,40,94,34.9,0.225,25,neg
2,102,86,36,120,45.5,0.127,23,pos
11,127,106,0,0,39.0,0.19,51,neg
0,107,60,25,0,26.4,0.133,23,neg
1,91,54,25,100,25.2,0.234,23,neg
3,113,44,13,0,22.4,0.14,22,neg
2,105,75,0,0,23.3,0.56,53,neg
0,107,62,30,74,36.6,0.757,25,pos
7,142,90,24,480,30.4,0.128,43,pos
4,110,76,20,100,28.4,0.118,27,neg
0,84,82,31,125,38.2,0.233,23,neg
8,120,78,0,0,25.0,0.409,64,neg
7,168,88,42,321,38.2,0.787,40,pos
2,122,76,27,200,35.9,0.483,26,neg
0,146,70,0,0,37.9,0.334,28,pos
6,111,64,39,0,34.2,0.26,24,neg
3,128,72,25,190,32.4,0.549,27,pos
3,103,72,30,152,27.6,0.73,27,neg
3,173,78,39,185,33.8,0.97,31,pos
0,188,82,14,185,32.0,0.682,22,pos
2,155,74,17,96,26.6,0.433,27,pos
0,102,75,23,0,0.0,0.572,21,neg
3,84,72,32,0,37.2,0.267,28,neg
0,162,76,36,0,49.6,0.364,26,pos
8,118,72,19,0,23.1,1.476,46,neg
7,196,90,0,0,39.8,0.451,41,pos
7,184,84,33,0,35.5,0.355,41,pos
2,110,74,29,125,32.4,0.698,27,neg
0,137,68,14,148,24.8,0.143,21,neg
13,153,88,37,140,40.6,1.174,39,neg
5,106,82,30,0,39.5,0.286,38,neg
1,97,70,15,0,18.2,0.147,21,neg
0,147,85,54,0,42.8,0.375,24,neg
7,100,0,0,0,30.0,0.484,32,pos
6,114,0,0,0,0.0,0.189,26,neg
1,122,90,51,220,49.7,0.325,31,pos
0,137,70,38,0,33.2,0.17,22,neg
10,101,86,37,0,45.6,1.136,38,pos
9,154,78,30,100,30.9,0.164,45,neg
1,146,56,0,0,29.7,0.564,29,neg
1,100,66,29,196,32.0,0.444,42,neg
1,105,58,0,0,24.3,0.187,21,neg
1,77,56,30,56,33.3,1.251,24,neg
3,139,54,0,0,25.6,0.402,22,pos
4,154,62,31,284,32.8,0.237,23,neg
0,141,84,26,0,32.4,0.433,22,neg
2,56,56,28,45,24.2,0.332,22,neg
3,132,80,0,0,34.4,0.402,44,pos
1,102,74,0,0,39.5,0.293,42,pos
14,100,78,25,184,36.6,0.412,46,pos
4,99,68,38,0,32.8,0.145,33,neg
1,107,72,30,82,30.8,0.821,24,neg
9,140,94,0,0,32.7,0.734,45,pos
3,90,78,0,0,42.7,0.559,21,neg
4,76,62,0,0,34.0,0.391,25,neg
6,147,80,0,0,29.5,0.178,50,pos
7,159,66,0,0,30.4,0.383,36,pos
2,74,0,0,0,0.0,0.102,22,neg
0,131,0,0,0,43.2,0.27,26,pos
10,90,85,32,0,34.9,0.825,56,pos
2,106,64,35,119,30.5,1.4,34,neg
4,110,92,0,0,37.6,0.191,30,neg
5,158,84,41,210,39.4,0.395,29,pos
2,94,76,18,66,31.6,0.649,23,neg
9,124,70,33,402,35.4,0.282,34,neg
8,124,76,24,600,28.7,0.687,52,pos
1,99,72,30,18,38.6,0.412,21,neg
0,108,68,20,0,27.3,0.787,32,neg
1,124,60,32,0,35.8,0.514,21,neg
1,99,58,10,0,25.4,0.551,21,neg
2,125,60,20,140,33.8,0.088,31,neg
3,169,74,19,125,29.9,0.268,31,pos
5,143,78,0,0,45.0,0.19,47,neg
5,88,78,30,0,27.6,0.258,37,neg
7,105,0,0,0,0.0,0.305,24,neg
6,134,70,23,130,35.4,0.542,29,pos
8,105,100,36,0,43.3,0.239,45,pos
10,129,76,28,122,35.9,0.28,39,neg
1,93,56,11,0,22.5,0.417,22,neg
3,89,74,16,85,30.4,0.551,38,neg
1,80,74,11,60,30.0,0.527,22,neg
0,173,78,32,265,46.5,1.159,58,neg
0,120,74,18,63,30.5,0.285,26,neg
9,106,52,0,0,31.2,0.38,42,neg
4,146,85,27,100,28.9,0.189,27,neg
0,129,110,46,130,67.1,0.319,26,pos
8,167,106,46,231,37.6,0.165,43,pos
0,118,84,47,230,45.8,0.551,31,pos
0,95,80,45,92,36.5,0.33,26,neg
0,101,64,17,0,21.0,0.252,21,neg
7,83,78,26,71,29.3,0.767,36,neg
0,102,86,17,105,29.3,0.695,27,neg
0,78,88,29,40,36.9,0.434,21,neg
5,103,108,37,0,39.2,0.305,65,neg
4,114,64,0,0,28.9,0.126,24,neg
2,111,60,0,0,26.2,0.343,23,neg
6,107,88,0,0,36.8,0.727,31,neg
13,76,60,0,0,32.8,0.18,41,neg
12,121,78,17,0,26.5,0.259,62,neg
1,173,74,0,0,36.8,0.088,38,pos
1,79,80,25,37,25.4,0.583,22,neg
3,99,80,11,64,19.3,0.284,30,neg
1,168,88,29,0,35.0,0.905,52,pos
7,62,78,0,0,32.6,0.391,41,neg
7,133,88,15,155,32.4,0.262,37,neg
4,95,70,32,0,32.1,0.612,24,neg
4,145,82,18,0,32.5,0.235,70,pos
1,143,74,22,61,26.2,0.256,21,neg
0,180,90,26,90,36.5,0.314,35,pos
4,146,78,0,0,38.5,0.52,67,pos
7,107,74,0,0,29.6,0.254,31,pos
7,178,84,0,0,39.9,0.331,41,pos
7,124,70,33,215,25.5,0.161,37,neg
0,137,84,27,0,27.3,0.231,59,neg
5,77,82,41,42,35.8,0.156,35,neg
2,142,82,18,64,24.7,0.761,21,neg
9,165,88,0,0,30.4,0.302,49,pos
2,128,78,37,182,43.3,1.224,31,pos
5,187,76,27,207,43.6,1.034,53,pos
1,90,68,8,0,24.5,1.138,36,neg
5,166,72,19,175,25.8,0.587,51,pos
10,68,106,23,49,35.5,0.285,47,neg
10,139,80,0,0,27.1,1.441,57,neg
8,110,76,0,0,27.8,0.237,58,neg
7,133,84,0,0,40.2,0.696,37,neg
8,126,74,38,75,25.9,0.162,39,neg
1,119,44,47,63,35.5,0.28,25,neg
5,158,70,0,0,29.8,0.207,63,neg
7,129,68,49,125,38.5,0.439,43,pos
12,140,85,33,0,37.4,0.244,41,neg
3,116,74,15,105,26.3,0.107,24,neg
8,197,74,0,0,25.9,1.191,39,pos
2,83,66,23,50,32.2,0.497,22,neg
1,97,64,19,82,18.2,0.299,21,neg
4,154,72,29,126,31.3,0.338,37,neg
3,99,54,19,86,25.6,0.154,24,neg
1,100,66,15,56,23.6,0.666,26,neg
0,146,82,0,0,40.5,1.781,44,neg
3,80,0,0,0,0.0,0.174,22,neg
2,101,58,35,90,21.8,0.155,22,neg
0,104,76,0,0,18.4,0.582,27,neg
1,164,82,43,67,32.8,0.341,50,neg
1,73,50,10,0,23.0,0.248,21,neg
3,83,58,31,18,34.3,0.336,25,neg
9,184,85,15,0,30.0,1.213,49,pos
1,100,74,12,46,19.5,0.149,28,neg
5,99,74,27,0,29.0,0.203,32,neg
0,105,90,0,0,29.6,0.197,46,neg
0,57,60,0,0,21.7,0.735,67,neg
1,113,64,35,0,33.6,0.543,21,pos
5,166,76,0,0,45.7,0.34,27,pos
6,99,60,19,54,26.9,0.497,32,neg
8,65,72,23,0,32.0,0.6,42,neg
8,188,78,0,0,47.9,0.137,43,pos
9,123,70,44,94,33.1,0.374,40,neg
2,114,68,22,0,28.7,0.092,25,neg
3,113,50,10,85,29.5,0.626,25,neg
4,95,64,0,0,32.0,0.161,31,pos
9,164,78,0,0,32.8,0.148,45,pos
5,95,72,33,0,37.7,0.37,27,neg
7,187,50,33,392,33.9,0.826,34,pos
1,0,48,20,0,24.7,0.14,22,neg
4,132,0,0,0,32.9,0.302,23,pos
3,80,82,31,70,34.2,1.292,27,pos
1,111,62,13,182,24.0,0.138,23,neg
3,102,74,0,0,29.5,0.121,32,neg
5,112,66,0,0,37.8,0.261,41,pos
6,103,66,0,0,24.3,0.249,29,neg
3,111,90,12,78,28.4,0.495,29,neg
3,173,82,48,465,38.4,2.137,25,pos
2,100,68,25,71,38.5,0.324,26,neg
2,122,52,43,158,36.2,0.816,28,neg
1,128,82,17,183,27.5,0.115,22,neg
10,115,98,0,0,24.0,1.022,34,neg
0,125,68,0,0,24.7,0.206,21,neg
2,87,0,23,0,28.9,0.773,25,neg
1,95,82,25,180,35.0,0.233,43,pos
3,128,78,0,0,21.1,0.268,55,neg
4,132,86,31,0,28.0,0.419,63,neg
4,156,75,0,0,48.3,0.238,32,pos
3,111,58,31,44,29.5,0.43,22,neg
0,118,64,23,89,0.0,1.731,21,neg
3,84,68,30,106,31.9,0.591,25,neg
5,144,82,26,285,32.0,0.452,58,pos
2,89,90,30,0,33.5,0.292,42,neg
1,116,70,28,0,27.4,0.204,21,neg
9,171,110,24,240,45.4,0.721,54,pos
0,151,90,46,0,42.1,0.371,21,pos
5,136,82,0,0,0.0,0.64,69,neg
0,189,104,25,0,34.3,0.435,41,pos
6,134,80,37,370,46.2,0.238,46,pos
2,92,76,20,0,24.2,1.698,28,neg
4,116,72,12,87,22.1,0.463,37,neg
2,130,96,0,0,22.6,0.268,21,neg
7,159,64,0,0,27.4,0.294,40,neg
11,111,84,40,0,46.8,0.925,45,pos
8,100,74,40,215,39.4,0.661,43,pos
6,98,58,33,190,34.0,0.43,43,neg
5,130,82,0,0,39.1,0.956,37,pos
1,95,60,18,58,23.9,0.26,22,neg
2,115,64,22,0,30.8,0.421,21,neg
8,107,80,0,0,24.6,0.856,34,neg
0,127,80,37,210,36.3,0.804,23,neg
4,122,68,0,0,35.0,0.394,29,neg
1,130,70,13,105,25.9,0.472,22,neg
5,97,76,27,0,35.6,0.378,52,pos
5,73,60,0,0,26.8,0.268,27,neg
9,91,68,0,0,24.2,0.2,58,neg
1,163,72,0,0,39.0,1.222,33,pos
0,91,68,32,210,39.9,0.381,25,neg
1,116,78,29,180,36.1,0.496,25,neg
3,61,82,28,0,34.4,0.243,46,neg
10,122,78,31,0,27.6,0.512,45,neg
1,114,66,36,200,38.1,0.289,21,neg
1,71,62,0,0,21.8,0.416,26,neg
5,132,80,0,0,26.8,0.186,69,neg
2,96,68,13,49,21.1,0.647,26,neg
0,94,0,0,0,0.0,0.256,25,neg
9,164,84,21,0,30.8,0.831,32,pos
1,125,50,40,167,33.3,0.962,28,pos
5,121,72,23,112,26.2,0.245,30,neg
10,161,68,23,132,25.5,0.326,47,pos
6,137,61,0,0,24.2,0.151,55,neg
5,117,92,0,0,34.1,0.337,38,neg
14,175,62,30,0,33.6,0.212,38,pos
4,118,70,0,0,44.5,0.904,26,neg
8,91,82,0,0,35.6,0.587,68,neg
7,106,60,24,0,26.5,0.296,29,pos
0,179,90,27,0,44.1,0.686,23,pos
2,81,72,15,76,30.1,0.547,25,neg
2,108,62,32,56,25.2,0.128,21,neg
0,138,0,0,0,36.3,0.933,25,pos
0,131,66,40,0,34.3,0.196,22,pos
7,160,54,32,175,30.5,0.588,39,pos
6,125,76,0,0,33.8,0.121,54,pos
7,102,74,40,105,37.2,0.204,45,neg
3,130,78,23,79,28.4,0.323,34,pos
9,57,80,37,0,32.8,0.096,41,neg
0,113,80,16,0,31.0,0.874,21,neg
2,100,64,23,0,29.7,0.368,21,neg
6,92,92,0,0,19.9,0.188,28,neg
4,96,56,17,49,20.8,0.34,26,neg
1,103,30,38,83,43.3,0.183,33,neg
6,92,62,32,126,32.0,0.085,46,neg
0,123,72,0,0,36.3,0.258,52,pos
2,119,0,0,0,19.6,0.832,72,neg
2,94,68,18,76,26.0,0.561,21,neg
4,110,66,0,0,31.9,0.471,29,neg
3,81,86,16,66,27.5,0.306,22,neg
3,130,64,0,0,23.1,0.314,22,neg
1,126,60,0,0,30.1,0.349,47,pos
5,189,64,33,325,31.2,0.583,29,pos
0,102,64,46,78,40.6,0.496,21,neg
3,106,54,21,158,30.9,0.292,24,neg
0,100,70,26,50,30.8,0.597,21,neg
10,148,84,48,237,37.6,1.001,51,pos
1,103,80,11,82,19.4,0.491,22,neg
1,128,98,41,58,32.0,1.321,33,pos
1,147,94,41,0,49.3,0.358,27,pos
7,142,60,33,190,28.8,0.687,61,neg
3,126,88,41,235,39.3,0.704,27,neg
2,129,84,0,0,28.0,0.284,27,neg
12,100,84,33,105,30.0,0.488,46,neg
1,181,78,42,293,40.0,1.258,22,pos
1,111,86,19,0,30.1,0.143,23,neg
6,115,60,39,0,33.7,0.245,40,pos
6,103,72,32,190,37.7,0.324,55,neg
11,103,68,40,0,46.2,0.126,42,neg
1,115,70,30,96,34.6,0.529,32,pos
1,106,70,28,135,34.2,0.142,22,neg
5,115,76,0,0,31.2,0.343,44,pos
4,117,64,27,120,33.2,0.23,24,neg
3,82,70,0,0,21.1,0.389,25,neg
2,127,46,21,335,34.4,0.176,22,neg
0,95,64,39,105,44.6,0.366,22,neg
5,109,62,41,129,35.8,0.514,25,pos
0,125,96,0,0,22.5,0.262,21,neg
12,88,74,40,54,35.3,0.378,48,neg
1,88,78,29,76,32.0,0.365,29,neg
3,129,92,49,155,36.4,0.968,32,pos
6,119,50,22,176,27.1,1.318,33,pos
0,93,60,25,92,28.7,0.532,22,neg
5,139,64,35,140,28.6,0.411,26,neg
2,108,52,26,63,32.5,0.318,22,neg
3,112,74,30,0,31.6,0.197,25,pos
3,171,72,33,135,33.3,0.199,24,pos
2,95,54,14,88,26.1,0.748,22,neg
1,96,64,27,87,33.2,0.289,21,neg
8,186,90,35,225,34.5,0.423,37,pos
0,104,64,23,116,27.8,0.454,23,neg
0,73,0,0,0,21.1,0.342,25,neg
0,117,66,31,188,30.8,0.493,22,neg
1,79,75,30,0,32.0,0.396,22,neg
4,147,74,25,293,34.9,0.385,30,neg
6,117,96,0,0,28.7,0.157,30,neg
3,174,58,22,194,32.9,0.593,36,pos
1,120,80,48,200,38.9,1.162,41,neg
3,129,64,29,115,26.4,0.219,28,pos
0,129,80,0,0,31.2,0.703,29,neg
1,131,64,14,415,23.7,0.389,21,neg
2,92,62,28,0,31.6,0.13,24,neg
9,170,74,31,0,44.0,0.403,43,pos
5,137,108,0,0,48.8,0.227,37,pos
8,99,84,0,0,35.4,0.388,50,neg
0,97,64,36,100,36.8,0.6,25,neg
5,110,68,0,0,26.0,0.292,30,neg
0,180,66,39,0,42.0,1.893,25,pos
