pregnant,glucose,pressure,triceps,insulin,mass,pedigree,age,Class
3,84,68,30,106,31.9,0.591,25,neg
0,74,52,10,36,27.8,0.269,22,neg
11,111,84,40,0,46.8,0.925,45,pos
4,120,68,0,0,29.6,0.709,34,neg
0,107,76,0,0,45.3,0.686,24,neg
4,173,70,14,168,29.7,0.361,33,pos
3,113,50,10,85,29.5,0.626,25,neg
1,157,72,21,168,25.6,0.123,24,neg
3,99,54,19,86,25.6,0.154,24,neg
2,87,58,16,52,32.7,0.166,25,neg
1,80,74,11,60,30.0,0.527,22,neg
8,118,72,19,0,23.1,1.476,46,neg
6,124,72,0,0,27.6,0.368,29,pos
2,90,80,14,55,24.4,0.249,24,neg
5,110,68,0,0,26.0,0.292,30,neg
0,101,62,0,0,21.9,0.336,25,neg
5,114,74,0,0,24.9,0.744,57,neg
0,95,80,45,92,36.5,0.33,26,neg
1,73,50,10,0,23.0,0.248,21,neg
12,140,82,43,325,39.2,0.528,58,pos
0,91,80,0,0,32.4,0.601,27,neg
1,111,62,13,182,24.0,0.138,23,neg
9,164,78,0,0,32.8,0.148,45,pos
5,88,66,21,23,24.4,0.342,30,neg
1,103,30,38,83,43.3,0.183,33,neg
6,92,92,0,0,19.9,0.188,28,neg
4,83,86,19,0,29.3,0.317,34,neg
4,110,76,20,100,28.4,0.118,27,neg
4,141,74,0,0,27.6,0.244,40,neg
0,165,76,43,255,47.9,0.259,26,neg
5,122,86,0,0,34.7,0.29,33,neg
4,142,86,0,0,44.0,0.645,22,pos
2,128,64,42,0,40.0,1.101,24,neg
2,111,60,0,0,26.2,0.343,23,neg
4,118,70,0,0,44.5,0.904,26,neg
4,137,84,0,0,31.2,0.252,30,neg
0,161,50,0,0,21.9,0.254,65,neg
6,114,0,0,0,0.0,0.189,26,neg
0,86,68,32,0,35.8,0.238,25,neg
7,152,88,44,0,50.0,0.337,36,pos
7,114,66,0,0,32.8,0.258,42,pos
7,81,78,40,48,46.7,0.261,42,neg
1,93,56,11,0,22.5,0.417,22,neg
1,0,48,20,0,24.7,0.14,22,neg
1,144,82,40,0,41.3,0.607,28,neg
0,127,80,37,210,36.3,0.804,23,neg
4,171,72,0,0,43.6,0.479,26,pos
2,122,70,27,0,36.8,0.34,27,neg
1,95,74,21,73,25.9,0.673,36,neg
8,99,84,0,0,35.4,0.388,50,neg
6,114,88,0,0,27.8,0.247,66,neg
7,161,86,0,0,30.4,0.165,47,pos
4,114,64,0,0,28.9,0.126,24,neg
0,120,74,18,63,30.5,0.285,26,neg
11,138,76,0,0,33.2,0.42,35,neg
7,107,74,0,0,29.6,0.254,31,pos
7,147,76,0,0,39.4,0.257,43,pos
1,122,64,32,156,35.1,0.692,30,pos
6,162,62,0,0,24.3,0.178,50,pos
0,139,62,17,210,22.1,0.207,21,neg
0,105,68,22,0,20.0,0.236,22,neg
4,109,64,44,99,34.8,0.905,26,pos
2,110,74,29,125,32.4,0.698,27,neg
9,102,76,37,0,32.9,0.665,46,pos
17,163,72,41,114,40.9,0.817,47,pos
5,0,80,32,0,41.0,0.346,37,pos
2,139,75,0,0,25.6,0.167,29,neg
6,85,78,0,0,31.2,0.382,42,neg
1,121,78,39,74,39.0,0.261,28,neg
3,82,70,0,0,21.1,0.389,25,neg
4,99,76,15,51,23.2,0.223,21,neg
6,108,44,20,130,24.0,0.813,35,neg
1,115,70,30,96,34.6,0.529,32,pos
1,86,66,52,65,41.3,0.917,29,neg
8,133,72,0,0,32.9,0.27,39,pos
4,134,72,0,0,23.8,0.277,60,pos
5,111,72,28,0,23.9,0.407,27,neg
0,91,68,32,210,39.9,0.381,25,neg
11,103,68,40,0,46.2,0.126,42,neg
10,101,76,48,180,32.9,0.171,63,neg
2,90,70,17,0,27.3,0.085,22,neg
4,99,72,17,0,25.6,0.294,28,neg
4,125,70,18,122,28.9,1.144,45,pos
3,128,72,25,190,32.4,0.549,27,pos
5,139,80,35,160,31.6,0.361,25,pos
2,117,90,19,71,25.2,0.313,21,neg
0,107,62,30,74,36.6,0.757,25,pos
10,90,85,32,0,34.9,0.825,56,pos
7,133,84,0,0,40.2,0.696,37,neg
0,180,66,39,0,42.0,1.893,25,pos
0,84,64,22,66,35.8,0.545,21,neg
8,155,62,26,495,34.0,0.543,46,pos
8,197,74,0,0,25.9,1.191,39,pos
2,85,65,0,0,39.6,0.93,27,neg
2,105,80,45,191,33.7,0.711,29,pos
1,99,58,10,0,25.4,0.551,21,neg
1,90,62,18,59,25.1,1.268,25,neg
0,99,0,0,0,25.0,0.253,22,neg
1,151,60,0,0,26.1,0.179,22,neg
2,84,0,0,0,0.0,0.304,21,neg
9,156,86,0,0,24.8,0.23,53,pos
2,119,0,0,0,19.6,0.832,72,neg
2,71,70,27,0,28.0,0.586,22,neg
0,117,0,0,0,33.8,0.932,44,neg
3,139,54,0,0,25.6,0.402,22,pos
5,166,72,19,175,25.8,0.587,51,pos
2,155,52,27,540,38.7,0.24,25,pos
1,95,66,13,38,19.6,0.334,25,neg
1,128,48,45,194,40.5,0.613,24,pos
11,136,84,35,130,28.3,0.26,42,pos
3,100,68,23,81,31.6,0.949,28,neg
0,162,76,56,100,53.2,0.759,25,pos
1,89,66,23,94,28.1,0.167,21,neg
2,91,62,0,0,27.3,0.525,22,neg
0,134,58,20,291,26.4,0.352,21,neg
2,81,72,15,76,30.1,0.547,25,neg
5,78,48,0,0,33.7,0.654,25,neg
7,179,95,31,0,34.2,0.164,60,neg
0,125,68,0,0,24.7,0.206,21,neg
6,102,90,39,0,35.7,0.674,28,neg
3,80,82,31,70,34.2,1.292,27,pos
6,151,62,31,120,35.5,0.692,28,neg
0,94,0,0,0,0.0,0.256,25,neg
1,107,72,30,82,30.8,0.821,24,neg
4,76,62,0,0,34.0,0.391,25,neg
2,98,60,17,120,34.7,0.198,22,neg
3,191,68,15,130,30.9,0.299,34,neg
4,95,70,32,0,32.1,0.612,24,neg
6,99,60,19,54,26.9,0.497,32,neg
0,117,66,31,188,30.8,0.493,22,neg
1,126,56,29,152,28.7,0.801,21,neg
2,68,62,13,15,20.1,0.257,23,neg
3,158,64,13,387,31.2,0.295,24,neg
12,151,70,40,271,41.8,0.742,38,pos
9,164,84,21,0,30.8,0.831,32,pos
1,107,68,19,0,26.5,0.165,24,neg
1,143,84,23,310,42.4,1.076,22,neg
3,129,92,49,155,36.4,0.968,32,pos
0,138,60,35,167,34.6,0.534,21,pos
7,160,54,32,175,30.5,0.588,39,pos
12,100,84,33,105,30.0,0.488,46,neg
0,146,70,0,0,37.9,0.334,28,pos
1,120,80,48,200,38.9,1.162,41,neg
4,99,68,38,0,32.8,0.145,33,neg
10,148,84,48,237,37.6,1.001,51,pos
1,91,64,24,0,29.2,0.192,21,neg
1,100,66,29,196,32.0,0.444,42,neg
2,112,68,22,94,34.1,0.315,26,neg
9,72,78,25,0,31.6,0.28,38,neg
6,137,61,0,0,24.2,0.151,55,neg
5,147,78,0,0,33.7,0.218,65,neg
9,134,74,33,60,25.9,0.46,81,neg
0,123,72,0,0,36.3,0.258,52,pos
1,193,50,16,375,25.9,0.655,24,neg
2,141,58,34,128,25.4,0.699,24,neg
5,136,84,41,88,35.0,0.286,35,pos
0,124,70,20,0,27.4,0.254,36,pos
5,115,76,0,0,31.2,0.343,44,pos
3,111,58,31,44,29.5,0.43,22,neg
4,125,80,0,0,32.3,0.536,27,pos
1,97,64,19,82,18.2,0.299,21,neg
2,68,70,32,66,25.0,0.187,25,neg
8,91,82,0,0,35.6,0.587,68,neg
8,100,76,0,0,38.7,0.19,42,neg
1,109,58,18,116,28.5,0.219,22,neg
10,94,72,18,0,23.1,0.595,56,neg
12,121,78,17,0,26.5,0.259,62,neg
5,88,78,30,0,27.6,0.258,37,neg
2,127,58,24,275,27.7,1.6,25,neg
0,162,76,36,0,49.6,0.364,26,pos
7,114,64,0,0,27.4,0.732,34,pos
0,151,90,46,0,42.1,0.371,21,pos
1,101,50,15,36,24.2,0.526,26,neg
0,137,70,38,0,33.2,0.17,22,neg
6,87,80,0,0,23.2,0.084,32,neg
10,129,62,36,0,41.2,0.441,38,pos
3,150,76,0,0,21.0,0.207,37,neg
1,100,74,12,46,19.5,0.149,28,neg
7,102,74,40,105,37.2,0.204,45,neg
1,0,68,35,0,32.0,0.389,22,neg
1,124,60,32,0,35.8,0.514,21,neg
4,112,78,40,0,39.4,0.236,38,neg
1,93,70,31,0,30.4,0.315,23,neg
0,138,0,0,0,36.3,0.933,25,pos
0,141,84,26,0,32.4,0.433,22,neg
8,154,78,32,0,32.4,0.443,45,pos
6,154,74,32,193,29.3,0.839,39,neg
6,129,90,7,326,19.6,0.582,60,neg
4,144,82,32,0,38.5,0.554,37,pos
7,184,84,33,0,35.5,0.355,41,pos
1,167,74,17,144,23.4,0.447,33,pos
1,95,60,18,58,23.9,0.26,22,neg
5,112,66,0,0,37.8,0.261,41,pos
3,78,70,0,0,32.5,0.27,39,neg
8,126,74,38,75,25.9,0.162,39,neg
1,173,74,0,0,36.8,0.088,38,pos
7,133,88,15,155,32.4,0.262,37,neg
2,106,64,35,119,30.5,1.4,34,neg
1,135,54,0,0,26.7,0.687,62,neg
5,104,74,0,0,28.8,0.153,48,neg
1,81,72,18,40,26.6,0.283,24,neg
3,102,74,0,0,29.5,0.121,32,neg
2,174,88,37,120,44.5,0.646,24,pos
5,109,62,41,129,35.8,0.514,25,pos
4,148,60,27,318,30.9,0.15,29,pos
0,129,110,46,130,67.1,0.319,26,pos
1,108,88,19,0,27.1,0.4,24,neg
6,123,72,45,230,33.6,0.733,34,neg
9,57,80,37,0,32.8,0.096,41,neg
0,107,60,25,0,26.4,0.133,23,neg
6,195,70,0,0,30.9,0.328,31,pos
4,146,92,0,0,31.2,0.539,61,pos
2,120,76,37,105,39.7,0.215,29,neg
1,0,74,20,23,27.7,0.299,21,neg
2,157,74,35,440,39.4,0.134,30,neg
2,92,62,28,0,31.6,0.13,24,neg
2,129,74,26,205,33.2,0.591,25,neg
1,125,50,40,167,33.3,0.962,28,pos
10,111,70,27,0,27.5,0.141,40,pos
0,113,76,0,0,33.3,0.278,23,pos
13,145,82,19,110,22.2,0.245,57,neg
12,106,80,0,0,23.6,0.137,44,neg
1,80,55,0,0,19.1,0.258,21,neg
2,125,60,20,140,33.8,0.088,31,neg
0,104,76,0,0,18.4,0.582,27,neg
1,88,30,42,99,55.0,0.496,26,pos
10,115,0,0,0,0.0,0.261,30,pos
2,112,75,32,0,35.7,0.148,21,neg
2,112,86,42,160,38.4,0.246,28,neg
10,161,68,23,132,25.5,0.326,47,pos
6,104,74,18,156,29.9,0.722,41,pos
6,119,50,22,176,27.1,1.318,33,pos
0,102,52,0,0,25.1,0.078,21,neg
1,172,68,49,579,42.4,0.702,28,pos
9,112,82,32,175,34.2,0.26,36,pos
4,90,88,47,54,37.7,0.362,29,neg
3,89,74,16,85,30.4,0.551,38,neg
1,87,78,27,32,34.6,0.101,22,neg
5,44,62,0,0,25.0,0.587,36,neg
5,99,74,27,0,29.0,0.203,32,neg
2,92,52,0,0,30.1,0.141,22,neg
3,87,60,18,0,21.8,0.444,21,neg
4,103,60,33,192,24.0,0.966,33,neg
0,126,84,29,215,30.7,0.52,24,neg
1,87,60,37,75,37.2,0.509,22,neg
11,120,80,37,150,42.3,0.785,48,pos
3,158,70,30,328,35.5,0.344,35,pos
5,144,82,26,285,32.0,0.452,58,pos
4,114,65,0,0,21.9,0.432,37,neg
2,155,74,17,96,26.6,0.433,27,pos
3,103,72,30,152,27.6,0.73,27,neg
1,109,56,21,135,25.2,0.833,23,neg
1,116,78,29,180,36.1,0.496,25,neg
7,62,78,0,0,32.6,0.391,41,neg
0,137,40,35,168,43.1,2.288,33,pos
0,105,90,0,0,29.6,0.197,46,neg
1,189,60,23,846,30.1,0.398,59,pos
9,140,94,0,0,32.7,0.734,45,pos
3,129,64,29,115,26.4,0.219,28,pos
1,103,80,11,82,19.4,0.491,22,neg
3,81,86,16,66,27.5,0.306,22,neg
10,122,78,31,0,27.6,0.512,45,neg
1,199,76,43,0,42.9,1.394,22,pos
3,99,80,11,64,19.3,0.284,30,neg
9,171,110,24,240,45.4,0.721,54,pos
13,126,90,0,0,43.4,0.583,42,pos
0,109,88,30,0,32.5,0.855,38,pos
6,166,74,0,0,26.6,0.304,66,neg
0,177,60,29,478,34.6,1.072,21,pos
2,105,58,40,94,34.9,0.225,25,neg
2,100,64,23,0,29.7,0.368,21,neg
12,92,62,7,258,27.6,0.926,44,pos
9,154,78,30,100,30.9,0.164,45,neg
13,104,72,0,0,31.2,0.465,38,pos
2,197,70,45,543,30.5,0.158,53,pos
1,89,76,34,37,31.2,0.192,23,neg
4,115,72,0,0,28.9,0.376,46,pos
4,154,62,31,284,32.8,0.237,23,neg
6,105,70,32,68,30.8,0.122,37,neg
0,119,64,18,92,34.9,0.725,23,neg
5,95,72,33,0,37.7,0.37,27,neg
6,165,68,26,168,33.6,0.631,49,neg
4,147,74,25,293,34.9,0.385,30,neg
1,88,78,29,76,32.0,0.365,29,neg
2,158,90,0,0,31.6,0.805,66,pos
4,92,80,0,0,42.2,0.237,29,neg
3,74,68,28,45,29.7,0.293,23,neg
8,112,72,0,0,23.6,0.84,58,neg
0,93,60,25,92,28.7,0.532,22,neg
2,146,0,0,0,27.5,0.24,28,pos
6,102,82,0,0,30.8,0.18,36,pos
3,130,64,0,0,23.1,0.314,22,neg
5,158,84,41,210,39.4,0.395,29,pos
1,122,90,51,220,49.7,0.325,31,pos
0,140,65,26,130,42.6,0.431,24,pos
3,173,84,33,474,35.7,0.258,22,pos
3,113,44,13,0,22.4,0.14,22,neg
0,131,0,0,0,43.2,0.27,26,pos
1,84,64,23,115,36.9,0.471,28,neg
5,105,72,29,325,36.9,0.159,28,neg
6,109,60,27,0,25.0,0.206,27,neg
8,105,100,36,0,43.3,0.239,45,pos
1,128,88,39,110,36.5,1.057,37,pos
1,117,60,23,106,33.8,0.466,27,neg
3,102,44,20,94,30.8,0.4,26,neg
7,142,90,24,480,30.4,0.128,43,pos
1,112,72,30,176,34.4,0.528,25,neg
1,168,88,29,0,35.0,0.905,52,pos
0,188,82,14,185,32.0,0.682,22,pos
1,88,62,24,44,29.9,0.422,23,neg
3,130,78,23,79,28.4,0.323,34,pos
7,150,66,42,342,34.7,0.718,42,neg
9,123,70,44,94,33.1,0.374,40,neg
4,123,62,0,0,32.0,0.226,35,pos
3,142,80,15,0,32.4,0.2,63,neg
1,180,0,0,0,43.3,0.282,41,pos
7,136,74,26,135,26.0,0.647,51,neg
8,124,76,24,600,28.7,0.687,52,pos
2,83,65,28,66,36.8,0.629,24,neg
4,111,72,47,207,37.1,1.39,56,pos
1,119,44,47,63,35.5,0.28,25,neg
2,108,64,0,0,30.8,0.158,21,neg
6,103,66,0,0,24.3,0.249,29,neg
4,132,86,31,0,28.0,0.419,63,neg
0,67,76,0,0,45.3,0.194,46,neg
1,131,64,14,415,23.7,0.389,21,neg
5,96,74,18,67,33.6,0.997,43,neg
4,144,58,28,140,29.5,0.287,37,neg
0,95,64,39,105,44.6,0.366,22,neg
3,125,58,0,0,31.6,0.151,24,neg
5,130,82,0,0,39.1,0.956,37,pos
3,163,70,18,105,31.6,0.268,28,pos
1,128,98,41,58,32.0,1.321,33,pos
1,119,86,39,220,45.6,0.808,29,pos
0,179,90,27,0,44.1,0.686,23,pos
7,94,64,25,79,33.3,0.738,41,neg
4,96,56,17,49,20.8,0.34,26,neg
11,138,74,26,144,36.1,0.557,50,pos
8,167,106,46,231,37.6,0.165,43,pos
0,84,82,31,125,38.2,0.233,23,neg
7,106,60,24,0,26.5,0.296,29,pos
4,123,80,15,176,32.0,0.443,34,neg
0,98,82,15,84,25.2,0.299,22,neg
7,159,64,0,0,27.4,0.294,40,neg
1,102,74,0,0,39.5,0.293,42,pos
7,168,88,42,321,38.2,0.787,40,pos
5,124,74,0,0,34.0,0.22,38,pos
7,124,70,33,215,25.5,0.161,37,neg
0,102,64,46,78,40.6,0.496,21,neg
3,124,80,33,130,33.2,0.305,26,neg
8,110,76,0,0,27.8,0.237,58,neg
7,196,90,0,0,39.8,0.451,41,pos
11,155,76,28,150,33.3,1.353,51,pos
1,106,70,28,135,34.2,0.142,22,neg
2,100,68,25,71,38.5,0.324,26,neg
8,194,80,0,0,26.1,0.551,67,neg
6,125,68,30,120,30.0,0.464,32,neg
4,131,68,21,166,33.1,0.16,28,neg
10,139,80,0,0,27.1,1.441,57,neg
1,133,102,28,140,32.8,0.234,45,pos
0,152,82,39,272,41.5,0.27,27,neg
8,183,64,0,0,23.3,0.672,32,pos
0,118,84,47,230,45.8,0.551,31,pos
2,96,68,13,49,21.1,0.647,26,neg
2,108,62,32,56,25.2,0.128,21,neg
1,90,62,12,43,27.2,0.58,24,neg
11,143,94,33,146,36.6,0.254,51,pos
1,89,24,19,25,27.8,0.559,21,neg
5,116,74,29,0,32.3,0.66,35,pos
0,124,56,13,105,21.8,0.452,21,neg
2,129,0,0,0,38.5,0.304,41,neg
0,94,70,27,115,43.5,0.347,21,neg
3,112,74,30,0,31.6,0.197,25,pos
9,130,70,0,0,34.2,0.652,45,pos
2,84,50,23,76,30.4,0.968,21,neg
3,132,80,0,0,34.4,0.402,44,pos
1,119,54,13,50,22.3,0.205,24,neg
3,80,0,0,0,0.0,0.174,22,neg
0,135,94,46,145,40.6,0.284,26,neg
2,100,70,52,57,40.5,0.677,25,neg
1,87,68,34,77,37.6,0.401,24,neg
13,76,60,0,0,32.8,0.18,41,neg
9,122,56,0,0,33.3,1.114,33,pos
1,136,74,50,204,37.4,0.399,24,neg
2,108,80,0,0,27.0,0.259,52,pos
0,57,60,0,0,21.7,0.735,67,neg
3,141,0,0,0,30.0,0.761,27,pos
5,99,54,28,83,34.0,0.499,30,neg
1,146,56,0,0,29.7,0.564,29,neg
0,173,78,32,265,46.5,1.159,58,neg
8,100,74,40,215,39.4,0.661,43,pos
6,91,0,0,0,29.8,0.501,31,neg
8,85,55,20,0,24.4,0.136,42,neg
10,115,0,0,0,35.3,0.134,29,neg
3,106,54,21,158,30.9,0.292,24,neg
6,190,92,0,0,35.5,0.278,66,pos
1,139,46,19,83,28.7,0.654,22,neg
5,132,80,0,0,26.8,0.186,69,neg
9,119,80,35,0,29.0,0.263,29,pos
0,135,68,42,250,42.3,0.365,24,pos
7,106,92,18,0,22.7,0.235,48,neg
6,125,78,31,0,27.6,0.565,49,pos
3,111,90,12,78,28.4,0.495,29,neg
10,125,70,26,115,31.1,0.205,41,pos
0,165,90,33,680,52.3,0.427,23,neg
6,134,80,37,370,46.2,0.238,46,pos
4,97,60,23,0,28.2,0.443,22,neg
0,111,65,0,0,24.6,0.66,31,neg
0,101,65,28,0,24.6,0.237,22,neg
1,130,60,23,170,28.6,0.692,21,neg
0,128,68,19,180,30.5,1.391,25,pos
7,119,0,0,0,25.2,0.209,37,neg
10,122,68,0,0,31.2,0.258,41,neg
0,146,82,0,0,40.5,1.781,44,neg
9,184,85,15,0,30.0,1.213,49,pos
1,118,58,36,94,33.3,0.261,23,neg
2,122,60,18,106,29.8,0.717,22,neg
8,109,76,39,114,27.9,0.64,31,pos
0,93,60,0,0,35.3,0.263,25,neg
2,112,78,50,140,39.4,0.175,24,neg
3,193,70,31,0,34.9,0.241,25,pos
14,100,78,25,184,36.6,0.412,46,pos
2,90,60,0,0,23.5,0.191,25,neg
15,136,70,32,110,37.1,0.153,43,pos
1,97,68,21,0,27.2,1.095,22,neg
5,155,84,44,545,38.7,0.619,34,neg
9,91,68,0,0,24.2,0.2,58,neg
6,148,72,35,0,33.6,0.627,50,pos
4,128,70,0,0,34.3,0.303,24,neg
2,109,92,0,0,42.7,0.845,54,neg
5,109,75,26,0,36.0,0.546,60,neg
4,122,68,0,0,35.0,0.394,29,neg
0,102,75,23,0,0.0,0.572,21,neg
4,116,72,12,87,22.1,0.463,37,neg
3,174,58,22,194,32.9,0.593,36,pos
5,147,75,0,0,29.9,0.434,28,neg
2,100,54,28,105,37.8,0.498,24,neg
9,152,78,34,171,34.2,0.893,33,pos
1,149,68,29,127,29.3,0.349,42,pos
0,198,66,32,274,41.3,0.502,28,pos
4,85,58,22,49,27.8,0.306,28,neg
1,79,75,30,0,32.0,0.396,22,neg
4,132,0,0,0,32.9,0.302,23,pos
13,158,114,0,0,42.3,0.257,44,pos
5,123,74,40,77,34.1,0.269,28,neg
4,156,75,0,0,48.3,0.238,32,pos
0,108,68,20,0,27.3,0.787,32,neg
1,109,38,18,120,23.1,0.407,26,neg
1,119,88,41,170,45.3,0.507,26,neg
4,197,70,39,744,36.7,2.329,31,neg
7,137,90,41,0,32.0,0.391,39,neg
1,92,62,25,41,19.5,0.482,25,neg
1,97,66,15,140,23.2,0.487,22,neg
2,134,70,0,0,28.9,0.542,23,pos
0,132,78,0,0,32.4,0.393,21,neg
8,176,90,34,300,33.7,0.467,58,pos
5,115,98,0,0,52.9,0.209,28,pos
2,102,86,36,120,45.5,0.127,23,pos
13,106,70,0,0,34.2,0.251,52,neg
3,187,70,22,200,36.4,0.408,36,pos
3,180,64,25,70,34.0,0.271,26,neg
2,99,52,15,94,24.6,0.637,21,neg
4,91,70,32,88,33.1,0.446,22,neg
7,125,86,0,0,37.6,0.304,51,neg
2,129,84,0,0,28.0,0.284,27,neg
5,136,82,0,0,0.0,0.64,69,neg
7,114,76,17,110,23.8,0.466,31,neg
2,93,64,32,160,38.0,0.674,23,pos
1,116,70,28,0,27.4,0.204,21,neg
1,112,80,45,132,34.8,0.217,24,neg
10,101,86,37,0,45.6,1.136,38,pos
8,143,66,0,0,34.9,0.129,41,pos
1,71,78,50,45,33.2,0.422,21,neg
4,146,78,0,0,38.5,0.52,67,pos
12,88,74,40,54,35.3,0.378,48,neg
0,131,66,40,0,34.3,0.196,22,pos
2,144,58,33,135,31.6,0.422,25,pos
6,194,78,0,0,23.5,0.129,59,pos
1,108,60,46,178,35.5,0.415,24,neg
6,115,60,39,0,33.7,0.245,40,pos
3,169,74,19,125,29.9,0.268,31,pos
10,129,76,28,122,35.9,0.28,39,neg
1,95,82,25,180,35.0,0.233,43,pos
1,163,72,0,0,39.0,1.222,33,pos
0,180,78,63,14,59.4,2.42,25,pos
0,114,80,34,285,44.2,0.167,27,neg
3,170,64,37,225,34.5,0.356,30,pos
2,108,62,10,278,25.3,0.881,22,neg
2,94,68,18,76,26.0,0.561,21,neg
1,126,60,0,0,30.1,0.349,47,pos
10,108,66,0,0,32.4,0.272,42,pos
4,189,110,31,0,28.5,0.68,37,neg
6,80,66,30,0,26.2,0.313,41,neg
0,73,0,0,0,21.1,0.342,25,neg
2,89,90,30,0,33.5,0.292,42,neg
1,109,60,8,182,25.4,0.947,21,neg
2,101,58,35,90,21.8,0.155,22,neg
2,81,60,22,0,27.7,0.29,25,neg
0,137,84,27,0,27.3,0.231,59,neg
3,173,78,39,185,33.8,0.97,31,pos
14,175,62,30,0,33.6,0.212,38,pos
7,136,90,0,0,29.9,0.21,50,neg
3,121,52,0,0,36.0,0.127,25,pos
6,183,94,0,0,40.8,1.461,45,neg
3,61,82,28,0,34.4,0.243,46,neg
0,119,0,0,0,32.4,0.141,24,pos
4,94,65,22,0,24.7,0.148,21,neg
5,158,70,0,0,29.8,0.207,63,neg
9,89,62,0,0,22.5,0.142,33,neg
1,71,48,18,76,20.4,0.323,22,neg
0,147,85,54,0,42.8,0.375,24,neg
0,129,80,0,0,31.2,0.703,29,neg
1,113,64,35,0,33.6,0.543,21,pos
2,75,64,24,55,29.7,0.37,33,neg
4,95,60,32,0,35.4,0.284,28,neg
5,108,72,43,75,36.1,0.263,33,neg
5,121,72,23,112,26.2,0.245,30,neg
2,90,68,42,0,38.2,0.503,27,pos
10,115,98,0,0,24.0,1.022,34,neg
7,181,84,21,192,35.9,0.586,51,pos
7,178,84,0,0,39.9,0.331,41,pos
1,96,64,27,87,33.2,0.289,21,neg
3,123,100,35,240,57.3,0.88,22,neg
2,123,48,32,165,42.1,0.52,26,neg
1,105,58,0,0,24.3,0.187,21,neg
6,93,50,30,64,28.7,0.356,23,neg
2,99,70,16,44,20.4,0.235,27,neg
4,84,90,23,56,39.5,0.159,25,neg
4,110,66,0,0,31.9,0.471,29,neg
6,0,68,41,0,39.0,0.727,41,pos
7,194,68,28,0,35.9,0.745,41,pos
5,103,108,37,0,39.2,0.305,65,neg
0,126,86,27,120,27.4,0.515,21,neg
11,85,74,0,0,30.1,0.3,35,neg
3,116,74,15,105,26.3,0.107,24,neg
5,117,86,30,105,39.1,0.251,42,neg
6,103,72,32,190,37.7,0.324,55,neg
