pregnant,glucose,pressure,triceps,insulin,mass,pedigree,age,Class
8,125,96,0,0,0.0,0.232,54,pos
5,139,64,35,140,28.6,0.411,26,neg
11,138,76,0,0,33.2,0.42,35,neg
9,152,78,34,171,34.2,0.893,33,pos
0,91,80,0,0,32.4,0.601,27,neg
1,86,66,52,65,41.3,0.917,29,neg
10,90,85,32,0,34.9,0.825,56,pos
2,106,56,27,165,29.0,0.426,22,neg
7,94,64,25,79,33.3,0.738,41,neg
7,83,78,26,71,29.3,0.767,36,neg
1,172,68,49,579,42.4,0.702,28,pos
9,119,80,35,0,29.0,0.263,29,pos
8,124,76,24,600,28.7,0.687,52,pos
2,106,64,35,119,30.5,1.4,34,neg
2,100,54,28,105,37.8,0.498,24,neg
2,83,65,28,66,36.8,0.629,24,neg
0,126,86,27,120,27.4,0.515,21,neg
9,120,72,22,56,20.8,0.733,48,neg
7,109,80,31,0,35.9,1.127,43,pos
9,165,88,0,0,30.4,0.302,49,pos
1,193,50,16,375,25.9,0.655,24,neg
6,148,72,35,0,33.6,0.627,50,pos
0,165,76,43,255,47.9,0.259,26,neg
9,72,78,25,0,31.6,0.28,38,neg
2,123,48,32,165,42.1,0.52,26,neg
7,161,86,0,0,30.4,0.165,47,pos
3,162,52,38,0,37.2,0.652,24,pos
1,115,70,30,96,34.6,0.529,32,pos
4,117,64,27,120,33.2,0.23,24,neg
7,187,68,39,304,37.7,0.254,41,pos
0,84,82,31,125,38.2,0.233,23,neg
1,87,78,27,32,34.6,0.101,22,neg
3,78,70,0,0,32.5,0.27,39,neg
2,112,68,22,94,34.1,0.315,26,neg
1,90,62,12,43,27.2,0.58,24,neg
3,158,76,36,245,31.6,0.851,28,pos
0,125,96,0,0,22.5,0.262,21,neg
1,73,50,10,0,23.0,0.248,21,neg
2,114,68,22,0,28.7,0.092,25,neg
1,102,74,0,0,39.5,0.293,42,pos
5,111,72,28,0,23.9,0.407,27,neg
2,155,74,17,96,26.6,0.433,27,pos
1,117,60,23,106,33.8,0.466,27,neg
10,101,76,48,180,32.9,0.171,63,neg
4,115,72,0,0,28.9,0.376,46,pos
1,135,54,0,0,26.7,0.687,62,neg
0,93,100,39,72,43.4,1.021,35,neg
0,146,82,0,0,40.5,1.781,44,neg
1,139,62,41,480,40.7,0.536,21,neg
1,77,56,30,56,33.3,1.251,24,neg
0,107,76,0,0,45.3,0.686,24,neg
9,156,86,28,155,34.3,1.189,42,pos
1,121,78,39,74,39.0,0.261,28,neg
7,105,0,0,0,0.0,0.305,24,neg
3,100,68,23,81,31.6,0.949,28,neg
1,163,72,0,0,39.0,1.222,33,pos
1,144,82,40,0,41.3,0.607,28,neg
11,120,80,37,150,42.3,0.785,48,pos
1,122,64,32,156,35.1,0.692,30,pos
5,147,78,0,0,33.7,0.218,65,neg
0,179,50,36,159,37.8,0.455,22,pos
2,102,86,36,120,45.5,0.127,23,pos
7,102,74,40,105,37.2,0.204,45,neg
7,194,68,28,0,35.9,0.745,41,pos
1,96,64,27,87,33.2,0.289,21,neg
1,147,94,41,0,49.3,0.358,27,pos
1,107,68,19,0,26.5,0.165,24,neg
2,92,52,0,0,30.1,0.141,22,neg
5,144,82,26,285,32.0,0.452,58,pos
7,106,60,24,0,26.5,0.296,29,pos
2,141,58,34,128,25.4,0.699,24,neg
3,83,58,31,18,34.3,0.336,25,neg
10,125,70,26,115,31.1,0.205,41,pos
4,92,80,0,0,42.2,0.237,29,neg
6,125,68,30,120,30.0,0.464,32,neg
6,104,74,18,156,29.9,0.722,41,pos
0,74,52,10,36,27.8,0.269,22,neg
3,126,88,41,235,39.3,0.704,27,neg
3,99,80,11,64,19.3,0.284,30,neg
9,171,110,24,240,45.4,0.721,54,pos
6,129,90,7,326,19.6,0.582,60,neg
0,126,84,29,215,30.7,0.52,24,neg
10,148,84,48,237,37.6,1.001,51,pos
1,131,64,14,415,23.7,0.389,21,neg
1,71,62,0,0,21.8,0.416,26,neg
7,125,86,0,0,37.6,0.304,51,neg
1,181,64,30,180,34.1,0.328,38,pos
2,174,88,37,120,44.5,0.646,24,pos
7,184,84,33,0,35.5,0.355,41,pos
0,123,72,0,0,36.3,0.258,52,pos
8,133,72,0,0,32.9,0.27,39,pos
4,125,70,18,122,28.9,1.144,45,pos
4,76,62,0,0,34.0,0.391,25,neg
7,168,88,42,321,38.2,0.787,40,pos
6,154,74,32,193,29.3,0.839,39,neg
9,124,70,33,402,35.4,0.282,34,neg
1,196,76,36,249,36.5,0.875,29,pos
0,117,80,31,53,45.2,0.089,24,neg
3,106,72,0,0,25.8,0.207,27,neg
8,65,72,23,0,32.0,0.6,42,neg
6,93,50,30,64,28.7,0.356,23,neg
6,108,44,20,130,24.0,0.813,35,neg
3,90,78,0,0,42.7,0.559,21,neg
7,179,95,31,0,34.2,0.164,60,neg
2,87,0,23,0,28.9,0.773,25,neg
0,135,68,42,250,42.3,0.365,24,pos
3,106,54,21,158,30.9,0.292,24,neg
4,129,60,12,231,27.5,0.527,31,neg
2,146,70,38,360,28.0,0.337,29,pos
0,117,66,31,188,30.8,0.493,22,neg
3,74,68,28,45,29.7,0.293,23,neg
11,155,76,28,150,33.3,1.353,51,pos
0,98,82,15,84,25.2,0.299,22,neg
3,111,62,0,0,22.6,0.142,21,neg
3,116,0,0,0,23.5,0.187,23,neg
1,112,72,30,176,34.4,0.528,25,neg
1,138,82,0,0,40.1,0.236,28,neg
3,171,72,33,135,33.3,0.199,24,pos
1,100,66,15,56,23.6,0.666,26,neg
4,151,90,38,0,29.7,0.294,36,neg
5,117,92,0,0,34.1,0.337,38,neg
8,100,76,0,0,38.7,0.19,42,neg
1,181,78,42,293,40.0,1.258,22,pos
2,92,76,20,0,24.2,1.698,28,neg
6,165,68,26,168,33.6,0.631,49,neg
8,105,100,36,0,43.3,0.239,45,pos
1,87,68,34,77,37.6,0.401,24,neg
2,82,52,22,115,28.5,1.699,25,neg
6,96,0,0,0,23.7,0.19,28,neg
4,116,72,12,87,22.1,0.463,37,neg
8,183,64,0,0,23.3,0.672,32,pos
0,95,85,25,36,37.4,0.247,24,pos
0,118,64,23,89,0.0,1.731,21,neg
6,114,88,0,0,27.8,0.247,66,neg
0,127,80,37,210,36.3,0.804,23,neg
2,101,58,17,265,24.2,0.614,23,neg
1,112,80,45,132,34.8,0.217,24,neg
8,74,70,40,49,35.3,0.705,39,neg
4,144,82,32,0,38.5,0.554,37,pos
1,97,70,15,0,18.2,0.147,21,neg
1,79,60,42,48,43.5,0.678,23,neg
2,100,68,25,71,38.5,0.324,26,neg
4,83,86,19,0,29.3,0.317,34,neg
0,180,66,39,0,42.0,1.893,25,pos
4,95,64,0,0,32.0,0.161,31,pos
1,140,74,26,180,24.1,0.828,23,neg
2,91,62,0,0,27.3,0.525,22,neg
11,143,94,33,146,36.6,0.254,51,pos
12,140,85,33,0,37.4,0.244,41,neg
8,108,70,0,0,30.5,0.955,33,pos
4,90,0,0,0,28.0,0.61,31,neg
6,162,62,0,0,24.3,0.178,50,pos
0,119,64,18,92,34.9,0.725,23,neg
8,85,55,20,0,24.4,0.136,42,neg
0,105,64,41,142,41.5,0.173,22,neg
10,168,74,0,0,38.0,0.537,34,pos
9,156,86,0,0,24.8,0.23,53,pos
3,96,56,34,115,24.7,0.944,39,neg
5,85,74,22,0,29.0,1.224,32,pos
9,145,80,46,130,37.9,0.637,40,pos
6,102,90,39,0,35.7,0.674,28,neg
0,123,88,37,0,35.2,0.197,29,neg
7,195,70,33,145,25.1,0.163,55,pos
9,91,68,0,0,24.2,0.2,58,neg
8,118,72,19,0,23.1,1.476,46,neg
2,142,82,18,64,24.7,0.761,21,neg
10,133,68,0,0,27.0,0.245,36,neg
9,112,82,32,175,34.2,0.26,36,pos
1,99,72,30,18,38.6,0.412,21,neg
6,154,78,41,140,46.1,0.571,27,neg
9,89,62,0,0,22.5,0.142,33,neg
0,117,0,0,0,33.8,0.932,44,neg
5,99,74,27,0,29.0,0.203,32,neg
3,82,70,0,0,21.1,0.389,25,neg
4,118,70,0,0,44.5,0.904,26,neg
7,159,66,0,0,30.4,0.383,36,pos
4,197,70,39,744,36.7,2.329,31,neg
4,158,78,0,0,32.9,0.803,31,pos
0,137,68,14,148,24.8,0.143,21,neg
2,96,68,13,49,21.1,0.647,26,neg
4,173,70,14,168,29.7,0.361,33,pos
8,120,86,0,0,28.4,0.259,22,pos
1,119,86,39,220,45.6,0.808,29,pos
2,155,52,27,540,38.7,0.24,25,pos
5,128,80,0,0,34.6,0.144,45,neg
8,112,72,0,0,23.6,0.84,58,neg
0,162,76,36,0,49.6,0.364,26,pos
5,121,72,23,112,26.2,0.245,30,neg
1,164,82,43,67,32.8,0.341,50,neg
1,95,74,21,73,25.9,0.673,36,neg
4,132,0,0,0,32.9,0.302,23,pos
7,119,0,0,0,25.2,0.209,37,neg
8,186,90,35,225,34.5,0.423,37,pos
10,115,98,0,0,24.0,1.022,34,neg
7,181,84,21,192,35.9,0.586,51,pos
1,99,58,10,0,25.4,0.551,21,neg
0,129,110,46,130,67.1,0.319,26,pos
6,0,68,41,0,39.0,0.727,41,pos
3,187,70,22,200,36.4,0.408,36,pos
0,102,52,0,0,25.1,0.078,21,neg
6,103,66,0,0,24.3,0.249,29,neg
3,99,54,19,86,25.6,0.154,24,neg
4,91,70,32,88,33.1,0.446,22,neg
4,129,86,20,270,35.1,0.231,23,neg
9,145,88,34,165,30.3,0.771,53,pos
0,167,0,0,0,32.3,0.839,30,pos
12,106,80,0,0,23.6,0.137,44,neg
1,146,56,0,0,29.7,0.564,29,neg
5,97,76,27,0,35.6,0.378,52,pos
0,106,70,37,148,39.4,0.605,22,neg
6,134,70,23,130,35.4,0.542,29,pos
0,114,80,34,285,44.2,0.167,27,neg
1,107,50,19,0,28.3,0.181,29,neg
1,97,64,19,82,18.2,0.299,21,neg
8,120,0,0,0,30.0,0.183,38,pos
1,130,70,13,105,25.9,0.472,22,neg
2,90,80,14,55,24.4,0.249,24,neg
2,100,70,52,57,40.5,0.677,25,neg
4,123,62,0,0,32.0,0.226,35,pos
6,119,50,22,176,27.1,1.318,33,pos
2,108,62,10,278,25.3,0.881,22,neg
9,57,80,37,0,32.8,0.096,41,neg
6,144,72,27,228,33.9,0.255,40,neg
1,100,72,12,70,25.3,0.658,28,neg
2,158,90,0,0,31.6,0.805,66,pos
1,128,82,17,183,27.5,0.115,22,neg
1,81,74,41,57,46.3,1.096,32,neg
1,199,76,43,0,42.9,1.394,22,pos
1,153,82,42,485,40.6,0.687,23,neg
4,171,72,0,0,43.6,0.479,26,pos
0,135,94,46,145,40.6,0.284,26,neg
0,73,0,0,0,21.1,0.342,25,neg
0,180,90,26,90,36.5,0.314,35,pos
11,136,84,35,130,28.3,0.26,42,pos
1,82,64,13,95,21.2,0.415,23,neg
2,122,76,27,200,35.9,0.483,26,neg
5,158,84,41,210,39.4,0.395,29,pos
9,140,94,0,0,32.7,0.734,45,pos
10,68,106,23,49,35.5,0.285,47,neg
1,124,74,36,0,27.8,0.1,30,neg
11,138,74,26,144,36.1,0.557,50,pos
12,140,82,43,325,39.2,0.528,58,pos
10,94,72,18,0,23.1,0.595,56,neg
6,117,96,0,0,28.7,0.157,30,neg
10,122,68,0,0,31.2,0.258,41,neg
13,158,114,0,0,42.3,0.257,44,pos
4,154,72,29,126,31.3,0.338,37,neg
3,139,54,0,0,25.6,0.402,22,pos
1,92,62,25,41,19.5,0.482,25,neg
12,100,84,33,105,30.0,0.488,46,neg
3,88,58,11,54,24.8,0.267,22,neg
4,110,66,0,0,31.9,0.471,29,neg
7,147,76,0,0,39.4,0.257,43,pos
9,164,78,0,0,32.8,0.148,45,pos
3,87,60,18,0,21.8,0.444,21,neg
2,119,0,0,0,19.6,0.832,72,neg
4,99,72,17,0,25.6,0.294,28,neg
10,162,84,0,0,27.7,0.182,54,neg
6,109,60,27,0,25.0,0.206,27,neg
2,101,58,35,90,21.8,0.155,22,neg
1,85,66,29,0,26.6,0.351,31,neg
6,105,70,32,68,30.8,0.122,37,neg
2,118,80,0,0,42.9,0.693,21,pos
7,187,50,33,392,33.9,0.826,34,pos
0,180,78,63,14,59.4,2.42,25,pos
4,84,90,23,56,39.5,0.159,25,neg
0,94,0,0,0,0.0,0.256,25,neg
1,143,84,23,310,42.4,1.076,22,neg
5,189,64,33,325,31.2,0.583,29,pos
2,146,76,35,194,38.2,0.329,29,neg
15,136,70,32,110,37.1,0.153,43,pos
2,197,70,45,543,30.5,0.158,53,pos
1,125,50,40,167,33.3,0.962,28,pos
4,110,76,20,100,28.4,0.118,27,neg
2,90,60,0,0,23.5,0.191,25,neg
1,84,64,23,115,36.9,0.471,28,neg
9,134,74,33,60,25.9,0.46,81,neg
0,86,68,32,0,35.8,0.238,25,neg
6,91,0,0,0,29.8,0.501,31,neg
5,137,108,0,0,48.8,0.227,37,pos
4,156,75,0,0,48.3,0.238,32,pos
6,102,82,0,0,30.8,0.18,36,pos
5,110,68,0,0,26.0,0.292,30,neg
2,92,62,28,0,31.6,0.13,24,neg
2,90,68,42,0,38.2,0.503,27,pos
1,97,68,21,0,27.2,1.095,22,neg
0,102,64,46,78,40.6,0.496,21,neg
6,134,80,37,370,46.2,0.238,46,pos
1,88,62,24,44,29.9,0.422,23,neg
2,93,64,32,160,38.0,0.674,23,pos
1,79,80,25,37,25.4,0.583,22,neg
8,107,80,0,0,24.6,0.856,34,neg
3,158,70,30,328,35.5,0.344,35,pos
7,136,90,0,0,29.9,0.21,50,neg
1,109,38,18,120,23.1,0.407,26,neg
4,112,78,40,0,39.4,0.236,38,neg
4,145,82,18,0,32.5,0.235,70,pos
9,122,56,0,0,33.3,1.114,33,pos
1,117,88,24,145,34.5,0.403,40,pos
8,196,76,29,280,37.5,0.605,57,pos
2,120,54,0,0,26.8,0.455,27,neg
2,99,52,15,94,24.6,0.637,21,neg
1,167,74,17,144,23.4,0.447,33,pos
8,95,72,0,0,36.8,0.485,57,neg
5,114,74,0,0,24.9,0.744,57,neg
1,116,78,29,180,36.1,0.496,25,neg
0,161,50,0,0,21.9,0.254,65,neg
5,88,66,21,23,24.4,0.342,30,neg
3,81,86,16,66,27.5,0.306,22,neg
0,102,86,17,105,29.3,0.695,27,neg
2,127,46,21,335,34.4,0.176,22,neg
12,151,70,40,271,41.8,0.742,38,pos
3,158,64,13,387,31.2,0.295,24,neg
0,99,0,0,0,25.0,0.253,22,neg
2,117,90,19,71,25.2,0.313,21,neg
3,180,64,25,70,34.0,0.271,26,neg
11,103,68,40,0,46.2,0.126,42,neg
1,125,70,24,110,24.3,0.221,25,neg
1,71,48,18,76,20.4,0.323,22,neg
2,121,70,32,95,39.1,0.886,23,neg
1,126,56,29,152,28.7,0.801,21,neg
1,119,44,47,63,35.5,0.28,25,neg
1,111,62,13,182,24.0,0.138,23,neg
0,198,66,32,274,41.3,0.502,28,pos
2,122,60,18,106,29.8,0.717,22,neg
1,118,58,36,94,33.3,0.261,23,neg
1,116,70,28,0,27.4,0.204,21,neg
1,106,70,28,135,34.2,0.142,22,neg
1,143,74,22,61,26.2,0.256,21,neg
2,56,56,28,45,24.2,0.332,22,neg
2,129,74,26,205,33.2,0.591,25,neg
7,124,70,33,215,25.5,0.161,37,neg
4,146,78,0,0,38.5,0.52,67,pos
8,181,68,36,495,30.1,0.615,60,pos
4,85,58,22,49,27.8,0.306,28,neg
13,153,88,37,140,40.6,1.174,39,neg
2,99,70,16,44,20.4,0.235,27,neg
3,128,72,25,190,32.4,0.549,27,pos
6,85,78,0,0,31.2,0.382,42,neg
4,142,86,0,0,44.0,0.645,22,pos
6,92,92,0,0,19.9,0.188,28,neg
8,99,84,0,0,35.4,0.388,50,neg
11,127,106,0,0,39.0,0.19,51,neg
4,141,74,0,0,27.6,0.244,40,neg
2,127,58,24,275,27.7,1.6,25,neg
1,120,80,48,200,38.9,1.162,41,neg
3,103,72,30,152,27.6,0.73,27,neg
2,84,0,0,0,0.0,0.304,21,neg
2,68,62,13,15,20.1,0.257,23,neg
1,87,60,37,75,37.2,0.509,22,neg
3,120,70,30,135,42.9,0.452,30,neg
8,143,66,0,0,34.9,0.129,41,pos
1,95,82,25,180,35.0,0.233,43,pos
1,89,24,19,25,27.8,0.559,21,neg
8,110,76,0,0,27.8,0.237,58,neg
9,154,78,30,100,30.9,0.164,45,neg
7,100,0,0,0,30.0,0.484,32,pos
5,168,64,0,0,32.9,0.135,41,pos
5,115,98,0,0,52.9,0.209,28,pos
1,133,102,28,140,32.8,0.234,45,pos
4,184,78,39,277,37.0,0.264,31,pos
0,141,0,0,0,42.4,0.205,29,pos
2,144,58,33,135,31.6,0.422,25,pos
5,187,76,27,207,43.6,1.034,53,pos
4,120,68,0,0,29.6,0.709,34,neg
3,115,66,39,140,38.1,0.15,28,neg
4,134,72,0,0,23.8,0.277,60,pos
6,98,58,33,190,34.0,0.43,43,neg
2,157,74,35,440,39.4,0.134,30,neg
1,101,50,15,36,24.2,0.526,26,neg
2,108,80,0,0,27.0,0.259,52,pos
12,88,74,40,54,35.3,0.378,48,neg
10,139,80,0,0,27.1,1.441,57,neg
5,112,66,0,0,37.8,0.261,41,pos
6,105,80,28,0,32.5,0.878,26,neg
5,104,74,0,0,28.8,0.153,48,neg
5,123,74,40,77,34.1,0.269,28,neg
0,93,60,25,92,28.7,0.532,22,neg
5,166,76,0,0,45.7,0.34,27,pos
7,81,78,40,48,46.7,0.261,42,neg
3,182,74,0,0,30.5,0.345,29,pos
0,102,78,40,90,34.5,0.238,24,neg
7,107,74,0,0,29.6,0.254,31,pos
5,0,80,32,0,41.0,0.346,37,pos
