pregnant,glucose,pressure,triceps,insulin,mass,pedigree,age,Class
10,90,85,32,0,34.9,0.825,56,pos
3,158,64,13,387,31.2,0.295,24,neg
0,102,52,0,0,25.1,0.078,21,neg
6,103,66,0,0,24.3,0.249,29,neg
1,107,72,30,82,30.8,0.821,24,neg
6,96,0,0,0,23.7,0.19,28,neg
1,100,74,12,46,19.5,0.149,28,neg
6,195,70,0,0,30.9,0.328,31,pos
12,100,84,33,105,30.0,0.488,46,neg
8,120,78,0,0,25.0,0.409,64,neg
8,126,74,38,75,25.9,0.162,39,neg
1,149,68,29,127,29.3,0.349,42,pos
10,101,76,48,180,32.9,0.171,63,neg
2,99,60,17,160,36.6,0.453,21,neg
3,169,74,19,125,29.9,0.268,31,pos
8,65,72,23,0,32.0,0.6,42,neg
8,100,74,40,215,39.4,0.661,43,pos
10,94,72,18,0,23.1,0.595,56,neg
6,144,72,27,228,33.9,0.255,40,neg
0,113,76,0,0,33.3,0.278,23,pos
10,115,98,0,0,24.0,1.022,34,neg
2,84,0,0,0,0.0,0.304,21,neg
1,140,74,26,180,24.1,0.828,23,neg
5,132,80,0,0,26.8,0.186,69,neg
0,117,66,31,188,30.8,0.493,22,neg
9,156,86,0,0,24.8,0.23,53,pos
7,160,54,32,175,30.5,0.588,39,pos
5,123,74,40,77,34.1,0.269,28,neg
1,90,62,18,59,25.1,1.268,25,neg
0,134,58,20,291,26.4,0.352,21,neg
3,90,78,0,0,42.7,0.559,21,neg
5,139,80,35,160,31.6,0.361,25,pos
2,146,0,0,0,27.5,0.24,28,pos
1,88,62,24,44,29.9,0.422,23,neg
1,81,72,18,40,26.6,0.283,24,neg
3,124,80,33,130,33.2,0.305,26,neg
1,93,70,31,0,30.4,0.315,23,neg
4,114,65,0,0,21.9,0.432,37,neg
9,134,74,33,60,25.9,0.46,81,neg
6,194,78,0,0,23.5,0.129,59,pos
7,102,74,40,105,37.2,0.204,45,neg
4,85,58,22,49,27.8,0.306,28,neg
0,86,68,32,0,35.8,0.238,25,neg
3,83,58,31,18,34.3,0.336,25,neg
8,120,86,0,0,28.4,0.259,22,pos
5,99,74,27,0,29.0,0.203,32,neg
4,120,68,0,0,29.6,0.709,34,neg
3,176,86,27,156,33.3,1.154,52,pos
4,154,62,31,284,32.8,0.237,23,neg
5,97,76,27,0,35.6,0.378,52,pos
2,127,46,21,335,34.4,0.176,22,neg
10,161,68,23,132,25.5,0.326,47,pos
3,84,68,30,106,31.9,0.591,25,neg
8,167,106,46,231,37.6,0.165,43,pos
7,124,70,33,215,25.5,0.161,37,neg
1,147,94,41,0,49.3,0.358,27,pos
11,120,80,37,150,42.3,0.785,48,pos
8,125,96,0,0,0.0,0.232,54,pos
5,117,86,30,105,39.1,0.251,42,neg
9,156,86,28,155,34.3,1.189,42,pos
2,122,76,27,200,35.9,0.483,26,neg
0,101,65,28,0,24.6,0.237,22,neg
3,80,0,0,0,0.0,0.174,22,neg
3,121,52,0,0,36.0,0.127,25,pos
7,187,68,39,304,37.7,0.254,41,pos
1,92,62,25,41,19.5,0.482,25,neg
3,102,44,20,94,30.8,0.4,26,neg
5,77,82,41,42,35.8,0.156,35,neg
5,86,68,28,71,30.2,0.364,24,neg
2,106,56,27,165,29.0,0.426,22,neg
2,122,60,18,106,29.8,0.717,22,neg
1,0,74,20,23,27.7,0.299,21,neg
1,199,76,43,0,42.9,1.394,22,pos
5,116,74,0,0,25.6,0.201,30,neg
6,190,92,0,0,35.5,0.278,66,pos
7,106,92,18,0,22.7,0.235,48,neg
1,131,64,14,415,23.7,0.389,21,neg
1,109,38,18,120,23.1,0.407,26,neg
6,108,44,20,130,24.0,0.813,35,neg
5,128,80,0,0,34.6,0.144,45,neg
6,103,72,32,190,37.7,0.324,55,neg
2,144,58,33,135,31.6,0.422,25,pos
1,181,64,30,180,34.1,0.328,38,pos
1,88,30,42,99,55.0,0.496,26,pos
1,113,64,35,0,33.6,0.543,21,pos
5,115,98,0,0,52.9,0.209,28,pos
1,119,54,13,50,22.3,0.205,24,neg
3,102,74,0,0,29.5,0.121,32,neg
10,129,62,36,0,41.2,0.441,38,pos
6,87,80,0,0,23.2,0.084,32,neg
1,130,60,23,170,28.6,0.692,21,neg
1,128,88,39,110,36.5,1.057,37,pos
1,167,74,17,144,23.4,0.447,33,pos
0,123,88,37,0,35.2,0.197,29,neg
8,100,76,0,0,38.7,0.19,42,neg
6,102,90,39,0,35.7,0.674,28,neg
4,125,80,0,0,32.3,0.536,27,pos
1,109,60,8,182,25.4,0.947,21,neg
3,61,82,28,0,34.4,0.243,46,neg
1,79,60,42,48,43.5,0.678,23,neg
4,129,86,20,270,35.1,0.231,23,neg
6,114,88,0,0,27.8,0.247,66,neg
6,148,72,35,0,33.6,0.627,50,pos
2,99,70,16,44,20.4,0.235,27,neg
9,106,52,0,0,31.2,0.38,42,neg
4,141,74,0,0,27.6,0.244,40,neg
7,125,86,0,0,37.6,0.304,51,neg
4,127,88,11,155,34.5,0.598,28,neg
1,125,50,40,167,33.3,0.962,28,pos
0,100,88,60,110,46.8,0.962,31,neg
8,95,72,0,0,36.8,0.485,57,neg
6,80,80,36,0,39.8,0.177,28,neg
4,154,72,29,126,31.3,0.338,37,neg
1,121,78,39,74,39.0,0.261,28,neg
0,101,62,0,0,21.9,0.336,25,neg
3,163,70,18,105,31.6,0.268,28,pos
0,100,70,26,50,30.8,0.597,21,neg
7,147,76,0,0,39.4,0.257,43,pos
1,0,48,20,0,24.7,0.14,22,neg
0,91,68,32,210,39.9,0.381,25,neg
4,99,68,38,0,32.8,0.145,33,neg
1,109,56,21,135,25.2,0.833,23,neg
1,91,64,24,0,29.2,0.192,21,neg
1,128,48,45,194,40.5,0.613,24,pos
1,111,94,0,0,32.8,0.265,45,neg
7,107,74,0,0,29.6,0.254,31,pos
3,191,68,15,130,30.9,0.299,34,neg
1,79,75,30,0,32.0,0.396,22,neg
7,136,90,0,0,29.9,0.21,50,neg
2,129,74,26,205,33.2,0.591,25,neg
5,137,108,0,0,48.8,0.227,37,pos
2,88,74,19,53,29.0,0.229,22,neg
5,147,78,0,0,33.7,0.218,65,neg
9,124,70,33,402,35.4,0.282,34,neg
10,108,66,0,0,32.4,0.272,42,pos
3,96,56,34,115,24.7,0.944,39,neg
9,152,78,34,171,34.2,0.893,33,pos
4,123,62,0,0,32.0,0.226,35,pos
0,177,60,29,478,34.6,1.072,21,pos
5,121,72,23,112,26.2,0.245,30,neg
2,141,58,34,128,25.4,0.699,24,neg
1,96,64,27,87,33.2,0.289,21,neg
2,98,60,17,120,34.7,0.198,22,neg
5,109,62,41,129,35.8,0.514,25,pos
0,106,70,37,148,39.4,0.605,22,neg
0,181,88,44,510,43.3,0.222,26,pos
2,174,88,37,120,44.5,0.646,24,pos
4,118,70,0,0,44.5,0.904,26,neg
10,101,86,37,0,45.6,1.136,38,pos
7,97,76,32,91,40.9,0.871,32,pos
4,171,72,0,0,43.6,0.479,26,pos
6,154,74,32,193,29.3,0.839,39,neg
6,115,60,39,0,33.7,0.245,40,pos
0,94,0,0,0,0.0,0.256,25,neg
9,72,78,25,0,31.6,0.28,38,neg
0,84,64,22,66,35.8,0.545,21,neg
11,85,74,0,0,30.1,0.3,35,neg
0,114,80,34,285,44.2,0.167,27,neg
5,109,75,26,0,36.0,0.546,60,neg
11,143,94,33,146,36.6,0.254,51,pos
0,95,64,39,105,44.6,0.366,22,neg
1,126,60,0,0,30.1,0.349,47,pos
3,174,58,22,194,32.9,0.593,36,pos
1,100,66,29,196,32.0,0.444,42,neg
7,133,84,0,0,40.2,0.696,37,neg
1,124,60,32,0,35.8,0.514,21,neg
15,136,70,32,110,37.1,0.153,43,pos
4,99,72,17,0,25.6,0.294,28,neg
9,145,88,34,165,30.3,0.771,53,pos
2,112,75,32,0,35.7,0.148,21,neg
1,89,66,23,94,28.1,0.167,21,neg
5,136,82,0,0,0.0,0.64,69,neg
5,158,84,41,210,39.4,0.395,29,pos
5,78,48,0,0,33.7,0.654,25,neg
4,132,86,31,0,28.0,0.419,63,neg
3,158,70,30,328,35.5,0.344,35,pos
1,116,78,29,180,36.1,0.496,25,neg
5,147,75,0,0,29.9,0.434,28,neg
12,92,62,7,258,27.6,0.926,44,pos
10,129,76,28,122,35.9,0.28,39,neg
4,131,68,21,166,33.1,0.16,28,neg
12,88,74,40,54,35.3,0.378,48,neg
2,87,58,16,52,32.7,0.166,25,neg
6,93,50,30,64,28.7,0.356,23,neg
0,131,0,0,0,43.2,0.27,26,pos
10,111,70,27,0,27.5,0.141,40,pos
2,90,60,0,0,23.5,0.191,25,neg
2,108,64,0,0,30.8,0.158,21,neg
1,71,62,0,0,21.8,0.416,26,neg
0,95,85,25,36,37.4,0.247,24,pos
2,110,74,29,125,32.4,0.698,27,neg
2,197,70,45,543,30.5,0.158,53,pos
12,121,78,17,0,26.5,0.259,62,neg
1,102,74,0,0,39.5,0.293,42,pos
0,124,56,13,105,21.8,0.452,21,neg
3,148,66,25,0,32.5,0.256,22,neg
0,162,76,56,100,53.2,0.759,25,pos
7,150,78,29,126,35.2,0.692,54,pos
13,76,60,0,0,32.8,0.18,41,neg
1,139,62,41,480,40.7,0.536,21,neg
5,114,74,0,0,24.9,0.744,57,neg
8,110,76,0,0,27.8,0.237,58,neg
7,161,86,0,0,30.4,0.165,47,pos
0,125,68,0,0,24.7,0.206,21,neg
1,71,48,18,76,20.4,0.323,22,neg
9,120,72,22,56,20.8,0.733,48,neg
1,87,60,37,75,37.2,0.509,22,neg
12,84,72,31,0,29.7,0.297,46,pos
2,100,54,28,105,37.8,0.498,24,neg
7,159,66,0,0,30.4,0.383,36,pos
5,105,72,29,325,36.9,0.159,28,neg
7,137,90,41,0,32.0,0.391,39,neg
4,145,82,18,0,32.5,0.235,70,pos
1,138,82,0,0,40.1,0.236,28,neg
1,81,74,41,57,46.3,1.096,32,neg
2,89,90,30,0,33.5,0.292,42,neg
7,187,50,33,392,33.9,0.826,34,pos
4,109,64,44,99,34.8,0.905,26,pos
5,166,72,19,175,25.8,0.587,51,pos
1,95,82,25,180,35.0,0.233,43,pos
2,127,58,24,275,27.7,1.6,25,neg
3,125,58,0,0,31.6,0.151,24,neg
0,95,80,45,92,36.5,0.33,26,neg
0,147,85,54,0,42.8,0.375,24,neg
5,117,92,0,0,34.1,0.337,38,neg
10,122,78,31,0,27.6,0.512,45,neg
9,170,74,31,0,44.0,0.403,43,pos
6,99,60,19,54,26.9,0.497,32,neg
2,158,90,0,0,31.6,0.805,66,pos
12,140,82,43,325,39.2,0.528,58,pos
5,103,108,37,0,39.2,0.305,65,neg
0,126,86,27,120,27.4,0.515,21,neg
11,136,84,35,130,28.3,0.26,42,pos
4,111,72,47,207,37.1,1.39,56,pos
5,104,74,0,0,28.8,0.153,48,neg
3,111,58,31,44,29.5,0.43,22,neg
8,181,68,36,495,30.1,0.615,60,pos
0,124,70,20,0,27.4,0.254,36,pos
2,119,0,0,0,19.6,0.832,72,neg
8,84,74,31,0,38.3,0.457,39,neg
11,155,76,28,150,33.3,1.353,51,pos
6,117,96,0,0,28.7,0.157,30,neg
2,123,48,32,165,42.1,0.52,26,neg
5,144,82,26,285,32.0,0.452,58,pos
0,132,78,0,0,32.4,0.393,21,neg
3,88,58,11,54,24.8,0.267,22,neg
7,103,66,32,0,39.1,0.344,31,pos
0,102,86,17,105,29.3,0.695,27,neg
0,113,80,16,0,31.0,0.874,21,neg
8,196,76,29,280,37.5,0.605,57,pos
3,170,64,37,225,34.5,0.356,30,pos
8,112,72,0,0,23.6,0.84,58,neg
8,120,0,0,0,30.0,0.183,38,pos
0,98,82,15,84,25.2,0.299,22,neg
4,173,70,14,168,29.7,0.361,33,pos
1,107,68,19,0,26.5,0.165,24,neg
3,173,84,33,474,35.7,0.258,22,pos
2,93,64,32,160,38.0,0.674,23,pos
7,81,78,40,48,46.7,0.261,42,neg
8,133,72,0,0,32.9,0.27,39,pos
7,152,88,44,0,50.0,0.337,36,pos
6,102,82,0,0,30.8,0.18,36,pos
4,148,60,27,318,30.9,0.15,29,pos
1,106,70,28,135,34.2,0.142,22,neg
1,126,56,29,152,28.7,0.801,21,neg
8,176,90,34,300,33.7,0.467,58,pos
4,123,80,15,176,32.0,0.443,34,neg
4,94,65,22,0,24.7,0.148,21,neg
11,138,76,0,0,33.2,0.42,35,neg
0,125,96,0,0,22.5,0.262,21,neg
6,166,74,0,0,26.6,0.304,66,neg
4,92,80,0,0,42.2,0.237,29,neg
0,139,62,17,210,22.1,0.207,21,neg
2,129,84,0,0,28.0,0.284,27,neg
7,196,90,0,0,39.8,0.451,41,pos
4,147,74,25,293,34.9,0.385,30,neg
3,132,80,0,0,34.4,0.402,44,pos
0,78,88,29,40,36.9,0.434,21,neg
1,157,72,21,168,25.6,0.123,24,neg
1,100,72,12,70,25.3,0.658,28,neg
1,80,74,11,60,30.0,0.527,22,neg
0,107,62,30,74,36.6,0.757,25,pos
0,126,84,29,215,30.7,0.52,24,neg
0,109,88,30,0,32.5,0.855,38,pos
1,106,76,0,0,37.5,0.197,26,neg
0,107,76,0,0,45.3,0.686,24,neg
9,119,80,35,0,29.0,0.263,29,pos
1,125,70,24,110,24.3,0.221,25,neg
2,101,58,17,265,24.2,0.614,23,neg
0,119,64,18,92,34.9,0.725,23,neg
4,115,72,0,0,28.9,0.376,46,pos
8,179,72,42,130,32.7,0.719,36,pos
0,137,68,14,148,24.8,0.143,21,neg
1,71,78,50,45,33.2,0.422,21,neg
5,143,78,0,0,45.0,0.19,47,neg
0,101,76,0,0,35.7,0.198,26,neg
9,140,94,0,0,32.7,0.734,45,pos
0,131,88,0,0,31.6,0.743,32,pos
0,129,110,46,130,67.1,0.319,26,pos
1,103,80,11,82,19.4,0.491,22,neg
1,124,74,36,0,27.8,0.1,30,neg
5,108,72,43,75,36.1,0.263,33,neg
17,163,72,41,114,40.9,0.817,47,pos
1,89,24,19,25,27.8,0.559,21,neg
4,117,62,12,0,29.7,0.38,30,pos
2,108,80,0,0,27.0,0.259,52,pos
8,118,72,19,0,23.1,1.476,46,neg
6,80,66,30,0,26.2,0.313,41,neg
1,116,70,28,0,27.4,0.204,21,neg
1,88,78,29,76,32.0,0.365,29,neg
1,87,78,27,32,34.6,0.101,22,neg
8,91,82,0,0,35.6,0.587,68,neg
2,95,54,14,88,26.1,0.748,22,neg
0,165,90,33,680,52.3,0.427,23,neg
4,146,78,0,0,38.5,0.52,67,pos
1,100,66,15,56,23.6,0.666,26,neg
6,137,61,0,0,24.2,0.151,55,neg
8,143,66,0,0,34.9,0.129,41,pos
10,122,68,0,0,31.2,0.258,41,neg
4,90,88,47,54,37.7,0.362,29,neg
3,171,72,33,135,33.3,0.199,24,pos
10,115,0,0,0,35.3,0.134,29,neg
4,95,60,32,0,35.4,0.284,28,neg
2,94,76,18,66,31.6,0.649,23,neg
3,82,70,0,0,21.1,0.389,25,neg
3,193,70,31,0,34.9,0.241,25,pos
1,97,70,40,0,38.1,0.218,30,neg
10,148,84,48,237,37.6,1.001,51,pos
3,111,56,39,0,30.1,0.557,30,neg
13,129,0,30,0,39.9,0.569,44,pos
13,145,82,19,110,22.2,0.245,57,neg
7,168,88,42,321,38.2,0.787,40,pos
0,119,0,0,0,32.4,0.141,24,pos
2,56,56,28,45,24.2,0.332,22,neg
6,104,74,18,156,29.9,0.722,41,pos
2,100,70,52,57,40.5,0.677,25,neg
6,123,72,45,230,33.6,0.733,34,neg
2,157,74,35,440,39.4,0.134,30,neg
0,128,68,19,180,30.5,1.391,25,pos
1,120,80,48,200,38.9,1.162,41,neg
4,158,78,0,0,32.9,0.803,31,pos
6,147,80,0,0,29.5,0.178,50,pos
9,130,70,0,0,34.2,0.652,45,pos
2,92,62,28,0,31.6,0.13,24,neg
6,91,0,0,0,29.8,0.501,31,neg
2,121,70,32,95,39.1,0.886,23,neg
3,115,66,39,140,38.1,0.15,28,neg
2,83,65,28,66,36.8,0.629,24,neg
7,62,78,0,0,32.6,0.391,41,neg
0,123,72,0,0,36.3,0.258,52,pos
8,154,78,32,0,32.4,0.443,45,pos
6,134,80,37,370,46.2,0.238,46,pos
5,44,62,0,0,25.0,0.587,36,neg
5,85,74,22,0,29.0,1.224,32,pos
1,111,62,13,182,24.0,0.138,23,neg
2,99,52,15,94,24.6,0.637,21,neg
4,189,110,31,0,28.5,0.68,37,neg
3,139,54,0,0,25.6,0.402,22,pos
6,183,94,0,0,40.8,1.461,45,neg
7,194,68,28,0,35.9,0.745,41,pos
14,100,78,25,184,36.6,0.412,46,pos
1,95,60,18,58,23.9,0.26,22,neg
4,96,56,17,49,20.8,0.34,26,neg
0,137,84,27,0,27.3,0.231,59,neg
2,75,64,24,55,29.7,0.37,33,neg
9,184,85,15,0,30.0,1.213,49,pos
5,112,66,0,0,37.8,0.261,41,pos
2,81,60,22,0,27.7,0.29,25,neg
0,127,80,37,210,36.3,0.804,23,neg
6,165,68,26,168,33.6,0.631,49,neg
2,96,68,13,49,21.1,0.647,26,neg
2,146,70,38,360,28.0,0.337,29,pos
1,143,84,23,310,42.4,1.076,22,neg
3,182,74,0,0,30.5,0.345,29,pos
3,111,62,0,0,22.6,0.142,21,neg
0,57,60,0,0,21.7,0.735,67,neg
3,84,72,32,0,37.2,0.267,28,neg
2,120,54,0,0,26.8,0.455,27,neg
3,173,82,48,465,38.4,2.137,25,pos
3,128,72,25,190,32.4,0.549,27,pos
4,90,0,0,0,28.0,0.61,31,neg
0,102,75,23,0,0.0,0.572,21,neg
2,92,76,20,0,24.2,1.698,28,neg
2,128,64,42,0,40.0,1.101,24,neg
