pregnant,glucose,pressure,triceps,insulin,mass,pedigree,age,Class
0,102,86,17,105,29.3,0.695,27,neg
2,141,58,34,128,25.4,0.699,24,neg
0,91,68,32,210,39.9,0.381,25,neg
1,96,122,0,0,22.4,0.207,27,neg
1,90,68,8,0,24.5,1.138,36,neg
4,97,60,23,0,28.2,0.443,22,neg
5,112,66,0,0,37.8,0.261,41,pos
3,187,70,22,200,36.4,0.408,36,pos
9,119,80,35,0,29.0,0.263,29,pos
10,129,76,28,122,35.9,0.28,39,neg
5,136,84,41,88,35.0,0.286,35,pos
12,121,78,17,0,26.5,0.259,62,neg
6,154,74,32,193,29.3,0.839,39,neg
11,138,74,26,144,36.1,0.557,50,pos
3,120,70,30,135,42.9,0.452,30,neg
8,196,76,29,280,37.5,0.605,57,pos
0,141,84,26,0,32.4,0.433,22,neg
5,103,108,37,0,39.2,0.305,65,neg
9,123,70,44,94,33.1,0.374,40,neg
8,109,76,39,114,27.9,0.64,31,pos
7,129,68,49,125,38.5,0.439,43,pos
1,91,54,25,100,25.2,0.234,23,neg
5,166,76,0,0,45.7,0.34,27,pos
6,151,62,31,120,35.5,0.692,28,neg
5,158,70,0,0,29.8,0.207,63,neg
2,146,0,0,0,27.5,0.24,28,pos
0,101,65,28,0,24.6,0.237,22,neg
10,101,76,48,180,32.9,0.171,63,neg
2,158,90,0,0,31.6,0.805,66,pos
5,128,80,0,0,34.6,0.144,45,neg
1,107,72,30,82,30.8,0.821,24,neg
3,129,92,49,155,36.4,0.968,32,pos
3,106,72,0,0,25.8,0.207,27,neg
0,121,66,30,165,34.3,0.203,33,pos
1,119,86,39,220,45.6,0.808,29,pos
7,142,90,24,480,30.4,0.128,43,pos
5,116,74,29,0,32.3,0.66,35,pos
5,136,82,0,0,0.0,0.64,69,neg
0,180,66,39,0,42.0,1.893,25,pos
6,102,82,0,0,30.8,0.18,36,pos
6,119,50,22,176,27.1,1.318,33,pos
7,159,66,0,0,30.4,0.383,36,pos
1,0,74,20,23,27.7,0.299,21,neg
10,133,68,0,0,27.0,0.245,36,neg
4,131,68,21,166,33.1,0.16,28,neg
7,136,74,26,135,26.0,0.647,51,neg
7,136,90,0,0,29.9,0.21,50,neg
6,123,72,45,230,33.6,0.733,34,neg
4,85,58,22,49,27.8,0.306,28,neg
1,111,94,0,0,32.8,0.265,45,neg
0,119,64,18,92,34.9,0.725,23,neg
1,167,74,17,144,23.4,0.447,33,pos
8,99,84,0,0,35.4,0.388,50,neg
8,110,76,0,0,27.8,0.237,58,neg
5,189,64,33,325,31.2,0.583,29,pos
8,125,96,0,0,0.0,0.232,54,pos
1,118,58,36,94,33.3,0.261,23,neg
3,80,0,0,0,0.0,0.174,22,neg
2,144,58,33,135,31.6,0.422,25,pos
9,152,78,34,171,34.2,0.893,33,pos
7,109,80,31,0,35.9,1.127,43,pos
0,131,0,0,0,43.2,0.27,26,pos
1,130,70,13,105,25.9,0.472,22,neg
3,173,78,39,185,33.8,0.97,31,pos
2,108,80,0,0,27.0,0.259,52,pos
3,121,52,0,0,36.0,0.127,25,pos
2,155,74,17,96,26.6,0.433,27,pos
2,87,0,23,0,28.9,0.773,25,neg
5,115,98,0,0,52.9,0.209,28,pos
3,171,72,33,135,33.3,0.199,24,pos
2,106,64,35,119,30.5,1.4,34,neg
0,132,78,0,0,32.4,0.393,21,neg
11,103,68,40,0,46.2,0.126,42,neg
2,91,62,0,0,27.3,0.525,22,neg
2,84,0,0,0,0.0,0.304,21,neg
5,187,76,27,207,43.6,1.034,53,pos
1,128,88,39,110,36.5,1.057,37,pos
0,100,88,60,110,46.8,0.962,31,neg
4,83,86,19,0,29.3,0.317,34,neg
1,117,88,24,145,34.5,0.403,40,pos
1,95,60,18,58,23.9,0.26,22,neg
0,94,0,0,0,0.0,0.256,25,neg
6,125,76,0,0,33.8,0.121,54,pos
0,91,80,0,0,32.4,0.601,27,neg
7,125,86,0,0,37.6,0.304,51,neg
4,123,80,15,176,32.0,0.443,34,neg
9,112,82,24,0,28.2,1.282,50,pos
8,120,86,0,0,28.4,0.259,22,pos
3,81,86,16,66,27.5,0.306,22,neg
2,127,58,24,275,27.7,1.6,25,neg
5,130,82,0,0,39.1,0.956,37,pos
0,145,0,0,0,44.2,0.63,31,pos
2,101,58,17,265,24.2,0.614,23,neg
1,83,68,0,0,18.2,0.624,27,neg
10,168,74,0,0,38.0,0.537,34,pos
8,91,82,0,0,35.6,0.587,68,neg
1,95,82,25,180,35.0,0.233,43,pos
5,0,80,32,0,41.0,0.346,37,pos
2,93,64,32,160,38.0,0.674,23,pos
1,88,62,24,44,29.9,0.422,23,neg
1,103,30,38,83,43.3,0.183,33,neg
10,94,72,18,0,23.1,0.595,56,neg
2,99,52,15,94,24.6,0.637,21,neg
10,148,84,48,237,37.6,1.001,51,pos
4,84,90,23,56,39.5,0.159,25,neg
13,129,0,30,0,39.9,0.569,44,pos
3,122,78,0,0,23.0,0.254,40,neg
5,162,104,0,0,37.7,0.151,52,pos
1,93,70,31,0,30.4,0.315,23,neg
4,144,82,32,0,38.5,0.554,37,pos
2,99,70,16,44,20.4,0.235,27,neg
1,100,74,12,46,19.5,0.149,28,neg
3,169,74,19,125,29.9,0.268,31,pos
0,119,0,0,0,32.4,0.141,24,pos
0,84,64,22,66,35.8,0.545,21,neg
5,121,72,23,112,26.2,0.245,30,neg
1,106,76,0,0,37.5,0.197,26,neg
1,149,68,29,127,29.3,0.349,42,pos
6,80,80,36,0,39.8,0.177,28,neg
10,179,70,0,0,35.1,0.2,37,neg
0,117,66,31,188,30.8,0.493,22,neg
8,194,80,0,0,26.1,0.551,67,neg
1,128,48,45,194,40.5,0.613,24,pos
0,167,0,0,0,32.3,0.839,30,pos
8,183,64,0,0,23.3,0.672,32,pos
4,129,86,20,270,35.1,0.231,23,neg
4,146,92,0,0,31.2,0.539,61,pos
6,117,96,0,0,28.7,0.157,30,neg
3,173,84,33,474,35.7,0.258,22,pos
5,105,72,29,325,36.9,0.159,28,neg
3,125,58,0,0,31.6,0.151,24,neg
1,131,64,14,415,23.7,0.389,21,neg
1,109,60,8,182,25.4,0.947,21,neg
0,126,84,29,215,30.7,0.52,24,neg
6,0,68,41,0,39.0,0.727,41,pos
1,157,72,21,168,25.6,0.123,24,neg
0,105,64,41,142,41.5,0.173,22,neg
0,125,68,0,0,24.7,0.206,21,neg
1,173,74,0,0,36.8,0.088,38,pos
10,115,98,0,0,24.0,1.022,34,neg
0,102,52,0,0,25.1,0.078,21,neg
7,187,50,33,392,33.9,0.826,34,pos
6,107,88,0,0,36.8,0.727,31,neg
8,167,106,46,231,37.6,0.165,43,pos
4,114,64,0,0,28.9,0.126,24,neg
1,196,76,36,249,36.5,0.875,29,pos
7,181,84,21,192,35.9,0.586,51,pos
0,188,82,14,185,32.0,0.682,22,pos
1,119,88,41,170,45.3,0.507,26,neg
3,124,80,33,130,33.2,0.305,26,neg
7,160,54,32,175,30.5,0.588,39,pos
3,107,62,13,48,22.9,0.678,23,pos
1,87,60,37,75,37.2,0.509,22,neg
1,111,62,13,182,24.0,0.138,23,neg
3,102,74,0,0,29.5,0.121,32,neg
0,102,78,40,90,34.5,0.238,24,neg
0,137,70,38,0,33.2,0.17,22,neg
12,92,62,7,258,27.6,0.926,44,pos
5,132,80,0,0,26.8,0.186,69,neg
2,92,52,0,0,30.1,0.141,22,neg
3,111,62,0,0,22.6,0.142,21,neg
5,78,48,0,0,33.7,0.654,25,neg
3,89,74,16,85,30.4,0.551,38,neg
3,100,68,23,81,31.6,0.949,28,neg
4,171,72,0,0,43.6,0.479,26,pos
1,87,78,27,32,34.6,0.101,22,neg
4,114,65,0,0,21.9,0.432,37,neg
0,146,82,0,0,40.5,1.781,44,neg
0,84,82,31,125,38.2,0.233,23,neg
2,174,88,37,120,44.5,0.646,24,pos
4,158,78,0,0,32.9,0.803,31,pos
0,113,76,0,0,33.3,0.278,23,pos
1,146,56,0,0,29.7,0.564,29,neg
3,103,72,30,152,27.6,0.73,27,neg
6,111,64,39,0,34.2,0.26,24,neg
13,106,72,54,0,36.6,0.178,45,neg
1,80,55,0,0,19.1,0.258,21,neg
2,99,60,17,160,36.6,0.453,21,neg
11,138,76,0,0,33.2,0.42,35,neg
5,143,78,0,0,45.0,0.19,47,neg
7,119,0,0,0,25.2,0.209,37,neg
2,107,74,30,100,33.6,0.404,23,neg
0,78,88,29,40,36.9,0.434,21,neg
0,131,66,40,0,34.3,0.196,22,pos
0,131,88,0,0,31.6,0.743,32,pos
8,112,72,0,0,23.6,0.84,58,neg
2,81,60,22,0,27.7,0.29,25,neg
1,89,24,19,25,27.8,0.559,21,neg
1,87,68,34,77,37.6,0.401,24,neg
7,105,0,0,0,0.0,0.305,24,neg
7,81,78,40,48,46.7,0.261,42,neg
2,114,68,22,0,28.7,0.092,25,neg
1,163,72,0,0,39.0,1.222,33,pos
1,71,62,0,0,21.8,0.416,26,neg
3,162,52,38,0,37.2,0.652,24,pos
1,181,78,42,293,40.0,1.258,22,pos
8,100,76,0,0,38.7,0.19,42,neg
1,100,66,15,56,23.6,0.666,26,neg
5,117,92,0,0,34.1,0.337,38,neg
0,94,70,27,115,43.5,0.347,21,neg
1,117,60,23,106,33.8,0.466,27,neg
4,151,90,38,0,29.7,0.294,36,neg
0,165,90,33,680,52.3,0.427,23,neg
0,129,110,46,130,67.1,0.319,26,pos
3,111,90,12,78,28.4,0.495,29,neg
6,125,78,31,0,27.6,0.565,49,pos
7,184,84,33,0,35.5,0.355,41,pos
3,112,74,30,0,31.6,0.197,25,pos
0,118,84,47,230,45.8,0.551,31,pos
9,122,56,0,0,33.3,1.114,33,pos
2,56,56,28,45,24.2,0.332,22,neg
1,101,50,15,36,24.2,0.526,26,neg
4,110,92,0,0,37.6,0.191,30,neg
2,122,70,27,0,36.8,0.34,27,neg
1,140,74,26,180,24.1,0.828,23,neg
8,126,88,36,108,38.5,0.349,49,neg
2,128,64,42,0,40.0,1.101,24,neg
12,84,72,31,0,29.7,0.297,46,pos
10,90,85,32,0,34.9,0.825,56,pos
13,145,82,19,110,22.2,0.245,57,neg
1,180,0,0,0,43.3,0.282,41,pos
9,102,76,37,0,32.9,0.665,46,pos
1,90,62,12,43,27.2,0.58,24,neg
4,96,56,17,49,20.8,0.34,26,neg
2,105,58,40,94,34.9,0.225,25,neg
5,122,86,0,0,34.7,0.29,33,neg
8,74,70,40,49,35.3,0.705,39,neg
8,197,74,0,0,25.9,1.191,39,pos
4,183,0,0,0,28.4,0.212,36,pos
1,181,64,30,180,34.1,0.328,38,pos
0,67,76,0,0,45.3,0.194,46,neg
13,106,70,0,0,34.2,0.251,52,neg
6,108,44,20,130,24.0,0.813,35,neg
2,197,70,45,543,30.5,0.158,53,pos
3,80,82,31,70,34.2,1.292,27,pos
0,102,64,46,78,40.6,0.496,21,neg
2,88,58,26,16,28.4,0.766,22,neg
7,152,88,44,0,50.0,0.337,36,pos
7,159,64,0,0,27.4,0.294,40,neg
8,155,62,26,495,34.0,0.543,46,pos
0,177,60,29,478,34.6,1.072,21,pos
6,103,72,32,190,37.7,0.324,55,neg
9,112,82,32,175,34.2,0.26,36,pos
2,157,74,35,440,39.4,0.134,30,neg
4,92,80,0,0,42.2,0.237,29,neg
9,145,80,46,130,37.9,0.637,40,pos
4,123,62,0,0,32.0,0.226,35,pos
7,195,70,33,145,25.1,0.163,55,pos
12,106,80,0,0,23.6,0.137,44,neg
7,114,66,0,0,32.8,0.258,42,pos
0,73,0,0,0,21.1,0.342,25,neg
10,125,70,26,115,31.1,0.205,41,pos
3,141,0,0,0,30.0,0.761,27,pos
4,146,85,27,100,28.9,0.189,27,neg
6,144,72,27,228,33.9,0.255,40,neg
5,96,74,18,67,33.6,0.997,43,neg
1,0,48,20,0,24.7,0.14,22,neg
3,99,54,19,86,25.6,0.154,24,neg
3,163,70,18,105,31.6,0.268,28,pos
7,168,88,42,321,38.2,0.787,40,pos
1,136,74,50,204,37.4,0.399,24,neg
1,86,66,52,65,41.3,0.917,29,neg
5,115,76,0,0,31.2,0.343,44,pos
8,179,72,42,130,32.7,0.719,36,pos
1,114,66,36,200,38.1,0.289,21,neg
10,122,68,0,0,31.2,0.258,41,neg
4,173,70,14,168,29.7,0.361,33,pos
2,75,64,24,55,29.7,0.37,33,neg
3,150,76,0,0,21.0,0.207,37,neg
8,118,72,19,0,23.1,1.476,46,neg
2,106,56,27,165,29.0,0.426,22,neg
0,141,0,0,0,42.4,0.205,29,pos
5,147,78,0,0,33.7,0.218,65,neg
1,97,66,15,140,23.2,0.487,22,neg
6,103,66,0,0,24.3,0.249,29,neg
2,90,70,17,0,27.3,0.085,22,neg
2,110,74,29,125,32.4,0.698,27,neg
0,118,64,23,89,0.0,1.731,21,neg
7,161,86,0,0,30.4,0.165,47,pos
9,106,52,0,0,31.2,0.38,42,neg
2,111,60,0,0,26.2,0.343,23,neg
3,111,56,39,0,30.1,0.557,30,neg
4,95,70,32,0,32.1,0.612,24,neg
1,82,64,13,95,21.2,0.415,23,neg
4,144,58,28,140,29.5,0.287,37,neg
3,108,62,24,0,26.0,0.223,25,neg
8,120,0,0,0,30.0,0.183,38,pos
0,99,0,0,0,25.0,0.253,22,neg
2,89,90,30,0,33.5,0.292,42,neg
2,105,80,45,191,33.7,0.711,29,pos
7,179,95,31,0,34.2,0.164,60,neg
11,136,84,35,130,28.3,0.26,42,pos
0,105,90,0,0,29.6,0.197,46,neg
6,114,0,0,0,0.0,0.189,26,neg
1,100,66,29,196,32.0,0.444,42,neg
2,71,70,27,0,28.0,0.586,22,neg
0,93,100,39,72,43.4,1.021,35,neg
7,102,74,40,105,37.2,0.204,45,neg
4,145,82,18,0,32.5,0.235,70,pos
7,150,66,42,342,34.7,0.718,42,neg
3,113,44,13,0,22.4,0.14,22,neg
3,87,60,18,0,21.8,0.444,21,neg
1,124,74,36,0,27.8,0.1,30,neg
12,100,84,33,105,30.0,0.488,46,neg
5,108,72,43,75,36.1,0.263,33,neg
9,57,80,37,0,32.8,0.096,41,neg
5,109,75,26,0,36.0,0.546,60,neg
4,94,65,22,0,24.7,0.148,21,neg
3,158,70,30,328,35.5,0.344,35,pos
3,83,58,31,18,34.3,0.336,25,neg
2,100,68,25,71,38.5,0.324,26,neg
8,133,72,0,0,32.9,0.27,39,pos
10,111,70,27,0,27.5,0.141,40,pos
5,168,64,0,0,32.9,0.135,41,pos
3,113,50,10,85,29.5,0.626,25,neg
11,85,74,0,0,30.1,0.3,35,neg
1,97,64,19,82,18.2,0.299,21,neg
1,144,82,46,180,46.1,0.335,46,pos
6,134,80,37,370,46.2,0.238,46,pos
1,108,60,46,178,35.5,0.415,24,neg
0,180,78,63,14,59.4,2.42,25,pos
0,179,90,27,0,44.1,0.686,23,pos
3,130,64,0,0,23.1,0.314,22,neg
0,146,70,0,0,37.9,0.334,28,pos
2,83,66,23,50,32.2,0.497,22,neg
5,99,54,28,83,34.0,0.499,30,neg
4,125,70,18,122,28.9,1.144,45,pos
6,99,60,19,54,26.9,0.497,32,neg
4,142,86,0,0,44.0,0.645,22,pos
1,147,94,41,0,49.3,0.358,27,pos
4,129,60,12,231,27.5,0.527,31,neg
4,154,62,31,284,32.8,0.237,23,neg
5,111,72,28,0,23.9,0.407,27,neg
0,97,64,36,100,36.8,0.6,25,neg
4,90,88,47,54,37.7,0.362,29,neg
2,130,96,0,0,22.6,0.268,21,neg
5,116,74,0,0,25.6,0.201,30,neg
3,116,74,15,105,26.3,0.107,24,neg
1,143,74,22,61,26.2,0.256,21,neg
2,100,64,23,0,29.7,0.368,21,neg
5,124,74,0,0,34.0,0.22,38,pos
10,139,80,0,0,27.1,1.441,57,neg
7,142,60,33,190,28.8,0.687,61,neg
3,90,78,0,0,42.7,0.559,21,neg
1,116,70,28,0,27.4,0.204,21,neg
1,79,80,25,37,25.4,0.583,22,neg
6,102,90,39,0,35.7,0.674,28,neg
2,102,86,36,120,45.5,0.127,23,pos
4,132,0,0,0,32.9,0.302,23,pos
1,121,78,39,74,39.0,0.261,28,neg
4,146,78,0,0,38.5,0.52,67,pos
1,112,72,30,176,34.4,0.528,25,neg
4,118,70,0,0,44.5,0.904,26,neg
3,99,80,11,64,19.3,0.284,30,neg
2,92,76,20,0,24.2,1.698,28,neg
1,107,68,19,0,26.5,0.165,24,neg
1,71,78,50,45,33.2,0.422,21,neg
9,134,74,33,60,25.9,0.46,81,neg
5,77,82,41,42,35.8,0.156,35,neg
8,143,66,0,0,34.9,0.129,41,pos
1,93,56,11,0,22.5,0.417,22,neg
10,75,82,0,0,33.3,0.263,38,neg
7,133,84,0,0,40.2,0.696,37,neg
3,88,58,11,54,24.8,0.267,22,neg
2,121,70,32,95,39.1,0.886,23,neg
2,112,75,32,0,35.7,0.148,21,neg
0,111,65,0,0,24.6,0.66,31,neg
1,95,74,21,73,25.9,0.673,36,neg
7,94,64,25,79,33.3,0.738,41,neg
2,127,46,21,335,34.4,0.176,22,neg
5,139,80,35,160,31.6,0.361,25,pos
6,137,61,0,0,24.2,0.151,55,neg
6,98,58,33,190,34.0,0.43,43,neg
1,84,64,23,115,36.9,0.471,28,neg
3,139,54,0,0,25.6,0.402,22,pos
2,101,58,35,90,21.8,0.155,22,neg
0,100,70,26,50,30.8,0.597,21,neg
9,89,62,0,0,22.5,0.142,33,neg
1,109,38,18,120,23.1,0.407,26,neg
4,117,62,12,0,29.7,0.38,30,pos
0,113,80,16,0,31.0,0.874,21,neg
4,122,68,0,0,35.0,0.394,29,neg
1,88,30,42,99,55.0,0.496,26,pos
0,198,66,32,274,41.3,0.502,28,pos
