pregnant,glucose,pressure,triceps,insulin,mass,pedigree,age,Class
3,132,80,0,0,34.4,0.402,44,pos
8,186,90,35,225,34.5,0.423,37,pos
17,163,72,41,114,40.9,0.817,47,pos
2,110,74,29,125,32.4,0.698,27,neg
4,103,60,33,192,24.0,0.966,33,neg
2,91,62,0,0,27.3,0.525,22,neg
2,100,64,23,0,29.7,0.368,21,neg
3,176,86,27,156,33.3,1.154,52,pos
1,100,74,12,46,19.5,0.149,28,neg
3,113,44,13,0,22.4,0.14,22,neg
6,119,50,22,176,27.1,1.318,33,pos
1,157,72,21,168,25.6,0.123,24,neg
1,130,60,23,170,28.6,0.692,21,neg
2,119,0,0,0,19.6,0.832,72,neg
1,100,66,29,196,32.0,0.444,42,neg
1,189,60,23,846,30.1,0.398,59,pos
11,120,80,37,150,42.3,0.785,48,pos
1,90,62,18,59,25.1,1.268,25,neg
2,129,0,0,0,38.5,0.304,41,neg
4,76,62,0,0,34.0,0.391,25,neg
2,94,76,18,66,31.6,0.649,23,neg
10,101,86,37,0,45.6,1.136,38,pos
8,95,72,0,0,36.8,0.485,57,neg
0,111,65,0,0,24.6,0.66,31,neg
11,103,68,40,0,46.2,0.126,42,neg
1,87,68,34,77,37.6,0.401,24,neg
6,93,50,30,64,28.7,0.356,23,neg
1,196,76,36,249,36.5,0.875,29,pos
5,158,70,0,0,29.8,0.207,63,neg
6,96,0,0,0,23.7,0.19,28,neg
3,174,58,22,194,32.9,0.593,36,pos
4,146,78,0,0,38.5,0.52,67,pos
8,154,78,32,0,32.4,0.443,45,pos
8,118,72,19,0,23.1,1.476,46,neg
0,102,78,40,90,34.5,0.238,24,neg
0,123,88,37,0,35.2,0.197,29,neg
5,168,64,0,0,32.9,0.135,41,pos
6,194,78,0,0,23.5,0.129,59,pos
2,120,76,37,105,39.7,0.215,29,neg
0,74,52,10,36,27.8,0.269,22,neg
1,0,48,20,0,24.7,0.14,22,neg
0,118,84,47,230,45.8,0.551,31,pos
1,133,102,28,140,32.8,0.234,45,pos
8,176,90,34,300,33.7,0.467,58,pos
3,82,70,0,0,21.1,0.389,25,neg
5,187,76,27,207,43.6,1.034,53,pos
2,197,70,45,543,30.5,0.158,53,pos
6,80,66,30,0,26.2,0.313,41,neg
2,83,65,28,66,36.8,0.629,24,neg
0,119,66,27,0,38.8,0.259,22,neg
8,125,96,0,0,0.0,0.232,54,pos
1,112,80,45,132,34.8,0.217,24,neg
0,97,64,36,100,36.8,0.6,25,neg
2,108,64,0,0,30.8,0.158,21,neg
4,92,80,0,0,42.2,0.237,29,neg
2,139,75,0,0,25.6,0.167,29,neg
1,100,66,15,56,23.6,0.666,26,neg
5,122,86,0,0,34.7,0.29,33,neg
3,142,80,15,0,32.4,0.2,63,neg
5,73,60,0,0,26.8,0.268,27,neg
0,179,90,27,0,44.1,0.686,23,pos
3,128,78,0,0,21.1,0.268,55,neg
7,187,50,33,392,33.9,0.826,34,pos
4,146,85,27,100,28.9,0.189,27,neg
2,89,90,30,0,33.5,0.292,42,neg
12,100,84,33,105,30.0,0.488,46,neg
1,112,72,30,176,34.4,0.528,25,neg
0,141,84,26,0,32.4,0.433,22,neg
4,146,92,0,0,31.2,0.539,61,pos
3,169,74,19,125,29.9,0.268,31,pos
1,181,78,42,293,40.0,1.258,22,pos
0,94,0,0,0,0.0,0.256,25,neg
7,168,88,42,321,38.2,0.787,40,pos
4,154,72,29,126,31.3,0.338,37,neg
3,61,82,28,0,34.4,0.243,46,neg
1,97,70,15,0,18.2,0.147,21,neg
2,88,58,26,16,28.4,0.766,22,neg
0,123,72,0,0,36.3,0.258,52,pos
1,89,66,23,94,28.1,0.167,21,neg
1,105,58,0,0,24.3,0.187,21,neg
6,195,70,0,0,30.9,0.328,31,pos
7,102,74,40,105,37.2,0.204,45,neg
0,137,40,35,168,43.1,2.288,33,pos
0,101,64,17,0,21.0,0.252,21,neg
1,122,90,51,220,49.7,0.325,31,pos
2,120,54,0,0,26.8,0.455,27,neg
13,153,88,37,140,40.6,1.174,39,neg
0,78,88,29,40,36.9,0.434,21,neg
1,168,88,29,0,35.0,0.905,52,pos
0,84,64,22,66,35.8,0.545,21,neg
10,115,0,0,0,35.3,0.134,29,neg
5,143,78,0,0,45.0,0.19,47,neg
1,147,94,41,0,49.3,0.358,27,pos
2,105,80,45,191,33.7,0.711,29,pos
8,85,55,20,0,24.4,0.136,42,neg
5,104,74,0,0,28.8,0.153,48,neg
5,139,64,35,140,28.6,0.411,26,neg
1,153,82,42,485,40.6,0.687,23,neg
8,126,88,36,108,38.5,0.349,49,neg
9,171,110,24,240,45.4,0.721,54,pos
1,95,66,13,38,19.6,0.334,25,neg
9,119,80,35,0,29.0,0.263,29,pos
8,91,82,0,0,35.6,0.587,68,neg
7,124,70,33,215,25.5,0.161,37,neg
0,162,76,56,100,53.2,0.759,25,pos
2,90,80,14,55,24.4,0.249,24,neg
1,117,88,24,145,34.5,0.403,40,pos
0,106,70,37,148,39.4,0.605,22,neg
4,122,68,0,0,35.0,0.394,29,neg
1,100,72,12,70,25.3,0.658,28,neg
0,134,58,20,291,26.4,0.352,21,neg
2,81,72,15,76,30.1,0.547,25,neg
7,133,84,0,0,40.2,0.696,37,neg
1,83,68,0,0,18.2,0.624,27,neg
0,173,78,32,265,46.5,1.159,58,neg
5,132,80,0,0,26.8,0.186,69,neg
1,111,62,13,182,24.0,0.138,23,neg
2,100,66,20,90,32.9,0.867,28,pos
1,87,78,27,32,34.6,0.101,22,neg
6,103,72,32,190,37.7,0.324,55,neg
1,128,48,45,194,40.5,0.613,24,pos
2,112,68,22,94,34.1,0.315,26,neg
3,100,68,23,81,31.6,0.949,28,neg
13,76,60,0,0,32.8,0.18,41,neg
0,165,76,43,255,47.9,0.259,26,neg
3,111,56,39,0,30.1,0.557,30,neg
3,96,56,34,115,24.7,0.944,39,neg
6,92,62,32,126,32.0,0.085,46,neg
10,115,98,0,0,24.0,1.022,34,neg
2,90,68,42,0,38.2,0.503,27,pos
6,114,0,0,0,0.0,0.189,26,neg
2,118,80,0,0,42.9,0.693,21,pos
9,156,86,0,0,24.8,0.23,53,pos
7,103,66,32,0,39.1,0.344,31,pos
4,148,60,27,318,30.9,0.15,29,pos
6,103,66,0,0,24.3,0.249,29,neg
9,134,74,33,60,25.9,0.46,81,neg
2,146,0,0,0,27.5,0.24,28,pos
6,151,62,31,120,35.5,0.692,28,neg
2,81,60,22,0,27.7,0.29,25,neg
10,94,72,18,0,23.1,0.595,56,neg
5,114,74,0,0,24.9,0.744,57,neg
2,112,86,42,160,38.4,0.246,28,neg
0,161,50,0,0,21.9,0.254,65,neg
2,74,0,0,0,0.0,0.102,22,neg
2,142,82,18,64,24.7,0.761,21,neg
1,109,58,18,116,28.5,0.219,22,neg
6,147,80,0,0,29.5,0.178,50,pos
9,145,88,34,165,30.3,0.771,53,pos
1,95,60,18,58,23.9,0.26,22,neg
1,103,30,38,83,43.3,0.183,33,neg
4,110,92,0,0,37.6,0.191,30,neg
2,84,0,0,0,0.0,0.304,21,neg
1,88,78,29,76,32.0,0.365,29,neg
1,71,48,18,76,20.4,0.323,22,neg
9,120,72,22,56,20.8,0.733,48,neg
10,129,62,36,0,41.2,0.441,38,pos
0,138,60,35,167,34.6,0.534,21,pos
0,73,0,0,0,21.1,0.342,25,neg
3,158,64,13,387,31.2,0.295,24,neg
7,178,84,0,0,39.9,0.331,41,pos
6,107,88,0,0,36.8,0.727,31,neg
0,189,104,25,0,34.3,0.435,41,pos
12,140,82,43,325,39.2,0.528,58,pos
1,96,122,0,0,22.4,0.207,27,neg
1,107,50,19,0,28.3,0.181,29,neg
0,137,70,38,0,33.2,0.17,22,neg
7,142,90,24,480,30.4,0.128,43,pos
2,125,60,20,140,33.8,0.088,31,neg
1,143,74,22,61,26.2,0.256,21,neg
0,95,64,39,105,44.6,0.366,22,neg
2,141,58,34,128,25.4,0.699,24,neg
3,191,68,15,130,30.9,0.299,34,neg
7,142,60,33,190,28.8,0.687,61,neg
0,95,80,45,92,36.5,0.33,26,neg
4,171,72,0,0,43.6,0.479,26,pos
6,162,62,0,0,24.3,0.178,50,pos
1,125,70,24,110,24.3,0.221,25,neg
3,84,72,32,0,37.2,0.267,28,neg
6,105,80,28,0,32.5,0.878,26,neg
4,127,88,11,155,34.5,0.598,28,neg
8,167,106,46,231,37.6,0.165,43,pos
4,125,70,18,122,28.9,1.144,45,pos
0,127,80,37,210,36.3,0.804,23,neg
2,108,80,0,0,27.0,0.259,52,pos
0,93,60,25,92,28.7,0.532,22,neg
5,109,75,26,0,36.0,0.546,60,neg
0,113,76,0,0,33.3,0.278,23,pos
0,117,66,31,188,30.8,0.493,22,neg
2,108,52,26,63,32.5,0.318,22,neg
2,96,68,13,49,21.1,0.647,26,neg
1,101,50,15,36,24.2,0.526,26,neg
1,96,64,27,87,33.2,0.289,21,neg
9,165,88,0,0,30.4,0.302,49,pos
8,100,74,40,215,39.4,0.661,43,pos
1,125,50,40,167,33.3,0.962,28,pos
0,167,0,0,0,32.3,0.839,30,pos
3,83,58,31,18,34.3,0.336,25,neg
8,183,64,0,0,23.3,0.672,32,pos
7,97,76,32,91,40.9,0.871,32,pos
1,144,82,46,180,46.1,0.335,46,pos
4,141,74,0,0,27.6,0.244,40,neg
1,118,58,36,94,33.3,0.261,23,neg
5,112,66,0,0,37.8,0.261,41,pos
2,112,66,22,0,25.0,0.307,24,neg
4,123,80,15,176,32.0,0.443,34,neg
2,90,60,0,0,23.5,0.191,25,neg
6,124,72,0,0,27.6,0.368,29,pos
1,128,82,17,183,27.5,0.115,22,neg
8,124,76,24,600,28.7,0.687,52,pos
6,105,70,32,68,30.8,0.122,37,neg
5,136,84,41,88,35.0,0.286,35,pos
2,99,70,16,44,20.4,0.235,27,neg
12,140,85,33,0,37.4,0.244,41,neg
2,128,64,42,0,40.0,1.101,24,neg
12,88,74,40,54,35.3,0.378,48,neg
2,93,64,32,160,38.0,0.674,23,pos
0,108,68,20,0,27.3,0.787,32,neg
4,90,0,0,0,28.0,0.61,31,neg
2,155,74,17,96,26.6,0.433,27,pos
4,142,86,0,0,44.0,0.645,22,pos
1,193,50,16,375,25.9,0.655,24,neg
7,107,74,0,0,29.6,0.254,31,pos
11,111,84,40,0,46.8,0.925,45,pos
3,122,78,0,0,23.0,0.254,40,neg
6,125,76,0,0,33.8,0.121,54,pos
4,91,70,32,88,33.1,0.446,22,neg
1,106,70,28,135,34.2,0.142,22,neg
1,88,30,42,99,55.0,0.496,26,pos
10,129,76,28,122,35.9,0.28,39,neg
9,156,86,28,155,34.3,1.189,42,pos
5,147,78,0,0,33.7,0.218,65,neg
4,110,76,20,100,28.4,0.118,27,neg
11,127,106,0,0,39.0,0.19,51,neg
6,125,78,31,0,27.6,0.565,49,pos
2,129,84,0,0,28.0,0.284,27,neg
5,108,72,43,75,36.1,0.263,33,neg
2,121,70,32,95,39.1,0.886,23,neg
2,105,58,40,94,34.9,0.225,25,neg
2,144,58,33,135,31.6,0.422,25,pos
8,188,78,0,0,47.9,0.137,43,pos
4,118,70,0,0,44.5,0.904,26,neg
10,108,66,0,0,32.4,0.272,42,pos
6,144,72,27,228,33.9,0.255,40,neg
2,107,74,30,100,33.6,0.404,23,neg
1,80,74,11,60,30.0,0.527,22,neg
3,107,62,13,48,22.9,0.678,23,pos
2,71,70,27,0,28.0,0.586,22,neg
4,115,72,0,0,28.9,0.376,46,pos
3,84,68,30,106,31.9,0.591,25,neg
0,102,64,46,78,40.6,0.496,21,neg
13,104,72,0,0,31.2,0.465,38,pos
3,173,82,48,465,38.4,2.137,25,pos
2,197,70,99,0,34.7,0.575,62,pos
1,95,74,21,73,25.9,0.673,36,neg
4,132,86,31,0,28.0,0.419,63,neg
2,92,62,28,0,31.6,0.13,24,neg
4,145,82,18,0,32.5,0.235,70,pos
2,102,86,36,120,45.5,0.127,23,pos
7,100,0,0,0,30.0,0.484,32,pos
9,170,74,31,0,44.0,0.403,43,pos
5,116,74,0,0,25.6,0.201,30,neg
7,94,64,25,79,33.3,0.738,41,neg
5,111,72,28,0,23.9,0.407,27,neg
4,109,64,44,99,34.8,0.905,26,pos
6,183,94,0,0,40.8,1.461,45,neg
0,129,80,0,0,31.2,0.703,29,neg
8,151,78,32,210,42.9,0.516,36,pos
4,95,70,32,0,32.1,0.612,24,neg
4,95,64,0,0,32.0,0.161,31,pos
6,114,88,0,0,27.8,0.247,66,neg
0,100,88,60,110,46.8,0.962,31,neg
7,137,90,41,0,32.0,0.391,39,neg
9,184,85,15,0,30.0,1.213,49,pos
3,182,74,0,0,30.5,0.345,29,pos
1,111,94,0,0,32.8,0.265,45,neg
5,189,64,33,325,31.2,0.583,29,pos
10,133,68,0,0,27.0,0.245,36,neg
2,105,75,0,0,23.3,0.56,53,neg
2,128,78,37,182,43.3,1.224,31,pos
12,106,80,0,0,23.6,0.137,44,neg
1,119,86,39,220,45.6,0.808,29,pos
1,146,56,0,0,29.7,0.564,29,neg
3,130,78,23,79,28.4,0.323,34,pos
2,68,62,13,15,20.1,0.257,23,neg
4,134,72,0,0,23.8,0.277,60,pos
4,151,90,38,0,29.7,0.294,36,neg
7,136,74,26,135,26.0,0.647,51,neg
0,114,80,34,285,44.2,0.167,27,neg
2,115,64,22,0,30.8,0.421,21,neg
9,112,82,24,0,28.2,1.282,50,pos
11,136,84,35,130,28.3,0.26,42,pos
8,84,74,31,0,38.3,0.457,39,neg
3,121,52,0,0,36.0,0.127,25,pos
7,129,68,49,125,38.5,0.439,43,pos
0,128,68,19,180,30.5,1.391,25,pos
5,115,98,0,0,52.9,0.209,28,pos
3,130,64,0,0,23.1,0.314,22,neg
1,81,74,41,57,46.3,1.096,32,neg
5,96,74,18,67,33.6,0.997,43,neg
0,138,0,0,0,36.3,0.933,25,pos
2,56,56,28,45,24.2,0.332,22,neg
0,117,80,31,53,45.2,0.089,24,neg
7,181,84,21,192,35.9,0.586,51,pos
8,112,72,0,0,23.6,0.84,58,neg
0,105,64,41,142,41.5,0.173,22,neg
2,124,68,28,205,32.9,0.875,30,pos
5,78,48,0,0,33.7,0.654,25,neg
0,125,68,0,0,24.7,0.206,21,neg
1,143,84,23,310,42.4,1.076,22,neg
6,134,70,23,130,35.4,0.542,29,pos
10,161,68,23,132,25.5,0.326,47,pos
13,158,114,0,0,42.3,0.257,44,pos
2,94,68,18,76,26.0,0.561,21,neg
3,102,74,0,0,29.5,0.121,32,neg
4,99,68,38,0,32.8,0.145,33,neg
3,106,54,21,158,30.9,0.292,24,neg
8,120,0,0,0,30.0,0.183,38,pos
4,137,84,0,0,31.2,0.252,30,neg
1,97,66,15,140,23.2,0.487,22,neg
2,90,70,17,0,27.3,0.085,22,neg
4,131,68,21,166,33.1,0.16,28,neg
3,90,78,0,0,42.7,0.559,21,neg
6,190,92,0,0,35.5,0.278,66,pos
0,118,64,23,89,0.0,1.731,21,neg
2,100,68,25,71,38.5,0.324,26,neg
8,74,70,40,49,35.3,0.705,39,neg
1,172,68,49,579,42.4,0.702,28,pos
1,135,54,0,0,26.7,0.687,62,neg
6,117,96,0,0,28.7,0.157,30,neg
0,117,0,0,0,33.8,0.932,44,neg
1,106,76,0,0,37.5,0.197,26,neg
4,144,58,28,140,29.5,0.287,37,neg
1,139,62,41,480,40.7,0.536,21,neg
0,135,94,46,145,40.6,0.284,26,neg
3,148,66,25,0,32.5,0.256,22,neg
3,124,80,33,130,33.2,0.305,26,neg
1,108,88,19,0,27.1,0.4,24,neg
2,112,75,32,0,35.7,0.148,21,neg
3,158,76,36,245,31.6,0.851,28,pos
3,81,86,16,66,27.5,0.306,22,neg
0,146,82,0,0,40.5,1.781,44,neg
4,158,78,0,0,32.9,0.803,31,pos
4,156,75,0,0,48.3,0.238,32,pos
3,102,44,20,94,30.8,0.4,26,neg
5,121,72,23,112,26.2,0.245,30,neg
1,124,74,36,0,27.8,0.1,30,neg
9,145,80,46,130,37.9,0.637,40,pos
8,108,70,0,0,30.5,0.955,33,pos
8,120,78,0,0,25.0,0.409,64,neg
2,92,52,0,0,30.1,0.141,22,neg
0,131,0,0,0,43.2,0.27,26,pos
5,124,74,0,0,34.0,0.22,38,pos
13,129,0,30,0,39.9,0.569,44,pos
10,148,84,48,237,37.6,1.001,51,pos
8,105,100,36,0,43.3,0.239,45,pos
2,92,76,20,0,24.2,1.698,28,neg
0,135,68,42,250,42.3,0.365,24,pos
4,184,78,39,277,37.0,0.264,31,pos
0,107,76,0,0,45.3,0.686,24,neg
4,123,62,0,0,32.0,0.226,35,pos
9,72,78,25,0,31.6,0.28,38,neg
1,73,50,10,0,23.0,0.248,21,neg
1,116,70,28,0,27.4,0.204,21,neg
5,136,82,0,0,0.0,0.64,69,neg
11,85,74,0,0,30.1,0.3,35,neg
3,173,84,33,474,35.7,0.258,22,pos
5,115,76,0,0,31.2,0.343,44,pos
3,106,72,0,0,25.8,0.207,27,neg
1,131,64,14,415,23.7,0.389,21,neg
1,89,76,34,37,31.2,0.192,23,neg
10,101,76,48,180,32.9,0.171,63,neg
1,92,62,25,41,19.5,0.482,25,neg
2,83,66,23,50,32.2,0.497,22,neg
1,97,68,21,0,27.2,1.095,22,neg
4,112,78,40,0,39.4,0.236,38,neg
8,155,62,26,495,34.0,0.543,46,pos
0,67,76,0,0,45.3,0.194,46,neg
6,91,0,0,0,29.8,0.501,31,neg
5,162,104,0,0,37.7,0.151,52,pos
3,103,72,30,152,27.6,0.73,27,neg
2,84,50,23,76,30.4,0.968,21,neg
1,87,60,37,75,37.2,0.509,22,neg
8,143,66,0,0,34.9,0.129,41,pos
