RI,Na,Mg,Al,Si,K,Ca,Ba,Fe,Class
1.51571,12.72,3.46,1.56,73.2,0.67,8.09,0.0,0.24,1
1.52171,11.56,1.88,1.56,72.86,0.47,11.41,0.0,0.0,5
1.51708,13.72,3.68,1.81,72.06,0.64,7.88,0.0,0.0,2
1.51841,13.02,3.62,1.06,72.34,0.64,9.13,0.0,0.15,2
1.519,13.49,3.48,1.35,71.95,0.55,9.0,0.0,0.0,1
1.51514,14.01,2.68,3.5,69.89,1.68,5.87,2.2,0.0,5
1.52099,13.69,3.59,1.12,71.96,0.09,9.4,0.0,0.0,1
1.52151,11.03,1.71,1.56,73.44,0.58,11.62,0.0,0.0,5
1.53125,10.73,0.0,2.1,69.81,0.58,13.3,3.15,0.28,2
1.51766,13.21,3.69,1.29,72.61,0.57,8.22,0.0,0.0,1
1.51721,12.87,3.48,1.33,73.04,0.56,8.43,0.0,0.0,1
1.51556,13.87,0.0,2.54,73.23,0.14,9.41,0.81,0.01,7
1.52043,13.38,0.0,1.4,72.25,0.33,12.5,0.0,0.0,5
1.51605,12.9,3.44,1.45,73.06,0.44,8.27,0.0,0.0,2
1.52172,13.48,3.74,0.9,72.01,0.18,9.61,0.0,0.07,1
1.51789,13.19,3.9,1.3,72.33,0.55,8.44,0.0,0.28,2
1.51593,13.09,3.59,1.52,73.1,0.67,7.83,0.0,0.0,2
1.5161,13.33,3.53,1.34,72.67,0.56,8.33,0.0,0.0,3
1.52227,14.17,3.81,0.78,71.35,0.0,9.69,0.0,0.0,1
1.51667,12.94,3.61,1.26,72.75,0.56,8.6,0.0,0.0,2
1.51926,13.2,3.33,1.28,72.36,0.6,9.14,0.0,0.11,1
1.51629,12.71,3.33,1.49,73.28,0.67,8.24,0.0,0.0,2
1.51613,13.92,3.52,1.25,72.88,0.37,7.94,0.0,0.14,2
1.51934,13.64,3.54,0.75,72.65,0.16,8.89,0.15,0.24,3
1.51776,13.53,3.41,1.52,72.04,0.58,8.79,0.0,0.0,3
1.51687,13.23,3.54,1.48,72.84,0.56,8.1,0.0,0.0,2
1.51735,13.02,3.54,1.69,72.73,0.54,8.44,0.0,0.07,1
1.51594,13.09,3.52,1.55,72.87,0.68,8.05,0.0,0.09,2
1.52247,14.86,2.2,2.06,70.26,0.76,9.76,0.0,0.0,7
1.51609,15.01,0.0,2.51,73.05,0.05,8.83,0.53,0.0,7
1.51841,12.93,3.74,1.11,72.28,0.64,8.96,0.0,0.22,2
1.51829,13.24,3.9,1.41,72.33,0.55,8.31,0.0,0.1,2
1.52369,13.44,0.0,1.58,72.22,0.32,12.24,0.0,0.0,5
1.51756,13.15,3.61,1.05,73.24,0.57,8.24,0.0,0.0,1
1.51797,12.74,3.48,1.35,72.96,0.64,8.68,0.0,0.0,1
1.5232,13.72,3.72,0.51,71.75,0.09,10.06,0.0,0.16,1
1.51618,13.01,3.5,1.48,72.89,0.6,8.12,0.0,0.0,2
1.5173,12.35,2.72,1.63,72.87,0.7,9.23,0.0,0.0,2
1.51663,12.93,3.54,1.62,72.96,0.64,8.03,0.0,0.21,2
1.51655,13.41,3.39,1.28,72.64,0.52,8.65,0.0,0.0,3
1.51779,13.64,3.65,0.65,73.0,0.06,8.93,0.0,0.0,3
1.51793,12.79,3.5,1.12,73.03,0.64,8.77,0.0,0.0,1
1.51115,17.38,0.0,0.34,75.41,0.0,6.65,0.0,0.0,6
1.5159,13.02,3.58,1.51,73.12,0.69,7.96,0.0,0.0,2
1.51574,14.86,3.67,1.74,71.87,0.16,7.36,0.0,0.12,2
1.51755,12.71,3.42,1.2,73.2,0.59,8.64,0.0,0.0,1
1.5175,12.82,3.55,1.49,72.75,0.54,8.52,0.0,0.19,1
1.52739,11.02,0.0,0.75,73.08,0.0,14.96,0.0,0.0,2
1.51694,12.86,3.58,1.31,72.61,0.61,8.79,0.0,0.0,3
1.52196,14.36,3.85,0.89,71.36,0.15,9.15,0.0,0.0,1
1.51847,13.1,3.97,1.19,72.44,0.6,8.43,0.0,0.0,2
1.51915,12.73,1.85,1.86,72.69,0.6,10.09,0.0,0.0,5
1.51751,12.81,3.57,1.35,73.02,0.62,8.59,0.0,0.0,1
1.51779,13.21,3.39,1.33,72.76,0.59,8.59,0.0,0.0,1
1.51589,12.88,3.43,1.4,73.28,0.69,8.05,0.0,0.24,1
1.51743,13.3,3.6,1.14,73.09,0.58,8.17,0.0,0.0,1
1.51761,13.89,3.6,1.36,72.73,0.48,7.83,0.0,0.0,1
1.51969,14.56,0.0,0.56,73.48,0.0,11.22,0.0,0.0,6
1.51811,12.96,2.96,1.43,72.92,0.6,8.79,0.14,0.0,2
1.51131,13.69,3.2,1.81,72.81,1.76,5.43,1.19,0.0,7
1.53393,12.3,0.0,1.0,70.16,0.12,16.19,0.0,0.24,2
1.51651,14.38,0.0,1.94,73.61,0.0,8.48,1.57,0.0,7
1.51775,12.85,3.48,1.23,72.97,0.61,8.56,0.09,0.22,1
1.523,13.31,3.58,0.82,71.99,0.12,10.17,0.0,0.03,1
1.52152,13.05,3.65,0.87,72.32,0.19,9.85,0.0,0.17,1
1.51409,14.25,3.09,2.08,72.28,1.1,7.08,0.0,0.0,2
1.52065,14.36,0.0,2.02,73.42,0.0,8.44,1.64,0.0,7
1.51768,12.65,3.56,1.3,73.08,0.61,8.69,0.0,0.14,1
1.51596,13.02,3.56,1.54,73.11,0.72,7.9,0.0,0.0,2
1.51545,14.14,0.0,2.68,73.39,0.08,9.07,0.61,0.05,7
1.51831,14.39,0.0,1.82,72.86,1.41,6.47,2.88,0.0,7
1.52177,13.2,3.68,1.15,72.75,0.54,8.52,0.0,0.0,2
1.52223,13.21,3.77,0.79,71.99,0.13,10.02,0.0,0.0,1
1.5164,12.55,3.48,1.87,73.23,0.63,8.08,0.0,0.09,2
1.51732,14.95,0.0,1.8,72.99,0.0,8.61,1.55,0.0,7
1.5161,13.42,3.4,1.22,72.69,0.59,8.32,0.0,0.0,3
1.51567,13.29,3.45,1.21,72.74,0.56,8.57,0.0,0.0,1
1.5164,14.37,0.0,2.74,72.85,0.0,9.45,0.54,0.0,7
1.51743,12.2,3.25,1.16,73.55,0.62,8.9,0.0,0.24,2
1.51653,11.95,0.0,1.19,75.18,2.7,8.93,0.0,0.0,7
1.51763,12.61,3.59,1.31,73.29,0.58,8.5,0.0,0.0,1
1.52222,14.43,0.0,1.0,72.67,0.1,11.52,0.0,0.08,2
1.51784,13.08,3.49,1.28,72.86,0.6,8.49,0.0,0.0,1
1.52081,13.78,2.28,1.43,71.99,0.49,9.85,0.0,0.17,2
1.51793,13.21,3.48,1.41,72.64,0.59,8.43,0.0,0.0,1
1.51625,13.36,3.58,1.49,72.72,0.45,8.21,0.0,0.0,2
1.518,13.71,3.93,1.54,71.81,0.54,8.21,0.0,0.15,2
1.51769,13.65,3.66,1.11,72.77,0.11,8.6,0.0,0.0,3
1.51783,12.69,3.54,1.34,72.95,0.57,8.75,0.0,0.0,1
1.51596,12.79,3.61,1.62,72.97,0.64,8.07,0.0,0.26,1
1.51658,14.8,0.0,1.99,73.11,0.0,8.28,1.71,0.0,7
1.51645,13.4,3.49,1.52,72.65,0.67,8.08,0.0,0.1,2
1.52475,11.45,0.0,1.88,72.19,0.81,13.24,0.0,0.34,2
1.52315,13.44,3.34,1.23,72.38,0.6,8.83,0.0,0.0,7
1.51769,12.45,2.71,1.29,73.7,0.56,9.06,0.0,0.24,1
1.51707,13.48,3.48,1.71,72.52,0.62,7.99,0.0,0.0,2
1.51299,14.4,1.74,1.54,74.55,0.0,7.59,0.0,0.0,6
1.51837,13.14,2.84,1.28,72.85,0.55,9.07,0.0,0.0,1
1.51674,12.87,3.56,1.64,73.14,0.65,7.99,0.0,0.0,2
1.51839,12.85,3.67,1.24,72.57,0.62,8.68,0.0,0.35,2
1.51645,14.94,0.0,1.87,73.11,0.0,8.67,1.38,0.0,7
1.51755,13.0,3.6,1.36,72.99,0.57,8.4,0.0,0.11,1
1.51829,14.46,2.24,1.62,72.38,0.0,9.26,0.0,0.0,6
1.52127,14.32,3.9,0.83,71.5,0.0,9.49,0.0,0.0,3
1.51888,14.99,0.78,1.74,72.5,0.0,9.95,0.0,0.0,6
1.52614,13.7,0.0,1.36,71.24,0.19,13.44,0.0,0.1,2
1.52068,13.55,2.09,1.67,72.18,0.53,9.57,0.27,0.17,2
