Epoch,Accuracy
0,73.80952381
1,78.57142857
2,80.95238095
3,82.14285714
4,86.9047619
5,86.9047619
6,89.28571429
7,90.47619048
8,90.47619048
9,91.66666667
10,89.28571429
11,88.0952381
12,88.0952381
13,89.28571429
14,89.28571429
15,89.28571429
16,90.47619048
17,90.47619048
18,90.47619048
19,88.0952381
20,89.28571429
21,90.47619048
22,90.47619048
23,90.47619048
24,89.28571429
25,90.47619048
26,89.28571429
27,89.28571429
28,91.66666667
29,91.66666667
30,90.47619048
31,89.28571429
32,90.47619048
33,90.47619048
34,90.47619048
35,90.47619048
36,89.28571429
37,91.66666667
38,92.85714286
39,92.85714286
40,92.85714286
41,94.04761905
42,94.04761905
43,94.04761905
44,94.04761905
45,95.23809524
46,95.23809524
47,95.23809524
48,95.23809524
49,96.42857143
50,96.42857143
51,97.61904762
52,97.61904762
53,97.61904762
54,97.61904762
55,98.80952381
56,97.61904762
57,97.61904762
58,98.80952381
59,98.80952381
60,98.80952381
61,98.80952381
62,98.80952381
63,98.80952381
64,100
65,100
66,100
67,100
68,100
69,100