x.1,x.2,x.3,x.4,x.5,x.6,x.7,x.8,x.9,x.10,x.11,x.12,x.13,x.14,x.15,x.16,x.17,x.18,x.19,x.20,x.21,x.22,x.23,x.24,x.25,x.26,x.27,x.28,x.29,x.30,x.31,x.32,x.33,x.34,x.35,x.36,Class
75,79,89,75,59,64,77,71,55,64,81,67,82,91,100,78,74,83,92,74,63,67,80,70,79,95,101,79,75,88,97,79,75,81,86,75,damp grey soil
92,106,111,87,88,106,111,87,84,102,115,87,88,107,113,88,88,107,108,85,88,107,104,88,93,111,109,87,93,111,109,87,93,107,113,92,grey soil
74,84,85,69,67,75,82,69,70,75,85,69,72,77,90,72,68,77,90,72,68,73,86,72,64,71,87,78,64,64,87,78,64,68,87,78,very damp grey soil
55,48,70,62,51,48,70,67,51,48,70,67,59,53,76,70,56,49,73,70,49,40,69,66,63,66,72,64,59,57,75,64,56,48,75,68,vegetation stubble
55,54,57,37,59,54,63,42,55,54,63,46,56,53,66,48,59,53,66,44,59,56,62,44,52,51,72,57,56,51,68,53,56,54,72,49,vegetation stubble
92,117,119,98,96,117,130,94,92,112,124,94,97,115,119,94,93,115,114,90,93,106,114,90,88,106,111,87,84,94,102,76,76,94,98,72,grey soil
75,91,96,79,75,83,89,71,71,79,85,67,70,79,84,70,70,79,84,66,70,71,73,63,67,73,79,64,63,66,75,60,63,63,72,57,very damp grey soil
86,104,112,85,86,104,104,81,86,96,104,81,92,103,110,83,92,103,110,86,87,99,105,83,93,106,105,90,89,111,110,83,89,111,114,87,grey soil
56,63,88,78,59,71,88,78,63,87,92,78,75,91,105,86,79,103,110,90,71,103,110,86,93,120,124,104,82,120,124,101,70,111,119,94,grey soil
90,113,117,92,90,113,122,96,95,128,127,103,87,108,114,86,87,103,114,90,92,122,135,109,89,120,124,97,93,115,124,101,93,125,135,104,grey soil
68,77,94,79,60,62,78,76,64,73,90,76,60,54,87,74,56,61,87,78,71,79,100,81,75,79,96,79,75,83,96,79,84,99,104,83,vegetation stubble
46,37,130,127,46,34,124,124,46,37,119,127,47,34,119,126,47,34,114,126,47,34,114,122,47,37,120,124,44,34,120,120,47,37,120,124,cotton crop
75,99,109,83,75,107,113,92,75,103,113,96,78,109,112,92,74,100,112,92,70,100,112,92,67,99,114,94,63,95,110,90,63,91,105,90,red soil
44,37,119,126,50,43,110,115,44,34,129,143,44,31,120,131,50,40,115,113,50,46,111,116,46,36,128,132,46,39,122,121,53,45,108,103,cotton crop
59,67,104,96,63,67,108,96,70,75,104,85,59,63,93,90,63,66,97,94,67,77,110,90,63,71,101,87,63,71,101,90,67,75,105,90,vegetation stubble
63,72,74,62,63,75,77,62,67,79,81,62,66,71,73,63,63,67,73,59,66,75,76,63,67,70,75,57,63,70,68,57,63,66,68,57,very damp grey soil
64,111,125,102,68,111,120,98,68,111,115,98,68,112,122,99,64,112,122,99,64,112,122,99,71,111,123,100,67,111,123,100,67,107,118,96,red soil
67,71,74,65,70,79,82,62,78,84,89,73,68,73,82,65,72,77,82,68,76,81,90,76,71,79,87,70,71,79,87,70,71,83,87,70,very damp grey soil
59,99,114,90,63,99,114,90,63,99,110,86,60,97,119,94,63,111,119,97,63,106,119,90,57,98,106,91,60,106,115,98,64,106,120,98,red soil
64,69,86,72,76,85,94,76,72,89,94,72,71,79,91,78,80,99,104,78,84,95,100,78,71,79,93,75,84,99,109,83,79,91,104,75,very damp grey soil
70,111,119,101,67,111,119,94,67,111,119,97,68,115,120,98,68,111,120,98,64,111,115,98,68,116,122,99,64,112,122,99,68,107,118,96,red soil
70,84,82,58,67,79,82,62,70,79,82,58,68,81,82,65,72,77,82,61,68,77,78,61,68,79,83,67,68,75,79,63,68,75,75,56,very damp grey soil
70,67,88,78,66,71,88,78,66,71,92,74,71,77,93,79,71,73,93,79,67,73,90,75,70,84,97,80,70,75,93,76,67,75,89,76,vegetation stubble
59,63,66,52,59,63,66,55,63,63,69,55,63,63,65,53,63,66,68,53,63,66,72,60,63,67,70,58,63,75,74,62,63,71,74,62,very damp grey soil
67,75,82,58,70,79,74,58,63,75,74,55,68,77,74,57,68,73,78,54,68,73,74,54,68,75,79,56,64,75,79,59,68,79,79,59,very damp grey soil
70,83,92,74,74,83,100,85,59,49,104,107,71,84,86,72,75,84,97,72,75,70,101,94,74,88,89,73,74,84,89,73,74,84,97,76,damp grey soil
56,53,84,78,52,49,88,78,56,56,88,74,52,51,82,75,52,54,90,72,52,54,79,68,50,53,78,65,50,53,82,65,53,56,74,69,vegetation stubble
71,111,123,100,71,111,123,96,71,107,118,96,63,109,122,96,63,109,122,96,63,109,117,100,63,108,114,94,63,103,114,94,63,103,119,90,red soil
79,99,105,83,83,95,105,83,83,95,101,79,85,102,101,83,82,102,105,83,82,102,114,87,88,111,111,87,88,102,111,83,84,102,106,83,grey soil
48,34,123,133,48,37,118,125,48,40,118,112,46,34,127,129,49,32,127,133,46,32,122,129,46,32,119,135,46,32,119,131,46,34,119,127,cotton crop
67,73,72,57,63,70,72,57,63,73,72,60,67,84,85,65,78,97,97,76,82,102,105,80,88,111,111,91,92,111,111,91,88,102,115,87,grey soil
84,103,109,83,88,103,113,87,88,107,109,87,86,100,108,81,86,104,108,85,90,109,108,85,75,91,93,72,75,84,93,72,75,84,90,68,grey soil
53,84,101,80,50,84,93,76,53,88,97,80,53,85,102,79,57,85,94,79,53,81,90,79,56,83,104,81,56,83,96,81,60,87,96,81,red soil
52,54,86,83,49,45,86,86,49,51,86,83,47,49,82,83,44,43,82,87,50,46,82,83,50,52,82,83,50,52,78,83,50,52,82,79,vegetation stubble
64,87,100,85,60,83,96,81,68,83,96,81,63,95,104,83,63,95,104,83,63,95,104,87,59,87,100,89,63,96,104,89,66,100,108,92,red soil
67,75,77,58,67,79,81,62,71,75,85,62,66,75,76,63,66,79,84,63,66,83,80,63,67,77,82,60,67,73,86,64,71,77,90,64,very damp grey soil
68,81,82,65,72,77,82,61,68,77,78,61,68,79,83,67,68,75,79,63,68,75,75,56,71,79,81,62,67,79,77,58,67,79,77,58,very damp grey soil
82,96,104,81,90,104,108,85,86,104,108,85,75,84,101,79,87,99,105,83,87,103,110,86,57,60,105,94,82,92,101,80,85,102,105,83,grey soil
46,32,130,142,46,32,124,139,46,32,124,139,44,34,119,140,44,34,124,140,44,34,129,140,47,31,131,139,47,34,131,139,44,31,136,139,cotton crop
56,64,91,85,60,64,91,81,60,75,96,78,59,61,89,79,59,61,85,75,59,75,89,79,56,60,88,78,56,60,84,78,52,56,80,74,vegetation stubble
53,69,82,72,53,73,94,76,53,73,90,76,53,71,87,74,53,75,91,78,53,79,96,70,55,75,85,75,55,79,89,79,55,79,96,79,red soil
74,83,88,74,66,71,88,70,59,60,84,70,71,81,93,75,71,77,93,75,63,63,79,72,74,84,85,73,70,84,89,73,67,67,85,73,very damp grey soil
67,77,75,60,67,77,82,60,63,77,82,60,63,71,74,58,63,71,78,62,67,75,78,62,64,73,74,57,64,73,78,61,64,77,78,65,very damp grey soil
46,31,122,132,46,34,122,128,46,34,122,125,44,34,128,129,44,32,128,125,48,29,123,125,46,29,127,133,46,29,122,125,46,32,112,118,cotton crop
71,103,114,98,75,112,119,98,75,108,114,94,70,106,119,94,74,111,114,97,70,111,124,97,68,102,115,94,72,106,115,94,72,106,115,91,red soil
56,79,91,78,60,79,96,85,64,91,100,81,59,83,96,79,63,91,100,83,67,91,109,87,56,79,96,81,59,83,96,81,63,83,100,85,red soil
66,71,80,63,70,79,84,66,70,79,80,70,71,73,79,64,67,73,72,60,63,70,75,57,70,84,85,69,67,75,78,58,63,63,74,58,very damp grey soil
53,54,75,70,53,54,71,63,56,54,71,63,55,54,85,67,55,51,74,67,55,48,70,62,59,60,73,63,59,56,76,66,59,53,76,70,vegetation stubble
88,107,109,83,84,99,109,83,88,103,109,87,86,104,108,85,86,104,108,85,86,100,108,85,83,99,110,83,87,99,105,86,87,103,105,86,grey soil
48,64,85,71,51,72,85,75,51,72,85,75,46,71,84,74,46,67,84,74,49,71,92,74,49,77,93,75,46,66,86,72,49,70,86,75,red soil
53,79,93,73,53,79,93,73,50,79,97,80,57,73,90,76,57,77,98,76,57,81,98,83,56,79,96,78,56,87,104,85,56,87,100,81,red soil
97,121,128,103,88,116,122,96,92,103,108,81,79,111,123,100,79,107,118,92,75,107,113,92,63,96,104,89,66,100,108,92,63,100,117,96,red soil
70,88,89,69,74,84,85,69,74,79,85,69,76,85,86,72,68,85,86,68,72,85,86,72,71,83,87,70,71,83,91,74,76,87,91,70,very damp grey soil
64,85,102,83,60,81,90,76,60,81,90,79,60,87,104,85,60,91,108,85,64,91,113,88,67,95,109,92,71,103,113,92,67,103,113,92,red soil
43,29,122,139,43,29,122,135,43,29,122,128,44,29,128,146,41,27,134,146,41,27,134,137,52,43,104,100,46,29,117,133,43,27,133,151,cotton crop
68,75,79,56,64,75,79,59,68,79,79,59,67,75,77,62,67,72,77,62,67,75,85,62,63,63,88,74,63,60,88,85,59,56,88,85,very damp grey soil
67,103,114,90,67,99,110,86,67,95,105,86,63,97,110,87,63,92,110,87,67,92,110,90,64,98,111,87,64,85,111,87,68,89,115,94,red soil
63,103,119,90,67,99,114,94,63,99,114,94,67,97,114,90,70,106,114,94,67,97,114,87,68,89,102,87,64,98,111,91,68,94,115,91,red soil
46,32,135,142,46,32,130,142,46,32,124,139,44,31,124,143,44,34,119,140,44,34,124,140,47,31,131,139,47,31,131,139,47,34,131,139,cotton crop
60,51,83,74,56,54,83,70,56,57,87,78,51,51,70,50,55,51,67,54,59,58,74,62,52,49,66,44,52,56,69,55,56,60,73,59,vegetation stubble
64,107,118,96,68,112,122,96,68,112,122,99,67,107,118,96,63,107,123,100,63,107,118,100,63,109,122,96,63,100,117,96,66,109,122,100,red soil
88,106,111,91,88,115,120,94,84,111,115,94,88,107,113,92,88,112,122,96,88,116,122,103,88,107,118,96,88,121,123,100,84,111,118,96,grey soil
71,75,87,70,64,61,75,52,60,54,75,59,71,75,81,71,63,61,74,54,59,54,77,54,63,75,80,59,70,75,84,66,63,56,76,55,vegetation stubble
50,36,122,121,46,36,122,125,50,39,122,117,44,34,118,129,44,34,123,129,48,29,118,129,46,32,122,125,46,29,122,129,43,32,122,133,cotton crop
88,107,109,87,88,103,109,87,93,103,109,87,90,109,108,89,86,104,112,85,86,104,104,81,87,103,105,83,92,103,110,83,92,103,110,86,grey soil
46,34,100,107,43,36,104,114,46,34,108,121,44,32,104,112,44,34,109,112,41,37,104,116,59,49,104,107,46,32,108,114,46,32,100,107,cotton crop
75,99,118,96,75,99,118,96,75,99,118,96,70,96,112,92,70,96,117,92,74,91,112,96,63,88,105,83,67,84,105,94,67,88,110,98,vegetation stubble
84,103,113,92,88,103,113,96,88,107,113,92,88,107,118,96,88,107,113,92,88,107,118,92,95,109,117,96,90,109,117,92,86,104,112,89,grey soil
53,79,89,76,53,75,93,73,53,71,85,69,57,77,98,79,57,73,90,72,50,62,78,68,53,71,87,74,53,71,83,74,53,71,87,74,red soil
93,115,124,97,93,120,124,104,82,120,124,101,80,106,106,91,80,111,120,98,76,111,115,94,80,87,96,81,68,83,100,85,71,95,108,88,red soil
46,32,100,107,46,34,104,107,46,32,104,114,46,34,93,105,49,37,97,98,52,40,97,101,53,43,97,101,53,49,93,90,60,56,85,83,cotton crop
67,99,113,96,67,91,104,92,59,75,100,83,66,104,122,96,70,100,117,96,63,83,104,89,71,99,114,98,75,108,124,98,71,99,110,94,red soil
67,75,85,73,70,79,85,73,70,79,85,65,76,85,94,76,72,89,94,72,76,85,86,68,80,99,104,78,84,95,100,78,76,87,91,70,very damp grey soil
59,81,93,79,63,91,101,90,67,103,114,94,60,92,110,90,67,102,114,90,70,106,119,94,64,98,111,91,68,106,115,94,72,106,115,98,red soil
67,108,119,98,67,112,119,98,71,108,119,98,67,111,119,97,67,111,119,101,67,111,119,101,68,111,120,98,68,111,115,98,68,111,115,98,red soil
57,49,115,113,47,31,131,142,44,31,131,142,68,68,100,85,50,39,118,132,43,29,133,143,75,87,93,75,63,58,104,100,48,34,128,137,cotton crop
63,84,93,80,63,79,89,83,67,88,105,87,60,81,94,79,64,81,98,83,64,85,98,83,64,87,104,85,60,83,100,85,64,83,96,81,red soil
79,95,101,83,79,95,97,79,79,91,101,75,82,92,101,76,78,92,97,76,82,92,97,80,84,102,102,79,84,102,102,83,84,98,106,83,damp grey soil
46,32,124,139,46,30,119,131,46,32,114,127,44,37,124,136,47,37,119,133,53,43,114,119,57,55,111,102,60,69,102,87,68,73,78,65,cotton crop
89,111,105,90,89,111,110,90,85,106,110,87,92,111,115,87,88,106,111,87,88,106,111,87,92,103,113,88,88,107,108,92,92,107,108,88,grey soil
43,32,122,129,49,34,122,129,56,49,108,100,52,48,105,105,59,60,97,83,63,66,79,64,67,71,78,58,67,67,67,51,60,67,70,55,cotton crop
56,84,97,83,52,81,93,79,49,73,90,75,53,88,105,83,53,84,101,80,50,84,93,76,57,85,98,83,53,85,102,79,57,85,94,79,red soil
43,32,138,144,46,32,138,144,46,32,138,144,42,34,130,142,46,32,130,142,46,32,135,142,44,34,124,143,44,34,129,143,44,31,124,143,cotton crop
78,92,101,76,82,92,101,80,78,88,93,76,80,89,98,79,84,94,98,76,76,85,90,72,84,95,100,78,80,91,96,81,71,87,91,74,damp grey soil
67,112,124,98,67,108,114,94,67,103,119,90,74,111,114,90,67,106,114,87,63,102,114,87,68,98,111,91,68,102,111,91,64,98,106,87,red soil
44,34,120,120,47,37,120,124,44,37,120,124,43,36,118,121,46,36,118,128,46,34,122,125,48,40,113,112,48,37,113,116,48,34,123,125,cotton crop
74,87,92,78,74,91,100,81,78,96,96,81,75,91,97,79,79,91,97,83,79,91,97,79,74,88,105,83,74,92,101,80,74,84,97,76,damp grey soil
70,75,85,69,70,75,82,69,67,79,82,69,68,73,86,72,68,69,86,76,68,69,86,72,64,68,87,78,64,71,87,74,64,71,87,78,vegetation stubble
85,102,101,80,85,97,101,83,85,102,110,83,88,106,115,87,84,111,115,87,84,102,115,91,88,103,113,92,84,107,113,88,88,112,113,92,grey soil
72,94,86,72,76,94,98,76,76,98,98,76,76,99,104,81,80,99,104,78,76,95,96,78,79,99,100,79,79,95,100,79,75,91,96,75,damp grey soil
84,103,109,83,88,107,113,87,88,107,104,87,86,100,108,85,90,104,112,85,86,104,108,85,83,99,105,83,87,103,105,86,87,95,105,83,grey soil
63,73,79,57,67,81,82,60,67,77,86,60,67,75,82,62,67,75,82,62,67,75,82,58,68,77,78,61,68,77,78,57,68,77,74,57,very damp grey soil
60,83,91,74,60,99,108,88,68,112,118,96,67,91,100,79,71,103,109,87,71,111,113,96,63,87,96,74,63,91,100,78,66,104,108,89,red soil
93,116,123,96,97,116,118,96,93,111,118,92,95,118,117,92,99,113,117,96,99,118,122,96,96,112,114,94,96,117,119,94,96,117,119,94,grey soil
87,99,101,83,87,99,105,79,79,99,101,83,82,97,101,83,85,102,105,83,82,97,105,80,84,98,102,83,84,102,98,83,84,102,102,79,damp grey soil
50,79,89,76,50,71,82,73,47,67,82,65,53,77,94,79,50,73,90,76,50,69,86,72,56,75,91,74,56,68,83,67,53,68,83,70,red soil
68,79,83,63,68,79,79,59,68,75,79,56,67,79,77,62,67,75,81,58,67,75,77,62,66,75,84,63,63,71,88,70,63,63,88,74,very damp grey soil
67,83,77,58,71,75,77,58,71,79,81,58,66,75,76,59,66,75,84,63,66,79,80,59,67,77,75,60,63,73,82,57,63,77,79,60,very damp grey soil
71,83,81,67,71,87,85,71,75,95,96,79,74,79,84,63,70,83,84,66,66,87,84,70,75,84,93,68,75,91,90,75,79,88,93,75,very damp grey soil
64,98,106,87,64,98,111,87,64,85,111,87,64,95,108,85,60,99,104,85,64,91,108,88,63,95,100,83,63,95,104,83,63,95,109,92,vegetation stubble
53,49,78,58,60,60,78,65,67,75,85,73,53,49,74,57,64,69,86,72,76,85,94,76,60,54,75,59,71,79,91,78,80,99,104,78,vegetation stubble
53,81,90,79,53,85,98,83,57,89,106,87,60,87,96,81,56,83,100,81,56,91,104,85,67,95,109,87,63,95,104,83,63,95,113,87,red soil
49,67,88,70,52,67,84,70,52,63,80,70,52,77,93,75,49,73,86,75,52,66,82,72,50,79,93,76,50,79,89,76,50,71,82,73,red soil
44,32,134,137,48,34,128,129,48,37,123,125,46,29,133,140,46,32,127,133,46,32,122,125,46,30,124,135,46,32,124,131,46,34,130,131,cotton crop
80,94,94,72,80,89,90,68,80,89,90,72,71,91,96,74,76,91,96,70,71,79,96,74,67,72,96,83,59,58,104,100,51,45,113,116,damp grey soil
67,112,124,98,67,112,124,98,63,112,124,98,67,111,119,97,63,111,124,97,63,120,124,101,68,115,120,98,64,115,125,98,64,115,125,102,red soil
66,71,69,55,66,71,73,55,66,71,76,55,67,73,68,57,67,73,72,57,63,70,72,57,67,75,78,62,67,84,85,65,78,97,97,76,very damp grey soil
82,100,104,78,78,100,104,81,82,104,104,85,79,103,110,83,79,99,105,83,83,103,114,86,78,102,110,83,78,102,110,83,82,102,105,83,grey soil
71,79,77,67,71,75,81,67,67,72,81,67,74,75,88,66,70,79,88,66,70,75,76,66,71,81,86,68,71,77,82,64,71,81,82,68,very damp grey soil
63,96,112,92,66,100,112,92,66,96,112,92,59,91,105,86,59,95,105,90,63,95,101,86,60,88,105,87,60,97,101,83,57,106,110,90,red soil
63,95,110,90,63,91,105,90,59,91,105,86,60,102,114,90,57,92,110,87,57,88,101,87,57,89,106,83,57,81,94,79,57,81,90,76,red soil
53,75,96,78,53,71,87,74,53,71,87,74,48,79,93,79,55,79,93,79,55,79,93,75,52,75,92,78,52,75,92,78,52,75,88,78,red soil
70,79,80,63,66,75,80,63,70,79,80,59,75,88,93,68,75,81,86,64,71,81,82,60,82,97,105,83,78,88,93,73,78,84,93,69,very damp grey soil
53,64,79,74,50,68,83,70,53,64,79,74,51,68,77,71,51,64,77,71,48,61,74,67,49,67,88,70,52,67,84,70,52,63,80,70,red soil
71,111,118,100,75,111,118,100,71,107,118,96,70,113,117,96,74,113,117,96,74,113,122,100,67,108,119,98,71,108,114,98,71,112,119,98,red soil
59,91,104,87,55,87,104,87,55,91,104,87,59,96,112,89,52,87,108,85,56,87,100,85,59,95,110,86,56,84,101,83,56,84,105,86,red soil
56,54,79,63,56,54,79,63,56,51,67,52,55,45,70,54,55,51,77,67,55,54,77,62,56,46,69,52,56,49,69,55,56,53,73,63,vegetation stubble
60,71,71,56,64,71,71,56,60,71,75,56,63,68,70,54,67,68,70,54,67,68,70,54,66,75,80,59,66,75,73,55,63,71,73,55,very damp grey soil
84,99,104,81,76,99,104,81,76,99,108,85,84,99,104,79,84,103,104,79,79,107,109,87,82,100,108,85,82,100,108,81,82,100,104,78,grey soil
64,73,71,57,68,69,74,57,64,73,74,54,64,75,75,56,68,71,75,56,64,71,75,56,63,68,70,58,63,72,70,58,67,72,67,54,very damp grey soil
71,75,74,58,67,75,77,58,67,75,81,62,70,75,76,59,63,75,80,59,63,75,76,63,67,77,82,64,67,70,90,64,67,73,82,64,very damp grey soil
88,103,109,87,88,111,109,87,93,107,113,92,86,104,108,89,86,109,104,85,86,109,112,85,87,103,105,86,87,103,114,86,87,108,119,90,grey soil
63,58,104,100,48,34,128,137,44,32,128,141,82,100,100,85,78,87,92,78,63,56,104,96,92,103,114,86,92,103,105,83,75,81,93,79,cotton crop
64,69,98,87,68,77,90,79,64,73,98,83,68,79,100,81,68,75,96,78,64,75,87,78,63,68,89,71,67,75,77,62,67,72,77,58,cotton crop
71,81,86,68,75,81,86,68,63,63,79,57,78,92,101,80,78,92,97,76,67,71,78,62,80,94,102,79,76,85,90,68,68,77,90,68,very damp grey soil
84,94,102,79,84,98,98,79,84,94,102,79,88,99,104,85,84,99,100,81,84,99,104,85,84,99,100,79,84,103,104,83,88,103,113,87,grey soil
50,71,87,70,50,71,87,74,50,75,91,74,51,72,85,75,51,72,85,75,48,72,89,75,46,67,84,74,49,71,92,74,49,71,84,78,red soil
68,106,115,91,68,102,115,91,64,89,102,79,71,103,113,92,68,107,118,92,64,99,104,85,71,107,118,96,71,107,118,96,63,107,113,92,red soil
63,71,78,58,63,67,74,62,63,75,74,62,64,69,74,57,68,69,74,57,64,73,74,57,68,75,75,59,68,71,75,59,68,75,75,59,very damp grey soil
71,107,118,96,71,107,109,92,67,91,104,87,70,109,122,100,70,113,122,100,70,113,117,100,67,103,119,90,67,103,114,90,67,99,110,86,red soil
83,103,105,83,87,99,105,83,87,99,101,83,82,102,105,83,82,97,105,83,82,97,101,83,76,94,102,79,84,98,102,83,84,98,102,83,damp grey soil
50,75,97,76,50,71,93,76,47,67,89,73,50,66,82,72,53,69,86,72,50,66,82,76,53,64,79,74,50,68,83,70,53,64,79,74,red soil
75,84,93,72,75,84,90,68,67,73,79,60,67,71,78,58,67,75,82,62,67,71,74,58,60,62,67,50,60,62,67,54,64,69,74,61,very damp grey soil
56,84,97,79,59,88,101,86,59,91,105,86,57,88,105,83,60,92,105,87,60,88,105,87,60,98,111,87,60,94,98,83,57,85,98,87,red soil
70,75,104,85,74,87,92,78,74,91,100,81,67,77,110,90,75,91,97,79,79,91,97,83,67,75,105,90,74,88,105,83,74,92,101,80,damp grey soil
76,85,86,68,72,85,86,72,72,94,98,76,76,87,91,70,76,91,96,74,76,99,104,85,75,87,89,75,79,91,96,75,84,103,109,83,very damp grey soil
48,37,118,121,48,34,118,121,48,34,118,125,46,32,117,125,46,32,117,122,46,32,122,122,46,34,124,131,46,32,124,139,46,30,119,131,cotton crop
68,75,83,81,64,68,83,74,60,61,75,70,79,91,96,75,75,79,89,75,59,64,77,71,82,91,96,81,82,91,100,78,74,83,92,74,vegetation stubble
92,107,113,88,92,107,118,92,97,112,122,88,93,111,109,87,97,111,109,87,97,111,113,87,99,113,122,96,95,109,117,89,95,109,117,89,grey soil
89,106,114,87,89,106,114,90,85,102,110,87,84,106,111,87,88,106,115,87,92,106,111,87,88,112,113,85,84,99,108,85,84,103,113,88,grey soil
75,87,89,67,71,87,89,67,75,83,89,67,74,87,92,66,74,83,88,66,70,83,84,70,67,73,82,60,67,73,79,57,63,73,72,57,damp grey soil
84,95,100,78,80,91,96,74,80,87,91,78,79,95,93,75,79,91,96,75,75,91,89,75,82,96,96,78,78,91,96,74,78,87,92,70,damp grey soil
92,107,118,88,88,103,104,85,84,99,104,81,84,99,109,79,79,95,100,79,84,103,109,79,86,104,104,85,86,104,104,81,86,100,108,85,damp grey soil
53,60,93,80,47,49,82,83,44,43,82,87,53,62,86,83,50,52,82,83,50,52,78,83,56,71,96,85,56,68,91,81,56,64,91,81,vegetation stubble
68,69,86,72,68,73,86,72,72,81,86,72,64,71,87,78,68,71,87,74,68,75,87,74,67,68,89,75,67,72,85,71,67,72,81,67,vegetation stubble
68,79,79,59,68,75,75,56,68,71,75,59,67,75,85,62,67,75,81,58,67,72,77,58,59,56,88,85,59,60,100,81,66,71,88,70,very damp grey soil
71,83,83,67,80,87,91,74,76,91,96,74,75,83,89,67,71,79,89,71,71,87,89,71,70,83,88,66,70,79,92,66,70,87,88,70,very damp grey soil
92,115,120,94,84,102,106,79,84,102,102,83,101,126,133,103,92,112,118,85,84,103,104,81,102,126,134,104,88,121,128,100,84,107,113,87,grey soil
85,97,101,83,85,102,110,83,85,111,114,87,84,111,115,87,84,102,115,91,88,111,120,94,84,107,113,88,88,112,113,92,92,112,118,92,grey soil
76,85,90,68,64,77,78,61,60,69,67,54,60,57,60,45,53,54,53,38,53,54,53,34,55,51,50,29,55,54,57,37,59,54,63,42,vegetation stubble
46,31,128,135,46,31,128,135,46,31,133,143,44,37,134,137,44,32,139,141,44,34,139,146,63,56,108,103,46,34,127,144,43,32,133,144,cotton crop
70,79,88,74,70,75,88,74,63,67,88,78,71,84,93,75,75,88,93,75,75,77,86,68,74,88,97,76,74,79,89,73,67,79,85,65,damp grey soil
67,84,85,69,70,88,93,73,74,88,89,73,72,81,86,68,80,98,106,83,88,106,111,87,68,75,79,59,76,87,91,78,88,103,113,85,very damp grey soil
60,64,100,99,53,51,104,114,50,36,113,128,67,87,100,83,63,79,100,87,59,68,96,92,70,100,112,92,70,100,108,89,66,79,96,85,red soil
90,104,112,85,86,104,108,85,86,104,108,85,87,103,105,86,87,95,105,83,83,99,110,83,82,102,110,83,85,102,110,83,85,97,105,83,grey soil
59,95,110,90,59,99,114,90,59,99,114,90,57,88,105,83,60,88,110,83,57,92,110,87,53,85,94,76,57,85,98,83,60,94,106,87,red soil
71,79,85,62,79,87,89,71,75,87,89,71,70,75,76,63,70,75,76,63,70,79,84,66,67,77,79,64,71,77,75,64,71,77,82,68,very damp grey soil
88,111,115,91,92,115,115,94,92,106,111,87,92,112,118,88,88,99,104,88,80,99,104,81,88,107,109,87,84,99,104,79,84,99,104,79,grey soil
88,95,108,81,80,99,104,81,84,95,96,78,84,99,104,79,84,95,96,75,84,91,96,75,90,104,104,85,82,96,96,81,82,96,100,78,damp grey soil
70,75,73,59,63,67,66,55,63,67,66,55,67,73,82,64,67,70,72,57,59,66,65,60,63,71,82,65,67,75,82,69,60,71,74,58,very damp grey soil
82,100,104,85,78,91,92,74,66,67,66,41,79,99,105,83,75,91,97,68,63,66,68,34,78,97,105,83,78,88,89,69,60,63,67,41,grey soil
90,113,122,96,95,109,112,89,95,109,117,85,101,112,124,94,96,112,114,90,92,112,114,94,93,111,114,94,97,115,119,94,97,115,124,94,grey soil
79,99,105,86,75,99,110,90,67,99,114,90,74,97,105,94,67,97,110,94,57,97,110,94,64,98,111,91,57,94,111,91,53,85,102,83,red soil
63,68,85,67,71,91,93,75,75,91,89,71,56,53,73,66,70,79,84,66,78,83,88,70,56,54,75,64,67,73,82,64,75,84,90,68,very damp grey soil
60,63,82,69,60,56,78,69,60,60,93,80,60,66,98,83,64,69,98,87,72,81,102,87,71,87,100,81,80,99,108,88,84,107,118,96,vegetation stubble
88,98,106,83,84,102,106,83,88,111,111,87,84,103,108,81,88,99,104,85,84,103,108,85,84,99,104,87,79,99,100,79,88,95,100,79,grey soil
64,116,128,103,64,112,128,103,64,116,122,99,67,111,123,100,67,111,123,100,67,116,123,100,66,109,122,100,66,113,122,100,66,113,127,100,red soil
64,95,108,85,60,99,104,85,64,91,108,88,63,95,100,83,63,95,104,83,63,95,109,92,56,71,104,89,59,87,100,81,66,91,112,89,vegetation stubble
84,99,109,83,84,103,104,83,88,99,100,79,86,100,104,81,82,96,100,81,82,100,108,81,87,99,105,83,87,95,97,83,83,99,101,79,grey soil
75,95,113,96,79,99,109,83,71,75,93,79,66,83,117,100,70,87,112,100,82,91,108,85,75,91,110,94,79,91,119,98,79,99,110,86,vegetation stubble
59,60,110,98,49,45,119,116,46,37,119,127,42,37,119,129,44,34,124,136,44,34,124,136,44,34,131,131,44,34,120,135,44,31,120,139,cotton crop
56,91,104,85,56,91,108,85,56,91,104,85,59,91,104,87,55,87,104,87,55,91,104,87,59,96,112,89,52,87,108,85,56,87,100,85,red soil
79,95,101,79,83,95,101,79,83,95,105,83,85,97,97,80,85,106,105,80,93,111,114,90,88,106,106,87,92,115,115,94,92,120,125,98,grey soil
79,99,105,83,83,99,105,83,79,99,105,83,82,97,105,87,82,97,105,83,78,97,105,83,84,98,111,87,84,102,111,87,84,98,106,83,grey soil
70,113,122,103,66,109,122,96,63,96,104,89,63,112,124,98,67,108,119,98,63,99,110,94,67,111,124,97,67,106,124,94,67,111,114,101,red soil
44,40,105,111,47,46,105,104,53,49,101,101,60,59,98,91,64,69,98,87,68,77,90,79,71,83,100,78,68,79,100,81,68,75,96,78,cotton crop
44,31,125,139,44,31,125,139,47,34,125,135,43,31,128,135,43,29,128,132,46,31,118,125,44,34,123,129,44,32,118,125,44,34,118,121,cotton crop
82,92,101,76,78,88,93,73,78,84,85,65,76,81,90,65,72,77,78,65,72,81,78,65,68,79,83,67,71,75,83,67,71,79,87,70,very damp grey soil
57,59,98,87,57,55,94,87,57,55,90,83,56,54,83,70,56,57,87,78,60,57,87,78,55,51,67,54,59,58,74,62,59,58,81,71,vegetation stubble
90,109,117,96,90,118,122,96,90,113,117,96,92,108,114,94,92,112,114,90,92,108,114,90,93,111,114,87,89,106,114,87,85,106,110,83,grey soil
71,111,128,96,71,107,123,96,71,103,118,96,74,113,122,100,70,113,122,96,70,109,122,100,67,108,124,98,75,112,124,101,71,112,124,101,red soil
68,69,86,76,68,69,86,72,68,73,86,72,64,71,87,74,64,71,87,78,68,71,87,74,67,68,89,79,67,68,89,75,67,72,85,71,vegetation stubble
63,71,74,55,63,71,74,55,67,71,78,58,72,85,86,65,80,89,94,72,80,89,94,76,92,107,108,85,84,103,113,81,84,99,104,85,very damp grey soil
79,88,93,72,75,91,97,72,75,88,90,72,78,92,93,73,82,88,97,69,74,88,93,73,80,94,94,76,80,94,94,72,80,89,94,72,damp grey soil
89,102,105,87,85,102,110,87,85,102,110,94,84,102,106,91,88,106,111,91,88,106,111,98,84,99,113,88,84,99,108,92,84,107,113,96,grey soil
78,102,105,83,82,106,105,87,82,97,105,87,84,98,106,83,80,98,102,83,80,98,98,79,76,87,96,70,68,79,83,67,68,79,83,67,grey soil
88,99,108,85,84,103,108,85,88,103,113,85,88,103,113,87,88,103,109,87,84,99,104,79,82,96,100,78,70,79,84,66,70,75,76,63,grey soil
78,84,93,69,74,84,89,69,74,88,93,76,72,81,94,72,64,69,102,83,57,49,111,109,56,54,104,92,53,45,113,114,46,34,133,146,cotton crop
66,75,80,63,70,79,76,63,70,79,84,66,67,84,90,64,67,81,82,64,67,81,82,64,70,88,93,73,74,88,89,73,78,92,97,80,very damp grey soil
66,75,80,63,70,79,84,70,70,79,84,66,63,70,75,64,67,73,79,64,63,66,75,60,63,63,74,62,63,60,70,62,60,60,70,65,very damp grey soil
88,107,118,92,88,112,113,88,88,103,113,88,88,107,113,87,88,107,104,87,88,107,109,83,90,104,112,85,86,104,108,85,86,104,108,85,grey soil
80,87,96,70,80,91,96,70,80,91,96,74,79,91,96,71,79,91,96,75,79,87,93,71,74,87,92,70,78,87,96,70,78,87,96,70,damp grey soil
70,83,84,66,66,87,84,70,74,91,100,78,75,91,90,75,79,88,93,75,75,88,97,72,78,92,101,83,82,97,101,83,82,92,101,76,very damp grey soil
90,109,108,89,86,104,112,85,86,104,104,81,87,103,105,83,92,103,110,83,92,103,110,86,89,106,114,90,93,106,105,90,89,111,110,83,grey soil
56,56,88,74,56,53,84,74,56,53,84,78,49,54,86,75,52,54,79,75,52,51,82,75,50,53,78,69,53,53,74,69,50,53,78,65,vegetation stubble
96,108,119,94,92,108,124,90,92,99,105,86,93,111,119,97,93,111,114,94,85,102,105,83,92,111,115,94,92,102,115,87,88,98,106,79,grey soil
74,91,100,78,78,96,104,81,82,100,104,81,75,88,97,72,75,91,101,79,79,99,105,83,82,92,101,76,78,92,105,80,82,97,105,87,very damp grey soil
51,64,77,71,48,61,74,67,51,61,77,71,52,67,84,70,52,63,80,70,49,63,76,66,49,73,86,75,52,66,82,72,52,70,82,72,red soil
60,88,105,87,60,97,101,83,57,106,110,90,57,85,98,87,57,94,111,87,60,102,111,94,56,91,104,85,56,95,108,88,60,95,113,92,red soil
79,95,100,75,75,87,93,71,75,83,85,71,86,100,112,85,86,100,112,85,82,96,100,81,83,103,105,79,83,103,105,83,87,103,105,83,grey soil
67,99,114,94,63,99,114,94,63,103,114,90,70,106,114,94,67,97,114,87,63,97,114,90,64,98,111,91,68,94,115,91,60,89,102,83,red soil
59,54,77,54,71,79,93,75,84,99,109,83,63,56,76,55,63,60,80,59,78,83,100,78,63,63,79,57,63,70,86,72,79,91,101,83,vegetation stubble
84,95,100,79,79,95,93,75,79,91,96,75,86,100,100,81,82,96,96,78,78,91,96,74,87,99,105,79,79,99,101,83,79,95,101,75,damp grey soil
85,102,110,83,85,111,114,87,89,106,114,87,84,102,115,91,88,111,120,94,88,111,120,91,88,112,113,92,92,112,118,92,88,103,113,85,grey soil
88,102,111,87,84,106,111,91,88,111,115,91,84,112,113,88,88,107,113,88,92,112,113,88,84,111,118,92,93,111,113,92,93,111,113,92,grey soil
86,104,112,85,86,104,108,89,86,104,108,89,83,99,110,86,87,103,105,86,83,103,110,90,89,106,105,87,85,106,110,87,89,111,105,90,grey soil
68,73,78,61,68,77,82,61,68,77,74,61,64,75,75,59,68,75,79,63,68,79,79,59,67,72,74,58,67,72,74,58,71,72,85,62,very damp grey soil
76,81,86,72,72,81,90,72,72,77,90,72,80,87,100,74,71,75,87,74,64,71,87,78,79,91,96,75,71,75,93,79,67,68,93,79,vegetation stubble
67,73,82,72,71,84,86,75,75,81,90,68,60,60,78,65,67,75,85,73,70,79,85,73,64,69,86,72,76,85,94,76,72,89,94,72,very damp grey soil
74,84,85,73,70,84,93,65,70,84,85,65,76,89,94,72,72,85,86,68,72,85,90,68,71,87,91,70,71,91,87,70,76,83,91,70,damp grey soil
59,73,93,75,63,81,93,83,63,91,101,86,63,79,89,83,67,88,105,87,67,92,101,90,64,81,98,83,64,85,98,83,64,85,102,83,red soil
52,66,82,68,56,70,82,72,56,84,97,79,53,71,82,73,53,75,89,76,53,79,93,73,53,73,90,76,53,73,90,79,57,73,90,76,red soil
64,66,67,54,64,69,71,54,68,69,78,54,64,68,71,52,64,71,67,59,68,71,75,59,67,72,77,54,67,72,77,54,67,72,74,54,very damp grey soil
64,98,111,91,68,98,111,91,68,102,111,91,53,75,104,92,64,95,108,88,64,99,113,88,48,34,113,125,51,58,113,104,59,87,104,83,red soil
68,75,79,59,60,75,79,59,64,79,79,59,71,75,74,58,67,75,77,58,67,75,81,62,70,75,76,59,63,75,80,59,63,75,76,63,very damp grey soil
84,98,106,83,88,98,106,87,88,106,106,87,88,103,108,81,88,103,108,88,88,107,113,88,88,111,109,87,88,107,109,87,88,107,109,92,grey soil
99,118,117,96,95,113,112,92,90,109,112,89,87,103,105,86,92,108,114,90,92,112,119,90,85,102,105,83,97,115,124,101,93,120,124,97,grey soil
70,104,112,96,70,104,112,96,70,100,112,92,75,108,114,94,71,108,114,94,75,108,119,98,70,111,124,97,70,106,114,94,74,106,114,97,red soil
93,111,114,90,93,115,114,94,93,111,114,94,92,120,125,98,92,115,115,87,84,102,102,79,97,116,122,96,92,103,113,88,84,95,96,74,grey soil
47,34,115,124,44,34,115,120,47,40,115,116,50,36,118,121,50,36,122,121,46,36,122,125,48,34,118,125,44,34,118,129,44,34,123,129,cotton crop
63,81,101,86,71,95,119,94,67,88,105,86,78,92,110,94,78,97,114,97,70,92,110,83,88,115,131,102,88,111,120,94,76,89,102,76,red soil
60,99,113,92,64,103,118,92,64,107,113,96,63,99,113,92,59,99,113,92,59,103,118,92,59,96,104,81,63,91,108,89,63,100,104,89,red soil
63,66,75,60,63,63,72,57,63,60,72,60,60,60,70,65,53,53,82,83,50,43,97,101,47,34,111,116,44,29,115,124,44,29,106,113,cotton crop
67,73,82,64,75,84,90,68,75,88,97,75,67,67,78,65,70,79,89,65,74,88,93,73,64,66,78,65,72,81,86,68,76,89,94,76,very damp grey soil
60,60,93,83,60,60,93,87,57,56,93,90,60,59,98,87,57,59,98,87,57,55,94,87,60,51,83,74,56,54,83,70,56,57,87,78,vegetation stubble
53,73,90,76,57,77,94,79,60,81,98,79,56,75,96,74,60,79,91,81,64,87,100,85,59,79,93,79,63,87,100,83,63,95,104,83,red soil
63,72,74,58,67,75,74,58,71,75,77,54,63,71,76,59,63,71,76,59,63,75,80,59,63,70,72,57,63,73,75,57,63,73,79,57,very damp grey soil
56,51,62,45,56,54,65,45,56,51,65,49,53,53,67,48,57,56,63,51,53,56,67,48,53,52,71,50,53,49,71,50,53,52,71,50,vegetation stubble
55,51,81,71,59,61,81,67,67,79,85,62,52,49,88,78,56,56,88,74,56,63,84,66,52,54,90,72,52,54,79,68,52,57,79,64,vegetation stubble
82,102,105,83,82,97,105,83,82,97,101,83,76,94,102,79,84,98,102,83,84,98,102,83,68,83,87,70,80,91,91,81,84,95,100,78,damp grey soil
50,71,89,76,50,67,93,76,50,75,97,80,50,73,90,76,50,73,94,79,53,81,102,83,50,79,96,78,46,79,96,78,50,79,96,81,red soil
52,77,90,75,52,84,105,86,52,81,101,79,50,79,101,76,50,75,97,76,50,71,93,76,50,73,94,76,50,66,82,72,53,69,86,72,red soil
70,100,117,92,66,109,122,92,70,109,122,96,63,103,114,94,67,103,124,94,67,108,114,98,63,111,119,97,67,111,119,94,67,106,119,97,red soil
93,116,123,96,88,111,118,92,88,111,113,92,90,118,122,96,90,109,117,89,86,109,112,92,96,117,119,94,92,112,119,90,92,112,114,94,grey soil
78,84,89,69,78,88,89,69,78,88,89,73,76,89,86,68,80,85,86,68,76,85,90,68,76,87,91,70,76,87,87,70,76,87,91,63,damp grey soil
71,111,123,96,71,107,123,96,67,107,113,96,66,113,117,92,66,109,122,96,66,109,117,96,67,108,119,98,67,112,119,98,71,108,119,98,red soil
68,106,120,94,72,111,120,94,64,106,115,94,68,103,118,92,64,103,122,92,71,107,122,96,71,99,118,96,67,103,118,96,67,107,113,96,red soil
68,75,75,56,68,71,75,59,68,75,75,59,67,75,81,58,67,72,77,58,67,75,77,62,59,60,100,81,66,71,88,70,70,79,76,59,very damp grey soil
85,102,110,87,85,106,114,87,89,97,105,83,92,106,111,87,92,106,111,87,88,102,106,83,84,103,113,88,88,107,113,85,88,103,108,85,grey soil
60,71,85,69,60,63,82,69,60,56,78,69,60,69,86,76,60,66,98,83,64,69,98,87,64,75,91,78,71,87,100,81,80,99,108,88,vegetation stubble
68,115,120,102,64,106,111,91,64,94,102,83,68,116,128,103,68,112,128,96,64,103,113,88,71,111,128,100,71,116,123,100,71,107,118,96,red soil
42,32,135,139,42,32,130,135,46,32,124,139,44,34,129,140,44,31,124,140,44,34,119,136,47,34,136,139,47,31,125,139,47,31,125,135,cotton crop
75,91,101,83,87,103,114,90,92,108,114,98,78,88,97,83,89,106,114,94,85,106,114,94,76,89,102,87,84,106,111,94,76,102,111,91,grey soil
90,109,108,89,86,104,108,85,74,91,92,74,75,84,90,68,75,77,82,57,67,73,75,49,67,71,74,55,67,67,70,48,63,67,70,51,very damp grey soil
68,79,83,63,68,79,79,67,64,83,83,67,71,83,85,62,71,87,85,67,71,79,85,67,66,79,84,63,66,79,84,63,66,79,84,63,very damp grey soil
59,99,114,90,59,95,110,86,56,84,101,83,63,102,114,90,63,106,114,90,60,92,105,87,64,98,115,91,68,106,115,94,64,98,111,91,red soil
72,111,111,98,68,102,106,87,68,89,102,79,71,112,122,96,76,112,118,96,68,99,113,85,71,111,118,100,75,111,118,100,71,107,118,96,red soil
82,100,104,81,82,100,104,81,78,91,96,74,83,103,105,83,83,99,105,83,79,91,93,72,85,102,101,83,85,102,110,80,82,88,101,76,damp grey soil
56,79,96,74,56,83,104,85,63,91,108,89,56,84,97,79,59,91,101,86,59,91,101,86,53,79,93,73,53,79,93,73,50,79,97,80,red soil
74,84,85,65,74,88,93,69,78,92,93,73,76,85,90,68,76,85,90,68,76,94,94,72,71,87,91,70,76,83,91,67,80,87,91,70,damp grey soil
63,83,96,78,66,91,104,81,74,100,108,92,63,84,86,79,67,99,105,86,75,112,119,101,63,88,101,76,70,102,114,94,74,115,119,101,red soil
75,91,97,79,79,95,101,79,75,88,97,79,70,84,85,69,78,88,93,76,74,79,89,73,64,73,78,57,68,81,78,68,72,81,90,76,damp grey soil
84,99,104,81,84,99,100,81,80,91,96,78,84,99,104,79,79,95,100,79,79,99,100,83,82,96,104,78,82,96,100,81,86,96,104,81,grey soil
97,111,109,87,97,111,113,87,93,107,113,92,95,109,117,89,95,109,117,89,90,113,112,92,92,108,105,86,87,99,105,83,83,95,97,79,grey soil
67,79,85,65,67,79,82,65,67,75,78,62,72,81,82,61,68,77,74,61,68,77,74,61,76,87,96,70,71,79,83,59,68,79,79,63,very damp grey soil
68,75,75,56,71,75,75,56,68,75,75,59,67,75,77,58,67,72,77,58,67,72,81,58,70,79,80,63,66,75,80,63,70,79,80,59,very damp grey soil
93,111,114,90,97,115,114,94,97,111,114,94,88,111,115,94,97,120,120,98,97,120,120,94,84,103,108,85,92,112,122,92,92,112,118,92,grey soil
44,31,120,131,44,31,120,128,44,34,115,124,46,34,122,128,46,34,122,125,46,36,122,121,44,32,128,125,48,29,123,125,44,32,113,121,cotton crop
71,87,89,67,67,79,85,67,67,79,81,62,70,79,88,63,74,87,88,70,70,83,84,66,63,73,75,57,67,84,79,68,71,91,90,72,very damp grey soil
42,32,130,135,42,32,124,139,42,32,135,139,44,34,124,133,44,34,124,136,44,34,129,140,47,31,131,135,44,34,131,139,47,34,136,139,cotton crop
68,112,128,96,64,103,113,88,60,91,104,81,71,116,123,100,71,107,118,96,67,99,109,83,70,113,122,100,70,118,127,100,70,113,122,96,red soil
75,87,89,75,79,91,96,75,79,95,100,79,74,79,88,74,74,87,96,70,78,91,100,78,71,84,86,75,75,81,90,68,75,81,93,68,very damp grey soil
70,79,76,59,70,79,80,63,70,75,80,59,71,81,82,60,67,77,86,64,67,77,82,60,67,79,78,62,67,79,82,62,63,71,78,62,very damp grey soil
76,89,98,79,68,77,94,79,60,62,78,76,71,75,87,78,60,54,87,74,56,61,87,78,79,91,104,79,75,79,96,79,75,83,96,79,vegetation stubble
88,107,113,88,88,107,118,88,88,103,118,85,84,103,109,83,88,103,113,87,88,107,109,87,86,100,108,81,86,104,108,85,90,109,108,85,grey soil
59,66,72,57,63,73,75,64,67,70,72,60,63,67,74,58,67,71,78,62,67,75,78,65,57,59,78,61,60,62,82,65,60,62,78,68,very damp grey soil
64,77,94,76,60,77,94,76,57,81,90,76,64,79,96,81,60,83,100,81,60,83,96,85,63,75,96,83,67,83,104,87,59,83,100,83,red soil
67,73,72,57,63,70,72,57,63,70,68,57,67,79,78,58,67,71,74,58,67,75,78,62,64,69,78,61,68,73,78,61,68,77,82,61,very damp grey soil
84,102,102,83,84,102,102,79,72,81,90,65,76,91,87,70,71,79,87,70,68,75,87,67,67,72,85,67,63,58,81,67,63,68,85,67,vegetation stubble
53,79,89,76,57,79,93,80,57,88,101,83,57,77,90,76,53,77,90,76,53,77,94,79,60,87,104,85,60,83,100,85,56,79,91,78,red soil
64,73,74,57,64,73,74,57,64,69,71,57,64,71,75,59,64,71,67,56,68,71,71,59,67,72,74,54,67,72,74,54,67,72,74,58,very damp grey soil
76,85,90,68,76,94,94,72,76,94,94,68,76,83,91,67,80,87,91,70,80,95,91,74,79,91,93,71,79,91,96,71,75,91,93,71,damp grey soil
92,103,110,86,87,108,114,86,87,103,114,90,97,115,119,97,89,120,124,97,93,115,124,101,92,120,125,98,88,120,125,98,88,125,131,102,grey soil
46,36,118,128,46,34,122,125,50,34,118,125,48,37,113,116,48,34,123,125,48,37,118,125,46,37,117,114,49,34,112,118,52,34,117,122,cotton crop
68,98,111,91,64,98,106,91,64,94,111,91,68,103,113,88,68,103,118,92,68,107,113,92,71,103,113,92,71,107,118,92,71,107,113,96,red soil
46,36,118,125,46,34,118,121,43,36,118,121,48,34,118,112,51,37,118,112,48,40,113,112,46,34,112,114,46,34,112,111,49,34,112,111,cotton crop
76,98,102,72,76,94,90,76,76,89,94,76,76,95,100,78,76,91,100,74,76,87,100,74,79,87,93,71,79,87,93,67,75,87,96,71,damp grey soil
84,99,104,85,84,103,113,88,88,107,118,88,79,95,100,79,88,107,109,87,88,111,109,92,52,49,112,107,74,79,100,81,86,100,108,85,grey soil
44,37,118,129,44,32,113,125,44,32,118,129,52,53,108,114,49,40,112,125,46,34,112,133,49,45,110,124,46,32,119,135,46,30,119,139,cotton crop
82,96,100,81,82,91,92,78,78,83,96,74,83,91,101,79,79,95,93,75,79,95,93,75,78,88,93,76,78,92,93,76,78,88,97,80,damp grey soil
68,68,75,56,64,68,71,52,64,71,67,59,67,72,74,54,67,72,77,54,67,72,77,54,66,75,73,59,66,75,76,59,66,75,76,59,very damp grey soil
76,89,98,76,80,89,94,79,80,89,98,79,80,103,96,81,84,95,100,78,84,95,100,78,84,99,100,79,84,95,104,79,79,95,96,79,damp grey soil
59,54,79,60,56,54,79,64,59,57,82,68,60,60,93,80,63,63,97,90,67,75,101,87,72,81,102,87,80,94,111,91,84,106,111,91,vegetation stubble
74,92,114,94,74,92,110,94,70,88,114,97,64,85,102,91,64,77,106,98,68,69,111,98,64,68,104,88,64,64,108,92,60,61,108,99,vegetation stubble
71,77,86,68,71,81,82,60,67,77,75,57,70,79,82,62,70,79,85,62,70,84,82,58,72,81,86,65,68,81,82,65,68,81,82,65,very damp grey soil
64,75,79,59,64,75,79,63,68,75,79,59,71,79,77,58,67,79,77,62,67,75,77,62,66,75,76,63,66,79,80,63,66,79,88,63,very damp grey soil
67,108,135,98,67,112,130,98,67,112,119,98,67,111,124,101,63,115,124,101,67,115,129,104,60,111,120,98,64,111,115,102,68,115,125,102,red soil
74,84,89,73,70,84,97,80,70,75,93,76,76,85,90,76,72,81,90,76,72,81,98,79,80,91,100,78,80,91,96,78,80,99,100,88,very damp grey soil
44,29,100,100,44,32,104,104,44,34,104,104,49,40,92,92,43,32,104,107,43,29,104,107,49,40,97,101,46,32,110,113,39,30,101,113,cotton crop
90,104,112,85,90,109,117,85,90,109,117,92,96,112,114,94,92,117,124,98,92,117,119,94,93,115,114,90,89,111,114,94,89,111,110,90,grey soil
79,91,97,83,79,91,97,79,75,88,93,75,74,92,101,80,74,84,97,76,74,88,93,76,76,89,98,79,72,89,98,79,76,85,98,79,damp grey soil
63,95,100,83,63,95,104,83,63,95,109,92,56,71,104,89,59,87,100,81,66,91,112,89,46,34,110,124,49,51,101,101,56,73,97,79,vegetation stubble
51,72,89,75,51,68,85,71,51,75,93,79,52,71,84,78,56,75,92,74,56,79,92,78,52,73,90,75,56,84,97,79,56,81,97,79,red soil
50,34,118,125,50,36,118,128,53,51,113,103,48,37,118,125,48,34,123,125,48,37,118,121,52,34,117,122,49,34,122,118,49,34,117,122,cotton crop
68,79,83,63,68,79,83,63,68,79,79,59,67,79,81,62,67,79,77,62,67,75,81,58,66,75,84,63,66,75,84,63,63,71,88,70,very damp grey soil
72,111,120,98,72,111,111,98,68,102,106,87,71,112,128,99,71,112,122,96,76,112,118,96,71,111,118,96,71,111,118,100,75,111,118,100,red soil
63,75,80,59,66,75,80,59,66,79,76,59,63,73,79,57,67,81,82,60,67,77,86,60,67,75,82,62,67,75,82,62,67,75,82,58,very damp grey soil
80,87,91,74,76,91,96,74,76,91,96,74,71,79,89,71,71,87,89,71,75,83,89,71,70,79,92,66,70,87,88,70,66,83,88,70,very damp grey soil
49,54,68,53,56,60,75,64,52,57,75,68,50,53,74,58,50,53,82,69,53,53,82,76,53,55,78,68,53,52,82,72,53,52,82,68,vegetation stubble
56,54,71,63,56,51,67,63,53,51,67,67,55,48,70,62,51,48,70,67,51,48,70,67,59,53,76,70,56,49,73,70,49,40,69,66,vegetation stubble
59,53,66,44,59,56,62,44,59,53,62,44,56,51,68,53,56,54,72,49,56,51,62,45,53,53,74,62,53,53,70,58,53,53,67,48,vegetation stubble
87,112,114,94,92,117,124,101,92,117,130,101,93,120,119,97,93,115,124,97,93,120,129,101,88,115,120,94,84,111,115,94,84,115,115,98,grey soil
70,79,80,66,70,83,84,70,74,79,84,66,75,81,82,68,71,81,82,64,71,77,79,68,67,75,82,69,70,75,85,69,70,75,82,69,very damp grey soil
63,67,74,55,63,71,78,58,67,71,78,62,68,73,71,57,68,73,74,57,64,73,74,57,68,71,71,56,64,75,71,56,64,71,71,59,very damp grey soil
64,107,118,99,68,107,122,96,68,112,122,99,67,107,118,96,71,107,118,96,67,111,113,100,66,113,122,96,66,113,117,96,70,109,122,100,red soil
84,106,115,91,88,111,115,87,88,106,111,87,88,107,108,85,88,107,113,85,84,103,108,85,88,103,113,87,84,103,104,83,84,103,104,83,grey soil
84,111,111,91,88,106,111,87,88,106,111,87,88,107,113,88,84,107,108,88,84,103,108,85,84,107,104,83,84,103,104,83,84,103,104,83,damp grey soil
64,69,74,57,64,73,74,61,64,73,71,57,68,71,75,56,68,71,75,56,64,75,75,56,63,75,74,58,63,72,74,54,63,68,70,58,very damp grey soil
76,112,122,99,76,112,122,99,68,103,113,88,84,116,118,96,75,107,123,96,67,107,118,92,70,100,117,92,66,109,122,92,70,109,122,96,red soil
84,103,100,83,84,99,104,83,88,99,109,83,86,100,108,85,86,104,112,85,86,100,104,81,87,99,105,86,87,99,105,86,83,95,105,83,grey soil
90,104,112,89,86,104,112,85,90,109,117,89,92,108,110,90,96,108,114,94,96,112,114,90,93,111,114,90,97,115,114,94,97,111,114,94,grey soil
64,73,78,57,64,73,78,61,68,77,90,68,64,75,79,56,64,71,75,63,64,79,79,63,67,72,70,58,63,72,74,58,63,72,77,58,very damp grey soil
92,111,111,87,88,111,115,87,88,111,115,87,92,107,118,88,88,112,118,88,88,107,113,85,93,111,118,92,93,111,118,92,88,111,118,92,grey soil
60,69,78,72,64,69,78,68,68,69,82,68,60,61,83,74,60,57,79,70,53,54,75,70,51,54,81,75,51,48,81,79,48,42,74,75,vegetation stubble
84,99,104,79,79,95,100,79,79,99,100,83,82,96,104,78,82,96,100,81,86,96,104,81,83,99,105,79,83,95,101,79,79,99,97,79,grey soil
68,73,78,65,64,66,74,65,64,73,82,68,71,79,91,74,68,71,83,67,68,71,83,70,75,87,93,79,71,75,85,71,75,79,89,71,very damp grey soil
63,75,77,62,67,79,81,62,67,72,77,58,63,67,73,59,66,75,76,63,70,79,84,66,63,70,68,57,63,66,68,57,67,77,75,64,very damp grey soil
88,111,111,94,92,111,115,94,92,102,115,87,84,103,108,88,92,107,108,85,88,103,104,81,84,99,104,79,93,107,109,87,84,103,109,79,grey soil
96,117,119,94,96,112,119,94,96,112,114,94,97,115,119,94,97,115,119,97,97,111,119,94,101,115,120,94,97,115,125,94,92,115,115,94,grey soil
59,91,101,86,59,95,110,90,59,99,114,90,57,88,101,83,57,88,105,83,60,88,110,83,57,81,90,76,53,85,94,76,57,85,98,83,red soil
88,125,125,102,84,111,111,91,76,102,102,79,88,116,122,96,84,107,113,85,84,99,104,78,88,103,109,87,84,107,113,87,84,103,104,83,grey soil
67,68,77,54,67,72,70,54,67,72,70,54,63,67,66,55,63,67,73,55,63,71,69,55,63,66,75,57,63,70,75,57,63,70,75,57,very damp grey soil
88,102,115,87,84,106,115,91,84,102,111,87,88,107,113,92,88,107,113,88,88,103,113,85,88,107,113,87,93,107,113,92,88,107,113,87,grey soil
64,94,102,83,68,94,102,79,64,89,98,79,64,103,113,88,60,91,104,81,64,87,96,81,71,107,118,96,67,99,109,83,67,91,93,79,red soil
92,108,114,90,96,108,114,90,96,112,114,90,93,115,114,90,93,111,119,90,89,111,114,87,92,111,111,87,88,106,106,83,84,102,106,83,grey soil
67,103,110,90,63,88,97,79,63,84,93,75,67,106,114,97,67,102,105,87,63,88,89,76,68,111,120,94,68,111,115,94,68,94,98,79,red soil
67,68,74,54,67,72,77,62,71,75,81,71,70,75,76,59,66,71,73,55,63,75,80,59,71,77,86,64,71,77,86,64,71,81,86,68,very damp grey soil
53,45,108,103,50,36,118,128,43,31,139,143,48,40,118,112,51,45,104,100,48,37,123,129,46,32,122,129,49,37,112,118,52,43,104,103,cotton crop
72,85,94,72,72,81,94,72,64,69,102,83,56,54,108,103,56,54,104,92,53,45,113,114,44,34,123,129,48,37,118,121,51,45,113,104,cotton crop
83,91,97,72,79,91,93,72,79,91,90,68,78,92,93,73,74,92,93,69,78,88,97,73,80,89,94,72,80,89,98,72,80,94,94,72,damp grey soil
92,111,115,91,97,115,115,91,101,115,120,94,92,107,113,88,92,107,118,92,97,112,122,88,93,111,109,87,97,111,109,87,97,111,113,87,grey soil
88,106,106,87,88,106,111,91,88,115,120,94,88,103,108,88,88,107,113,92,88,112,122,96,93,103,113,92,88,107,118,96,88,121,123,100,grey soil
80,98,102,76,80,94,102,79,84,98,111,83,80,95,104,78,80,95,104,81,84,99,104,85,79,91,96,75,79,95,100,79,84,103,104,87,very damp grey soil
60,57,67,49,56,54,67,49,56,54,67,52,59,51,67,50,55,54,67,50,55,54,60,46,59,56,66,44,56,56,73,52,59,56,76,55,vegetation stubble
88,115,125,98,97,120,120,102,92,120,120,98,76,99,104,85,92,116,122,99,92,116,122,96,67,83,85,67,79,103,109,87,88,107,113,92,grey soil
74,91,112,96,70,87,112,100,66,83,117,100,67,88,110,98,67,88,119,98,75,91,110,94,70,88,105,87,74,92,114,94,74,92,110,94,vegetation stubble
71,79,89,62,71,79,77,58,67,79,77,62,66,79,84,63,66,75,76,63,66,79,80,63,71,84,90,68,63,81,82,64,63,81,79,64,very damp grey soil
92,107,108,85,84,103,113,81,84,99,104,85,84,103,104,83,88,103,104,83,88,103,104,87,90,100,104,85,90,100,108,81,90,104,108,85,grey soil
78,88,93,73,82,92,93,76,78,88,85,73,76,85,86,68,80,94,94,76,80,89,94,72,68,79,79,63,76,87,83,74,80,87,100,78,very damp grey soil
63,95,101,86,63,103,114,94,67,103,124,94,57,106,110,90,63,111,119,97,67,111,119,94,60,102,111,94,60,106,115,94,64,106,115,94,red soil
63,71,101,87,63,71,101,90,67,75,105,90,60,62,106,94,60,66,106,94,64,73,102,94,56,64,108,96,64,71,108,96,68,75,108,96,vegetation stubble
72,81,94,72,64,69,102,83,57,49,111,109,56,54,104,92,53,45,113,114,46,34,133,146,48,37,118,121,51,45,113,104,44,37,128,137,cotton crop
68,107,122,99,68,116,122,99,68,116,128,99,71,111,123,104,71,111,123,104,67,111,123,100,70,109,122,100,66,113,127,103,66,113,122,103,red soil
78,88,93,73,78,84,93,69,78,88,97,80,76,85,90,68,80,94,98,76,80,98,98,83,71,87,87,70,76,91,91,78,76,91,100,78,very damp grey soil
59,70,75,60,71,84,90,72,75,91,101,75,63,67,70,58,63,75,82,65,74,88,89,76,68,69,74,61,68,73,82,65,68,81,86,68,very damp grey soil
71,79,81,62,71,79,85,62,67,75,85,62,70,83,92,66,70,83,88,70,70,83,84,66,75,91,97,75,75,88,93,72,67,81,86,64,damp grey soil
92,107,118,96,97,112,122,92,97,116,122,96,97,111,123,96,93,111,118,96,93,111,118,96,95,118,122,96,90,104,112,92,90,104,108,89,grey soil
51,68,77,71,51,64,77,71,48,61,74,67,49,67,88,70,52,67,84,70,52,63,80,70,52,77,93,75,49,73,86,75,52,66,82,72,red soil
44,34,129,143,42,29,135,150,44,29,124,143,50,46,111,116,44,31,131,142,44,29,136,146,53,45,108,103,50,36,118,128,43,31,139,143,cotton crop
46,31,139,143,46,31,133,146,43,31,139,146,41,32,139,150,44,32,139,154,44,29,145,150,52,37,117,122,46,29,138,151,49,32,138,151,cotton crop
53,75,104,92,64,95,108,88,64,99,113,88,48,34,113,125,51,58,113,104,59,87,104,83,46,32,112,133,46,32,112,133,46,46,112,114,cotton crop
71,83,87,70,68,75,79,67,71,75,79,63,71,75,85,67,71,75,74,62,67,72,70,58,63,67,69,59,59,63,66,55,59,63,73,59,very damp grey soil
67,103,119,90,67,103,114,90,67,99,110,86,63,102,114,87,63,97,110,87,63,92,110,87,64,98,106,87,64,98,111,87,64,85,111,87,red soil
63,70,82,72,63,66,82,68,63,66,82,68,70,75,89,76,67,79,89,76,70,79,89,80,80,94,106,83,72,98,106,83,80,98,102,87,vegetation stubble
75,99,100,79,79,99,104,83,79,99,109,83,78,96,104,81,82,100,104,81,82,100,104,85,75,91,101,79,79,99,105,83,83,99,105,83,grey soil
66,109,122,92,70,109,122,96,66,109,122,96,67,103,124,94,67,108,114,98,75,108,114,98,67,111,119,94,67,106,119,97,70,111,119,97,red soil
82,96,100,78,82,91,100,78,78,87,96,78,83,95,97,75,75,84,93,72,75,91,97,72,78,88,85,73,74,84,82,69,74,84,85,69,very damp grey soil
79,107,118,92,75,107,113,92,71,103,113,96,66,100,108,92,63,100,117,96,66,104,117,96,59,99,114,90,59,95,119,90,59,103,119,94,red soil
50,75,89,80,53,84,97,80,57,84,93,76,60,77,94,79,60,89,98,83,60,94,106,87,64,95,104,85,64,99,113,92,68,99,118,88,red soil
80,91,96,78,84,91,96,74,68,68,100,85,79,99,96,79,84,99,96,79,75,87,93,75,82,96,104,81,82,100,100,78,82,96,104,81,damp grey soil
74,83,92,74,63,67,80,70,59,63,73,66,75,88,97,79,75,81,86,75,63,66,79,68,74,79,89,73,67,75,89,73,60,67,78,62,damp grey soil
67,84,82,64,67,81,82,68,67,84,86,68,63,79,85,65,63,79,89,65,63,79,82,65,60,77,82,65,60,77,82,65,60,77,82,68,very damp grey soil
84,106,111,87,84,106,111,87,84,98,111,87,92,112,118,96,92,112,113,88,88,103,113,85,93,116,118,92,88,111,118,92,93,107,113,87,grey soil
49,40,96,100,49,40,92,92,43,32,104,107,46,32,110,120,49,40,97,101,46,32,110,113,42,27,110,129,44,34,110,122,50,37,110,119,cotton crop
93,111,110,94,93,106,114,87,89,111,110,87,92,106,111,87,88,106,111,87,84,102,115,87,88,107,113,88,88,107,108,85,88,107,104,88,grey soil
84,99,109,83,88,103,109,87,88,103,109,87,86,104,108,85,86,100,108,85,90,104,112,89,87,99,105,86,87,103,105,86,87,108,114,86,grey soil
84,111,113,92,84,107,118,92,88,111,123,96,90,109,117,92,90,113,112,96,90,113,122,96,92,117,119,94,92,108,114,94,92,108,114,90,grey soil
75,83,96,79,84,103,113,92,88,103,109,92,78,87,100,81,86,100,108,89,86,100,108,89,87,103,110,90,87,99,105,86,79,99,105,86,grey soil
52,51,72,57,56,51,68,53,56,54,72,49,57,53,67,55,53,53,74,62,53,53,70,58,57,59,78,65,53,52,78,65,53,49,74,57,vegetation stubble
92,107,118,88,88,112,118,88,88,107,113,85,93,111,118,92,93,111,118,92,88,111,118,92,90,109,117,96,90,118,122,96,90,113,117,96,grey soil
88,107,109,87,88,107,109,87,88,103,109,87,90,104,108,92,90,109,108,89,86,104,112,85,92,103,105,86,87,103,105,83,92,103,110,83,grey soil
47,37,119,133,44,34,124,143,44,34,129,143,57,49,115,113,47,31,131,142,44,31,131,142,68,68,100,85,50,39,118,132,43,29,133,143,cotton crop
46,34,110,116,49,34,110,116,49,37,114,116,47,34,114,126,47,37,114,122,47,37,114,119,47,31,120,124,47,34,115,120,47,37,111,113,cotton crop
44,31,124,136,44,37,119,126,50,43,110,115,44,31,125,135,44,31,120,131,50,40,115,113,46,34,128,135,46,36,128,132,46,39,122,121,cotton crop
67,79,82,65,67,79,78,65,67,75,74,62,72,77,78,61,68,69,71,57,64,69,74,57,71,79,79,63,68,75,75,59,68,68,71,56,very damp grey soil
74,83,92,70,66,79,84,63,66,75,76,63,75,91,93,72,71,84,90,68,63,81,82,64,74,88,93,69,78,92,93,73,67,88,89,69,damp grey soil
79,103,110,90,71,103,110,86,67,99,101,83,82,120,124,101,70,111,119,94,67,106,114,90,76,111,115,94,68,106,115,91,68,102,115,91,red soil
83,95,105,83,92,103,110,90,96,112,110,94,93,111,114,90,93,115,114,94,93,111,114,94,92,120,125,98,92,115,115,87,84,102,102,79,grey soil
79,99,109,83,71,75,93,79,51,51,81,79,70,87,112,100,82,91,108,85,63,63,88,78,79,91,119,98,79,99,110,86,71,77,86,75,vegetation stubble
83,91,97,79,83,91,101,79,79,95,93,75,82,92,101,80,78,88,93,76,78,92,93,76,84,94,98,76,76,85,90,72,76,85,90,72,damp grey soil
66,91,112,89,70,96,112,92,70,96,117,92,56,73,97,79,63,88,105,83,67,84,105,94,47,37,114,122,50,63,97,90,63,84,97,80,vegetation stubble
48,40,118,112,51,45,104,100,48,37,123,129,46,32,122,129,49,37,112,118,52,43,104,103,46,34,119,127,49,34,114,124,49,40,105,116,cotton crop
70,75,82,62,70,79,82,65,70,79,85,65,68,77,74,61,68,77,78,61,72,81,82,65,68,79,79,59,68,75,83,63,71,79,87,63,very damp grey soil
53,55,78,68,53,52,82,72,53,52,82,68,56,57,79,63,60,54,75,59,53,54,71,59,55,54,74,58,55,54,74,62,55,58,77,58,vegetation stubble
68,83,83,63,68,83,87,67,76,91,96,81,71,79,85,67,71,79,85,62,71,83,89,67,66,83,84,66,66,79,80,63,66,83,84,63,very damp grey soil
71,84,90,68,63,81,82,64,63,81,79,64,78,92,93,73,67,88,89,69,67,84,85,62,76,94,94,72,76,94,94,68,68,85,82,65,damp grey soil
86,104,108,85,86,104,108,89,86,104,112,85,87,112,114,90,83,103,105,83,83,99,110,86,89,106,114,90,89,106,114,87,89,106,105,87,grey soil
63,99,114,90,63,103,114,94,67,103,114,94,67,106,110,90,70,111,114,97,70,115,119,97,72,106,115,94,68,106,120,94,72,111,120,94,red soil
75,84,93,68,75,84,90,68,75,84,90,68,74,84,85,65,70,79,82,62,67,75,78,58,64,73,74,57,64,69,71,57,64,69,74,57,very damp grey soil
64,103,118,92,64,107,113,96,64,107,122,92,59,99,113,92,59,103,118,92,63,103,118,96,63,91,108,89,63,100,104,89,66,100,112,92,red soil
49,40,105,116,52,45,105,105,46,32,124,135,44,37,119,129,44,43,105,111,50,43,110,111,44,34,115,120,47,40,115,116,50,43,106,102,cotton crop
90,104,108,85,90,104,112,85,90,109,117,85,92,112,114,90,96,112,114,94,92,117,124,98,97,120,119,97,93,115,114,90,89,111,114,94,grey soil
68,99,108,88,60,95,108,85,64,95,108,85,71,107,123,96,71,103,118,96,67,103,118,92,70,113,122,96,70,109,122,100,66,113,117,100,red soil
59,56,62,48,56,53,66,48,59,53,66,44,52,51,58,42,52,51,72,57,56,51,68,53,53,53,60,44,57,53,67,55,53,53,74,62,vegetation stubble
88,107,113,85,84,103,108,85,84,107,113,88,84,103,104,83,84,103,104,83,88,107,113,87,86,109,108,89,86,104,108,85,86,104,108,89,grey soil
64,85,94,83,64,85,98,83,68,89,102,87,60,83,96,81,64,87,104,85,68,91,104,88,75,95,104,87,71,95,104,87,75,91,109,92,red soil
63,71,73,59,63,75,76,59,66,75,76,63,75,88,90,72,79,95,101,79,83,99,101,83,85,102,110,87,89,106,110,87,89,106,110,87,very damp grey soil
43,31,108,121,50,45,100,99,64,68,91,78,44,29,113,129,48,37,109,112,63,64,93,75,43,29,108,129,46,32,108,122,52,43,92,92,cotton crop
66,79,76,59,70,79,88,63,74,87,88,70,67,73,75,57,63,73,75,57,67,84,79,68,67,75,78,65,60,71,70,58,63,75,74,62,very damp grey soil
64,73,74,65,72,81,86,72,76,85,98,79,68,83,83,70,68,79,83,67,71,83,96,74,63,75,81,67,67,79,85,67,75,79,89,71,damp grey soil
92,112,119,94,92,117,119,98,96,112,119,94,89,115,114,94,93,115,124,97,93,115,119,94,84,106,111,91,88,111,115,91,92,111,115,91,grey soil
90,113,112,92,90,109,108,89,86,104,108,85,83,95,97,79,75,84,90,68,75,77,82,57,78,84,89,69,67,71,74,55,67,67,70,48,very damp grey soil
84,102,111,87,88,106,102,91,84,98,102,87,88,103,108,88,88,99,113,92,76,95,104,88,88,103,109,92,79,95,100,87,67,95,109,92,grey soil
71,87,87,70,76,91,91,78,76,91,100,78,71,79,85,67,71,83,81,67,71,87,85,71,78,87,84,70,74,79,84,63,70,83,84,66,very damp grey soil
53,69,86,72,50,66,82,76,50,66,86,76,50,68,83,70,53,64,79,74,53,61,79,67,51,64,77,71,48,61,74,67,51,61,77,71,red soil
93,111,113,92,93,111,118,92,88,107,109,87,99,118,117,92,95,113,117,96,86,104,108,89,92,108,114,90,92,99,105,86,83,99,101,75,grey soil
56,81,97,79,52,73,93,79,52,66,86,72,57,84,93,76,57,75,82,73,53,71,78,73,60,94,106,87,60,81,94,76,57,73,90,76,red soil
59,60,82,68,59,57,82,68,59,54,82,72,60,60,82,65,60,60,82,69,57,60,82,73,57,59,78,68,60,59,82,68,60,62,86,68,vegetation stubble
44,31,131,135,44,31,120,131,44,31,120,128,46,31,122,132,46,34,122,128,46,34,122,125,44,34,128,129,44,32,128,125,48,29,123,125,cotton crop
79,95,96,79,79,95,96,79,75,87,93,79,70,75,104,85,74,87,92,78,74,91,100,81,67,77,110,90,75,91,97,79,79,91,97,83,damp grey soil
93,106,114,87,93,106,114,90,93,111,119,94,88,102,111,83,88,111,111,91,92,115,115,91,88,103,104,85,88,103,113,85,88,107,108,88,grey soil
68,75,83,67,68,71,83,70,71,75,87,88,67,72,81,67,71,72,77,67,67,68,81,67,66,71,84,70,66,71,80,66,66,71,80,66,vegetation stubble
79,95,93,75,71,77,93,79,56,42,114,120,78,88,97,80,78,88,93,76,63,63,101,90,76,85,90,76,80,89,94,76,72,81,94,76,cotton crop
71,107,118,96,71,112,122,96,68,112,122,99,71,111,123,100,71,107,123,100,71,111,123,100,70,113,122,96,70,113,122,96,70,118,117,100,red soil
67,111,119,97,70,111,119,97,70,97,105,87,64,111,115,98,68,111,120,102,68,106,115,94,68,107,118,96,68,112,122,103,71,112,122,99,red soil
75,91,96,71,79,87,93,71,79,87,93,67,74,87,88,70,78,87,84,70,74,87,88,66,79,88,93,68,79,91,93,72,75,91,93,68,damp grey soil
88,107,113,87,88,107,109,83,84,99,104,87,86,109,108,89,86,109,112,89,90,109,112,92,92,108,110,90,87,108,110,86,87,108,119,90,grey soil
79,91,90,68,79,88,90,72,79,88,93,72,78,84,89,69,78,88,89,69,78,88,89,73,76,89,86,68,80,85,86,68,76,85,90,68,damp grey soil
90,113,112,96,90,113,122,96,95,113,117,96,92,108,114,94,92,108,114,90,92,103,110,86,85,97,105,80,82,92,97,76,78,88,89,73,grey soil
84,102,102,83,80,98,98,79,84,98,106,83,84,99,104,81,80,95,91,74,76,87,96,70,79,91,93,71,71,79,77,62,75,83,85,67,very damp grey soil
80,102,102,79,84,94,102,79,80,94,98,76,84,99,104,78,84,99,104,81,76,99,104,81,84,99,104,79,84,99,104,79,84,103,104,79,grey soil
67,102,114,90,63,102,119,94,63,111,119,97,68,106,115,94,68,111,120,98,64,111,120,94,64,103,113,88,64,107,118,96,68,107,118,96,red soil
67,75,96,79,75,83,96,83,79,99,104,83,49,40,112,114,46,34,122,125,49,40,117,114,46,34,119,131,42,34,119,131,46,34,119,131,cotton crop
60,97,101,83,57,106,110,90,63,111,119,97,57,94,111,87,60,102,111,94,60,106,115,94,56,95,108,88,60,95,113,92,68,103,118,92,red soil
88,103,109,83,88,107,109,87,88,107,113,87,86,100,108,81,86,100,104,81,86,104,108,85,83,95,97,79,83,95,101,83,87,103,110,86,grey soil
59,87,104,87,55,83,100,83,51,79,100,79,56,87,104,85,56,83,100,81,49,75,100,78,49,73,97,79,49,73,86,79,52,70,90,75,red soil
71,75,83,67,71,79,87,70,71,83,87,70,71,79,81,67,75,79,85,67,75,87,89,71,70,75,84,66,70,75,80,63,70,83,88,70,very damp grey soil
59,60,97,83,63,66,79,64,67,70,75,57,67,67,67,51,60,67,70,55,63,63,67,51,64,69,64,54,64,69,71,57,64,69,71,54,very damp grey soil
67,103,113,87,71,111,118,92,71,111,123,96,66,104,112,89,66,104,112,92,66,113,117,92,67,108,119,98,71,112,119,94,67,108,119,98,red soil
78,84,85,65,70,79,82,65,70,71,74,58,72,81,78,65,72,81,90,65,72,81,94,65,71,79,87,70,71,83,87,70,71,79,83,67,very damp grey soil
80,94,94,72,80,89,94,72,80,89,98,72,80,99,100,74,80,95,100,74,84,95,100,74,84,91,100,75,84,95,100,79,79,95,100,75,damp grey soil
60,73,90,83,53,62,86,83,50,52,82,83,64,79,100,85,56,71,96,85,56,68,91,81,63,79,100,87,59,75,96,87,59,72,96,83,vegetation stubble
63,70,86,75,63,70,82,72,63,66,82,68,67,79,93,76,70,75,89,76,67,79,89,76,80,94,102,83,80,94,106,83,72,98,106,83,vegetation stubble
93,111,118,92,93,107,113,87,88,107,109,83,90,104,108,85,86,109,104,81,86,104,112,85,92,108,110,94,92,108,110,90,83,108,114,86,damp grey soil
76,87,91,70,71,83,87,67,68,83,83,63,75,87,89,67,71,87,89,67,67,79,85,67,66,79,76,59,70,79,88,63,74,87,88,70,damp grey soil
64,73,74,61,64,73,71,57,68,69,74,57,68,71,75,56,64,75,75,56,68,71,75,56,63,72,74,54,63,68,70,58,63,72,70,58,very damp grey soil
72,81,94,65,64,69,71,57,57,55,60,46,71,79,83,67,68,75,79,63,64,64,71,56,75,87,85,71,71,83,89,75,71,79,89,75,very damp grey soil
63,66,82,68,63,66,82,68,63,70,82,68,67,79,89,76,70,79,89,80,70,84,89,73,72,98,106,83,80,98,102,87,76,94,98,83,vegetation stubble
75,87,93,71,75,91,89,71,75,91,93,71,74,87,96,74,74,83,96,74,74,87,92,70,75,88,90,72,75,88,90,72,75,88,90,68,damp grey soil
71,79,85,62,71,79,85,62,71,79,85,67,66,79,76,63,70,79,80,63,70,79,80,63,63,77,82,60,63,77,79,64,67,77,75,60,very damp grey soil
67,79,78,62,67,79,82,62,63,71,78,62,68,73,78,61,68,77,78,61,64,77,74,57,68,75,79,59,68,75,79,59,60,75,79,59,very damp grey soil
44,34,124,143,44,34,129,143,44,31,124,143,47,31,131,142,44,31,131,142,47,31,131,139,50,39,118,132,43,29,133,143,46,31,133,139,cotton crop
70,83,84,70,74,83,84,66,74,83,88,66,63,73,72,57,67,73,79,60,71,81,86,64,63,71,74,58,63,71,74,58,67,75,78,58,very damp grey soil
88,111,120,94,88,111,120,91,88,106,111,91,92,112,118,92,88,103,113,85,88,103,108,85,93,116,118,96,88,111,113,87,88,107,109,83,grey soil
83,95,105,90,79,99,110,90,71,103,119,94,78,92,110,87,70,88,105,90,60,92,105,87,76,94,106,91,68,94,111,91,57,81,102,83,grey soil
44,29,101,115,44,34,105,104,47,43,101,97,53,49,98,94,60,66,94,79,68,77,94,72,68,83,87,70,71,83,91,70,71,83,87,63,cotton crop
53,83,100,81,53,79,96,78,46,79,87,78,51,79,96,79,55,79,93,75,51,75,93,75,52,79,100,78,56,83,96,85,56,83,108,85,red soil
82,92,105,76,85,92,101,83,85,92,105,83,84,98,98,79,84,94,102,79,84,102,111,87,84,99,100,81,84,99,104,85,88,103,108,88,grey soil
51,75,93,79,55,75,96,79,55,72,93,71,56,79,92,78,49,75,88,78,52,67,80,74,56,81,97,79,52,73,93,79,52,66,86,72,red soil
63,100,112,92,63,104,112,92,63,104,112,92,59,88,110,86,59,88,110,90,59,99,114,90,53,92,105,87,57,88,105,87,60,97,119,94,red soil
88,99,104,85,84,99,100,81,84,99,104,85,84,99,100,79,84,103,104,83,88,103,113,87,82,96,104,81,82,100,104,81,82,104,112,85,grey soil
82,92,101,80,74,79,93,73,67,75,89,73,84,98,106,79,72,81,82,65,64,73,78,65,80,95,96,74,71,75,83,59,64,68,75,63,very damp grey soil
64,71,75,56,68,75,75,59,68,75,83,59,67,75,77,58,67,79,81,62,71,75,85,62,66,75,76,63,66,79,84,63,66,83,80,63,very damp grey soil
49,37,97,98,52,40,97,101,52,40,97,105,53,49,93,90,60,56,85,83,63,71,85,73,68,81,90,68,72,94,86,72,76,94,98,76,cotton crop
66,79,80,59,66,71,73,55,66,71,76,55,71,84,86,64,71,81,79,68,71,73,82,60,67,75,82,65,70,84,82,62,70,75,78,65,very damp grey soil
75,91,96,83,79,87,96,75,79,87,89,71,66,71,84,78,59,63,88,74,70,75,92,78,67,66,82,72,63,66,79,72,71,77,86,72,very damp grey soil
92,108,110,86,92,103,105,83,83,99,105,79,97,115,119,94,97,115,114,90,89,111,114,87,97,115,120,94,97,111,115,94,97,111,115,94,grey soil
49,48,68,49,49,54,68,53,56,60,75,64,50,49,67,51,50,53,74,58,50,53,82,69,53,52,71,57,53,55,78,68,53,52,82,72,vegetation stubble
63,77,82,60,71,84,90,72,83,99,105,83,63,75,78,58,63,79,78,62,74,92,93,76,64,73,74,61,64,73,78,57,64,81,82,65,very damp grey soil
75,87,96,71,75,91,96,71,75,87,93,67,74,87,92,70,78,87,88,66,78,87,92,66,79,88,93,68,75,84,90,68,75,84,93,72,damp grey soil
71,112,119,98,67,112,119,98,67,103,110,90,70,111,119,97,67,111,119,94,67,106,114,97,68,111,120,98,68,111,120,94,68,111,120,94,red soil
85,111,114,87,89,106,114,87,89,106,105,87,88,111,120,94,88,111,120,91,88,106,111,91,92,112,118,92,88,103,113,85,88,103,108,85,grey soil
63,87,96,83,63,87,96,83,59,83,89,79,56,79,88,81,59,83,100,81,59,83,100,81,56,81,93,79,56,81,93,79,56,84,105,86,red soil
53,53,74,62,53,53,70,58,53,53,67,48,53,52,78,65,53,49,74,57,53,52,71,50,56,54,79,70,53,48,75,63,53,45,75,59,vegetation stubble
90,123,133,103,86,128,133,107,90,123,127,103,87,122,130,101,92,127,135,105,92,122,130,105,89,125,129,104,93,125,129,104,97,125,124,101,grey soil
63,102,110,94,63,106,114,90,63,106,114,90,53,66,106,91,60,94,111,87,64,98,111,91,43,34,118,125,46,48,108,107,53,75,104,92,red soil
76,85,90,68,76,89,86,68,80,85,86,68,71,87,87,70,76,87,91,70,76,87,87,70,71,87,89,67,75,83,89,67,75,87,89,67,damp grey soil
51,75,93,79,51,64,85,75,48,61,81,67,52,83,100,81,49,75,92,78,46,75,96,78,52,81,97,79,52,73,90,79,49,73,97,83,red soil
49,34,112,111,46,37,117,114,49,34,112,118,52,40,110,113,49,37,105,113,49,37,110,116,44,34,110,119,44,37,105,111,47,40,110,111,cotton crop
63,99,114,94,63,103,114,90,63,103,119,90,67,97,114,87,63,97,114,90,67,102,114,90,68,94,115,91,60,89,102,83,60,85,102,83,red soil
93,107,113,87,88,111,118,87,88,111,118,96,90,113,112,92,90,113,112,92,90,109,112,89,96,112,119,90,92,108,119,90,96,112,119,90,grey soil
66,109,122,96,63,96,104,89,63,83,88,78,67,108,119,98,63,99,110,94,63,88,101,79,67,106,124,94,67,111,114,101,67,106,114,90,red soil
68,83,87,67,76,91,96,81,80,95,100,81,71,79,85,62,71,83,89,67,75,87,96,75,66,79,80,63,66,83,84,63,70,83,84,66,very damp grey soil
78,88,85,73,74,84,82,69,74,84,85,69,80,89,94,72,76,81,86,72,72,81,90,72,80,87,100,78,80,87,100,74,71,75,87,74,very damp grey soil
63,77,79,64,67,77,75,60,67,77,79,64,63,75,85,58,63,79,85,62,67,79,82,65,68,77,86,65,64,77,82,65,64,77,82,65,very damp grey soil
83,95,105,79,83,95,101,79,87,103,105,83,89,97,101,80,85,97,105,80,85,106,105,83,88,102,106,83,88,98,106,79,84,102,106,79,grey soil
90,109,117,89,90,104,117,89,95,109,112,89,92,108,114,94,92,108,114,90,96,108,110,90,93,111,114,94,89,111,114,87,93,111,110,87,grey soil
68,83,87,67,71,83,87,70,76,91,91,74,71,75,81,62,67,75,85,71,67,75,96,79,59,60,96,81,56,49,104,100,49,40,112,114,damp grey soil
78,96,92,74,74,87,88,70,66,79,80,66,79,88,90,72,79,88,93,72,71,84,86,68,78,88,89,69,78,88,89,73,78,88,93,73,damp grey soil
53,53,82,73,53,56,82,69,57,75,82,65,50,52,78,65,53,52,78,65,53,62,78,61,53,51,75,59,53,51,75,59,53,57,75,63,vegetation stubble
80,95,100,81,88,103,108,88,88,107,113,92,88,95,109,87,93,103,113,92,88,107,118,96,78,91,100,81,86,104,112,92,86,100,108,92,grey soil
93,111,109,92,88,107,109,87,84,107,109,92,86,104,112,85,86,104,108,89,86,104,108,89,83,99,110,86,87,103,105,86,83,103,110,90,grey soil
76,91,91,70,76,83,87,70,68,79,79,63,71,68,77,62,67,72,74,58,67,72,74,58,59,63,66,52,59,63,66,55,63,63,69,55,very damp grey soil
70,75,76,66,66,71,80,66,66,63,76,66,71,81,82,68,71,77,86,68,67,73,75,60,70,88,89,69,74,84,85,69,74,79,85,69,very damp grey soil
53,48,75,63,53,45,75,59,56,51,71,56,55,51,81,71,55,48,77,62,55,48,74,62,63,60,80,66,59,53,84,70,52,49,76,66,vegetation stubble
53,49,110,108,47,40,119,122,42,37,119,129,47,34,131,135,47,34,125,135,44,34,131,131,43,31,139,146,43,31,139,143,43,31,133,139,cotton crop
46,27,108,129,43,29,108,129,46,32,108,122,52,40,97,105,52,48,90,98,59,63,90,75,63,71,85,73,70,84,89,73,74,88,85,73,cotton crop
68,106,115,98,72,115,120,98,68,111,120,98,68,112,118,96,68,116,122,99,71,112,118,99,71,111,118,92,71,111,123,96,71,107,123,96,red soil
85,102,110,87,85,102,110,94,78,92,110,87,88,106,111,91,88,106,111,98,76,94,106,91,84,99,108,92,84,107,113,96,84,107,122,96,grey soil
66,113,127,100,66,113,122,100,66,113,127,100,63,112,119,98,63,112,130,101,71,112,130,101,63,111,124,101,63,111,124,101,67,115,129,101,red soil
53,49,71,46,53,52,71,57,53,55,78,68,53,51,67,52,53,54,75,59,56,57,79,63,51,54,67,50,55,58,70,58,55,54,74,58,vegetation stubble
71,103,113,96,71,103,113,96,71,107,123,100,70,104,112,96,70,104,112,96,70,100,112,92,75,108,114,94,71,108,114,94,75,108,119,98,red soil
60,91,108,88,60,83,108,92,60,64,100,99,59,87,104,92,67,99,109,92,67,87,100,83,59,79,92,81,63,75,104,85,70,100,112,92,red soil
67,73,90,68,71,73,86,68,71,77,90,72,67,71,82,65,70,75,89,73,67,71,89,73,64,66,78,65,64,66,82,65,64,62,82,65,very damp grey soil
82,102,105,87,85,106,114,90,93,120,119,97,88,106,106,87,88,106,111,91,88,115,120,94,88,103,108,88,88,107,113,92,88,112,122,96,grey soil
59,63,75,64,63,63,72,57,63,63,68,53,44,37,101,108,53,53,85,76,60,60,74,55,44,31,106,116,44,37,98,94,53,52,78,57,cotton crop
75,87,85,71,71,83,89,75,71,79,89,75,78,83,88,74,74,83,88,70,74,83,88,74,75,88,97,75,75,84,93,75,75,84,90,72,very damp grey soil
82,104,112,89,82,100,104,89,78,96,104,81,83,99,110,86,79,95,105,86,79,95,105,83,85,111,114,90,85,106,114,94,82,102,114,90,grey soil
64,81,82,68,60,77,82,65,60,89,102,79,64,79,87,67,60,83,91,74,60,99,108,88,63,87,89,71,67,91,100,79,71,103,109,87,red soil
63,67,70,58,63,71,74,58,63,71,74,58,68,73,71,61,64,69,71,57,60,69,74,54,68,75,79,63,60,68,67,52,60,61,67,56,very damp grey soil
88,115,131,102,88,111,120,94,76,89,102,76,92,116,133,103,84,112,122,96,71,83,96,85,84,111,128,100,84,103,118,92,71,79,96,79,red soil
97,115,119,97,89,120,124,97,93,115,124,101,92,120,125,98,88,120,125,98,88,125,131,102,88,126,139,103,88,121,133,103,92,121,128,103,grey soil
67,75,70,54,67,75,74,58,63,72,74,58,66,79,76,59,66,79,80,63,66,75,76,59,67,77,86,60,67,73,82,60,63,73,75,60,very damp grey soil
63,64,70,58,59,64,67,54,63,68,70,58,63,67,66,55,63,67,73,55,63,67,69,59,59,66,65,60,67,70,75,60,67,66,72,57,very damp grey soil
85,92,101,83,85,92,105,83,89,102,110,87,84,94,102,79,84,102,111,87,88,106,102,91,84,99,104,85,88,103,108,88,88,99,113,92,grey soil
97,115,114,90,89,111,114,87,89,106,110,83,97,111,115,94,97,111,115,94,97,111,111,91,101,116,122,96,101,116,122,96,97,116,122,96,grey soil
56,84,105,86,63,99,114,94,67,99,110,94,57,88,101,83,57,88,101,83,60,88,101,83,53,77,94,79,57,81,94,79,60,77,90,79,red soil
67,75,74,62,63,72,74,62,63,75,77,62,66,71,76,59,66,71,73,63,63,67,73,59,67,70,72,60,67,70,75,57,63,70,68,57,very damp grey soil
79,112,124,101,79,112,124,98,71,108,124,98,74,115,119,101,70,111,124,101,67,106,124,101,68,111,120,98,68,115,125,98,68,111,125,98,red soil
87,103,105,86,87,99,105,86,83,95,105,90,85,102,110,87,85,102,110,94,78,92,110,87,88,106,111,91,88,106,111,98,76,94,106,91,grey soil
79,91,96,75,71,75,93,79,67,68,93,79,78,83,92,70,78,91,96,78,78,83,88,74,75,91,97,75,83,95,105,79,83,99,105,75,very damp grey soil
53,45,75,59,56,51,71,56,56,51,71,56,55,48,77,62,55,48,74,62,55,51,67,54,59,53,84,70,52,49,76,66,52,46,80,63,vegetation stubble
63,92,105,80,63,88,105,83,67,97,110,87,64,89,102,79,60,85,94,79,64,89,98,83,64,99,104,85,56,91,104,81,60,95,113,88,red soil
88,103,104,83,88,103,104,87,88,103,109,83,90,100,108,81,90,104,108,85,90,100,100,81,87,99,101,83,87,99,105,83,83,99,101,83,grey soil
63,111,119,97,67,111,119,94,67,106,119,97,60,106,115,94,64,106,115,94,68,111,120,98,68,103,118,92,64,103,118,96,68,107,122,96,red soil
78,92,97,73,78,92,93,73,82,88,97,69,80,94,94,72,80,94,94,76,80,94,94,72,80,91,96,74,76,95,91,74,80,91,96,70,damp grey soil
43,31,133,143,43,29,133,143,46,31,133,150,44,34,139,146,44,32,134,141,48,32,134,141,46,32,138,144,46,32,138,144,46,32,133,144,cotton crop
53,52,71,57,53,55,78,68,53,52,82,72,53,54,75,59,56,57,79,63,60,54,75,59,55,58,70,58,55,54,74,58,55,54,74,62,vegetation stubble
76,102,106,83,76,102,106,87,80,98,106,79,80,107,118,88,80,112,118,88,80,107,113,85,79,107,113,87,79,103,104,83,79,103,104,79,grey soil
46,31,133,139,43,31,133,139,43,31,128,135,44,29,134,141,44,32,134,137,48,34,128,129,46,29,138,147,46,29,133,140,46,32,127,133,cotton crop
66,91,104,81,74,100,108,92,78,113,117,96,67,99,105,86,75,112,119,101,79,112,124,101,70,102,114,94,74,115,119,101,74,115,119,101,red soil
89,102,114,90,89,106,114,87,89,106,114,90,88,111,111,91,84,106,111,87,88,106,115,87,92,112,122,92,88,112,113,85,84,99,108,85,grey soil
88,111,115,87,92,111,115,87,88,106,111,87,88,107,113,88,92,103,113,88,88,107,108,92,88,107,113,92,93,111,118,87,88,107,109,87,grey soil
82,92,97,76,78,88,89,73,70,84,82,65,60,69,67,54,60,66,67,57,64,69,71,57,53,54,53,34,56,57,56,45,60,57,67,49,vegetation stubble
92,112,118,85,84,103,104,81,84,99,104,78,88,121,128,100,84,107,113,87,84,99,104,79,90,113,122,96,95,128,127,103,95,123,127,100,grey soil
42,28,119,127,46,32,105,113,49,45,82,72,47,37,101,101,50,37,101,104,47,40,93,94,41,34,115,113,44,29,115,120,47,31,106,105,cotton crop
71,77,86,68,67,73,75,60,63,66,68,57,74,84,85,69,74,79,85,69,67,79,82,65,68,85,86,68,72,85,86,72,72,81,82,68,very damp grey soil
80,99,104,78,84,95,100,78,76,87,91,70,84,99,109,83,79,91,104,75,75,87,89,75,78,83,100,78,82,96,104,85,82,91,96,78,very damp grey soil
75,84,93,68,75,91,90,75,79,88,93,75,78,92,97,80,78,92,101,83,82,97,101,83,80,98,102,76,80,94,102,79,84,98,111,83,very damp grey soil
75,99,109,87,79,111,123,100,75,111,123,100,66,91,104,81,74,100,108,92,78,113,117,96,67,99,105,86,75,112,119,101,79,112,124,101,red soil
67,111,114,94,67,106,119,97,67,106,114,94,64,98,106,91,64,106,115,94,64,106,115,94,64,95,104,88,64,103,113,92,60,103,118,92,red soil
59,63,90,83,59,63,86,83,56,60,86,79,60,71,93,80,57,67,93,83,53,60,93,80,60,81,90,83,60,73,90,83,53,62,86,83,vegetation stubble
67,73,75,60,71,73,75,60,71,73,79,64,67,75,82,69,70,84,93,76,70,84,85,69,68,81,86,72,72,81,90,76,72,81,86,68,very damp grey soil
64,89,94,76,64,94,106,83,68,106,115,98,60,91,100,78,64,99,104,88,68,112,118,96,63,91,100,75,67,103,113,87,71,111,118,92,red soil
71,87,91,70,71,87,87,70,76,87,91,70,75,87,89,67,71,87,89,67,75,83,89,67,74,87,92,66,74,83,88,66,70,83,84,70,damp grey soil
79,99,105,83,83,103,114,86,79,99,105,83,78,102,110,83,82,102,105,83,82,102,101,80,80,98,102,79,80,98,102,79,80,98,98,79,grey soil
70,84,89,76,74,79,97,94,53,43,105,115,72,81,86,72,76,85,98,79,68,66,106,98,68,79,83,67,71,83,96,74,71,87,96,81,damp grey soil
63,112,124,98,63,108,124,101,67,108,135,98,63,120,124,101,63,115,124,101,67,111,124,101,64,115,125,102,64,115,125,98,60,111,120,98,red soil
57,81,90,76,53,85,94,76,57,85,98,83,56,79,91,78,53,79,96,78,53,83,96,81,55,72,93,71,55,72,85,75,59,79,93,75,red soil
95,118,122,96,99,118,117,92,95,113,117,96,92,112,114,98,92,108,114,90,92,99,105,86,89,102,110,83,82,92,101,80,82,88,89,73,grey soil
79,88,90,72,75,81,82,68,71,81,82,64,74,84,85,69,67,75,82,69,70,75,85,69,72,77,90,72,68,77,90,72,68,73,86,72,very damp grey soil
70,111,114,97,70,115,119,97,67,106,124,94,68,106,120,94,72,111,120,94,64,106,115,94,68,103,118,92,64,103,122,92,71,107,122,96,red soil
59,87,96,81,66,100,108,89,66,96,108,92,56,81,97,79,59,84,93,79,59,88,105,86,57,79,93,80,60,84,93,80,60,75,93,83,red soil
68,106,115,94,68,111,120,98,64,111,120,94,64,103,113,88,64,107,118,96,68,107,118,96,63,95,100,83,67,107,118,96,67,107,118,96,red soil
47,40,110,111,47,40,110,111,50,40,105,115,53,43,106,102,60,55,102,91,64,69,94,79,68,71,91,70,71,75,87,63,68,75,75,59,cotton crop
88,106,111,87,88,111,111,87,88,102,111,83,88,107,118,88,88,103,118,85,88,99,108,85,88,103,113,87,88,107,109,87,88,103,113,87,grey soil
59,63,90,79,63,73,82,64,67,77,79,60,57,63,89,76,60,67,78,65,63,75,78,62,57,55,82,72,57,59,74,68,60,66,82,65,very damp grey soil
67,75,78,62,63,75,78,58,63,79,78,62,68,77,78,61,64,73,74,61,64,73,78,57,64,79,83,59,64,75,79,59,64,75,79,63,very damp grey soil
57,85,98,83,60,94,106,87,60,94,111,87,53,83,96,81,60,87,100,85,56,87,104,81,59,79,93,75,59,91,104,83,59,87,100,83,red soil
67,77,97,83,75,91,105,86,79,103,110,90,93,115,124,97,93,120,124,104,82,120,124,101,80,106,106,91,80,111,120,98,76,111,115,94,red soil
72,106,115,91,76,111,115,94,76,111,115,94,71,107,118,96,76,107,122,99,71,116,122,99,71,107,113,96,75,103,118,96,75,103,118,96,red soil
68,73,78,61,72,77,78,57,68,73,78,57,68,71,71,59,68,75,71,56,68,71,75,56,67,72,74,58,71,72,74,58,67,75,77,58,very damp grey soil
55,51,67,54,55,51,67,50,55,51,70,54,52,46,80,63,56,49,73,59,56,49,69,52,56,48,75,64,52,48,75,60,56,51,72,57,vegetation stubble
50,36,118,128,43,31,139,143,46,29,133,139,51,45,104,100,48,37,123,129,44,32,128,137,49,37,112,118,52,43,104,103,49,37,117,122,cotton crop
49,34,117,125,46,32,117,125,46,32,117,122,46,37,114,120,46,34,124,131,46,32,124,139,50,53,101,101,47,37,110,122,44,37,124,136,cotton crop
53,79,96,78,46,79,87,78,50,79,96,78,55,79,93,75,51,75,93,75,51,79,96,79,56,83,96,85,56,83,108,85,56,83,100,81,red soil
68,94,94,79,76,94,111,79,80,98,106,83,71,83,87,70,76,91,91,74,76,95,104,81,67,75,85,71,67,75,96,79,75,83,96,83,damp grey soil
84,95,100,78,80,91,96,81,71,87,91,74,79,95,96,79,79,91,93,75,79,91,96,75,82,96,100,81,78,91,96,78,78,91,96,78,damp grey soil
80,95,104,74,76,91,104,74,76,95,100,78,75,91,96,75,75,91,96,71,79,87,93,71,74,87,92,70,74,87,88,70,78,87,84,70,damp grey soil
67,83,81,67,67,79,81,62,67,79,77,62,66,79,80,63,66,75,84,63,66,75,84,63,63,70,82,68,63,66,93,79,63,63,93,83,very damp grey soil
53,79,93,73,50,79,97,80,53,84,97,83,57,77,98,76,57,81,98,83,57,85,98,79,56,87,104,85,56,87,100,81,56,87,100,78,red soil
60,62,67,50,60,62,67,54,64,69,74,61,56,54,67,52,53,57,67,52,60,64,75,63,55,54,60,46,55,54,67,50,55,58,70,54,vegetation stubble
63,63,97,90,67,75,101,87,70,84,101,87,80,94,111,91,84,106,111,91,92,115,120,102,84,112,118,96,92,116,128,103,97,121,128,103,grey soil
88,103,113,85,88,107,113,85,84,103,104,81,88,107,113,87,88,103,109,87,88,103,104,79,90,104,112,89,86,100,108,89,86,104,108,89,grey soil
85,106,105,80,93,111,114,90,93,115,114,94,92,115,115,94,92,120,125,98,92,115,115,87,97,112,122,92,97,116,122,96,92,103,113,88,grey soil
63,99,113,92,67,99,109,87,63,95,104,87,63,100,112,92,70,104,117,92,63,96,112,89,67,99,110,94,63,95,110,90,63,95,105,90,red soil
70,100,112,92,70,100,112,96,66,104,122,96,75,108,119,98,75,103,119,98,71,99,114,98,74,106,114,97,70,111,119,97,70,102,114,94,red soil
71,111,128,100,71,116,123,100,71,107,118,96,70,113,127,100,70,113,122,100,70,118,127,100,67,112,124,101,67,112,124,98,67,112,130,101,red soil
70,113,122,100,70,118,127,100,70,113,122,96,67,112,124,98,67,112,130,101,71,108,130,101,70,111,119,101,67,111,119,94,67,111,119,97,red soil
64,83,83,67,64,79,79,63,71,83,83,67,71,79,85,67,71,83,85,62,67,83,81,67,66,79,84,63,66,79,80,63,66,79,80,63,very damp grey soil
71,84,93,75,75,88,93,75,75,77,86,68,74,88,97,76,74,79,89,73,67,79,85,65,68,89,94,83,68,85,98,87,72,89,94,79,damp grey soil
67,68,70,54,67,72,74,54,67,72,74,54,63,71,73,55,63,71,73,55,66,75,73,59,67,73,75,57,67,81,82,60,67,81,82,64,very damp grey soil
68,69,78,54,68,69,71,57,68,73,71,57,68,71,75,59,64,75,75,56,68,71,71,56,67,72,74,54,67,68,74,54,67,72,70,54,very damp grey soil
46,32,105,113,49,45,82,72,52,42,79,72,50,37,101,104,47,40,93,94,50,40,82,80,44,29,115,120,47,31,106,105,47,37,94,87,cotton crop
46,32,124,139,46,32,124,139,42,34,124,135,44,34,124,140,44,34,129,140,44,34,124,136,47,34,131,139,44,31,136,139,44,31,125,139,cotton crop
63,100,112,92,70,104,117,92,63,96,112,89,67,99,110,94,63,95,110,90,63,95,105,90,60,88,101,83,60,75,93,83,63,79,97,83,red soil
52,71,84,70,56,75,92,74,56,79,88,78,56,73,86,75,59,77,90,79,59,84,97,83,53,71,85,69,53,75,93,76,57,79,97,80,red soil
63,68,70,54,67,68,74,58,67,72,74,58,59,71,73,55,63,71,73,59,63,75,73,59,67,73,72,57,63,70,75,57,67,73,79,60,very damp grey soil
67,68,74,54,67,72,74,58,67,72,70,58,66,71,73,55,66,71,69,55,66,71,73,55,67,73,72,57,63,70,72,57,63,70,68,57,very damp grey soil
70,79,84,70,66,79,80,70,70,79,80,66,67,84,93,72,71,81,90,72,71,81,82,75,67,84,97,80,67,84,93,76,67,84,89,73,damp grey soil
67,108,124,98,67,108,130,101,67,112,124,98,67,111,119,94,63,111,124,97,63,111,124,101,68,115,125,98,68,115,125,98,60,111,125,98,red soil
44,32,134,141,48,32,134,141,44,32,134,137,46,32,138,144,46,32,133,144,46,32,133,136,46,32,135,142,46,32,130,142,46,32,124,139,cotton crop
79,91,101,83,83,91,101,83,87,95,97,79,78,92,97,87,78,97,101,83,82,102,105,87,76,85,98,79,80,94,102,83,88,106,106,87,very damp grey soil
70,79,97,80,78,92,97,76,82,102,105,76,68,77,82,61,68,81,90,68,76,85,94,76,68,75,75,59,68,75,83,59,71,79,83,67,very damp grey soil
67,66,72,57,63,66,68,57,63,63,68,53,67,71,74,62,63,71,74,58,63,67,67,51,64,77,74,61,64,73,74,61,64,66,71,57,very damp grey soil
64,71,67,59,68,71,75,59,64,75,75,56,67,72,77,54,67,72,74,54,67,68,74,54,66,75,76,59,66,79,80,59,66,71,73,55,very damp grey soil
92,106,106,87,88,106,115,87,88,106,106,87,84,103,104,81,84,103,104,81,88,103,104,81,88,103,104,79,79,95,100,79,79,103,100,79,grey soil
80,95,100,81,84,103,108,88,88,112,113,88,84,95,100,79,84,99,104,83,88,107,113,87,82,96,100,81,82,91,104,78,86,100,108,85,grey soil
88,95,100,79,88,95,100,83,88,103,100,83,86,104,104,85,82,100,100,85,82,100,104,78,83,103,105,86,83,103,110,83,83,99,101,79,grey soil
76,94,102,76,76,94,102,76,76,94,102,76,80,95,100,78,80,95,100,78,80,91,100,78,79,95,100,79,79,95,96,75,79,95,100,75,damp grey soil
50,52,82,79,57,66,82,72,60,77,90,83,53,64,83,78,56,68,87,74,60,71,91,81,59,75,89,75,59,79,89,71,63,79,93,75,vegetation stubble
67,73,79,57,63,73,72,57,67,73,79,60,63,71,74,58,63,71,74,58,63,71,74,58,68,69,74,57,64,73,74,54,64,73,78,57,very damp grey soil
97,115,114,94,97,111,114,94,93,115,114,94,97,120,120,98,97,120,120,94,97,115,115,94,92,112,122,92,92,112,118,92,88,107,108,88,grey soil
84,111,118,92,93,111,113,92,93,111,113,92,95,118,117,96,95,118,122,96,99,118,117,92,92,112,124,94,92,112,114,98,92,108,114,90,grey soil
66,79,76,63,70,79,80,63,70,79,80,63,63,77,82,60,63,77,79,64,67,77,75,60,67,75,78,62,63,75,85,58,63,79,85,62,very damp grey soil
63,112,119,94,63,108,114,94,63,103,114,94,63,106,114,94,63,102,114,90,63,102,119,94,64,106,120,94,64,102,115,94,64,102,115,94,red soil
75,91,96,75,79,87,96,71,75,87,93,71,74,87,92,70,74,91,92,70,74,87,92,66,75,84,90,68,75,84,82,68,71,81,82,64,damp grey soil
50,73,90,76,50,69,86,72,53,69,86,72,50,71,91,78,50,68,87,74,50,71,87,70,48,61,81,67,48,64,85,71,51,72,85,75,red soil
76,85,94,76,76,98,98,76,80,98,98,76,76,91,96,74,76,91,96,74,76,91,100,74,71,87,89,71,75,83,89,71,75,87,93,71,very damp grey soil
89,102,105,87,89,106,114,94,93,111,119,97,88,106,106,87,88,111,111,94,92,111,115,94,84,103,108,85,84,103,108,88,92,107,108,85,grey soil
84,116,122,99,76,112,118,92,71,103,108,88,71,103,113,96,67,99,113,87,63,91,104,87,66,91,100,81,63,87,100,81,63,87,104,85,red soil
92,108,114,90,96,108,110,90,96,112,114,94,89,111,114,87,93,111,110,87,93,111,114,90,84,106,111,83,84,98,102,83,84,106,111,83,grey soil
52,56,80,74,59,67,88,74,63,71,92,81,49,45,86,86,49,51,86,83,59,70,90,72,44,43,82,87,50,46,82,83,57,67,85,76,vegetation stubble
53,71,87,74,53,71,83,74,53,71,87,74,55,79,93,75,51,75,89,75,51,68,85,75,52,75,88,78,52,75,88,78,52,71,84,74,red soil
47,37,106,109,41,34,115,113,44,29,115,120,40,31,104,107,43,31,104,114,43,29,113,114,44,32,104,104,44,34,104,104,44,32,109,104,cotton crop
56,54,87,78,56,57,87,70,56,57,83,67,55,54,85,71,55,54,85,71,55,58,81,71,56,60,84,74,56,56,88,74,56,53,84,74,vegetation stubble
59,63,97,90,59,60,97,90,59,63,93,90,60,71,97,83,60,60,97,87,63,71,101,87,60,77,90,83,60,66,102,91,60,62,106,94,vegetation stubble
67,75,77,58,67,75,77,58,67,72,77,58,66,79,76,59,70,79,76,59,70,79,80,63,71,77,82,60,71,81,82,60,67,77,86,64,very damp grey soil
92,115,115,94,92,111,120,91,84,106,111,87,88,112,118,92,88,112,122,88,92,112,128,92,88,111,113,92,93,107,109,92,93,111,113,92,grey soil
63,75,97,80,63,79,85,80,60,75,89,80,60,81,90,79,68,89,106,87,68,98,111,91,64,91,113,88,64,95,113,88,68,103,113,88,red soil
75,87,96,79,75,79,96,79,75,83,96,79,74,79,92,74,74,79,88,74,74,83,88,78,71,73,86,68,71,77,90,72,75,91,101,83,very damp grey soil
92,112,113,88,88,103,113,85,97,107,113,88,88,111,118,92,93,107,113,87,93,107,113,87,90,104,117,92,90,109,112,89,90,109,112,89,grey soil
46,30,119,139,42,32,114,135,42,30,110,139,44,31,114,140,44,31,114,133,44,31,114,133,47,34,111,128,44,34,115,128,44,31,115,131,cotton crop
70,83,88,70,78,91,96,78,74,91,92,78,59,70,75,60,71,84,90,72,75,91,101,75,63,67,70,58,63,75,82,65,74,88,89,76,damp grey soil
51,48,81,79,48,42,74,75,48,48,67,71,56,53,80,74,49,49,76,74,49,46,69,66,59,63,79,72,59,60,75,68,52,54,75,68,vegetation stubble
88,106,111,91,88,106,111,87,88,106,111,91,92,107,118,88,88,103,104,85,84,99,104,81,84,99,109,79,79,95,100,79,84,103,109,79,grey soil
80,99,104,81,80,99,104,78,76,91,96,74,75,99,100,79,79,99,104,83,79,99,109,83,78,96,104,81,82,100,104,81,82,100,104,85,grey soil
87,99,105,83,83,103,105,86,83,103,105,79,89,106,114,83,82,102,105,83,78,102,105,83,84,102,102,83,80,98,98,79,84,98,106,83,grey soil
68,77,74,57,64,73,82,61,64,73,78,57,64,75,75,52,64,68,75,56,64,68,71,56,71,75,77,54,67,72,74,54,67,75,70,54,very damp grey soil
46,29,122,125,46,32,112,118,46,34,112,118,42,32,119,127,42,34,110,120,46,34,110,116,44,31,124,133,44,31,114,122,47,34,114,126,cotton crop
64,106,125,98,64,111,120,98,64,111,125,102,64,107,118,99,64,107,122,96,68,107,122,99,67,107,118,96,71,116,118,100,71,111,123,104,red soil
63,67,69,55,63,71,73,59,63,75,76,59,71,81,75,68,75,88,90,72,79,95,101,79,85,102,114,83,85,102,110,87,89,106,110,87,very damp grey soil
74,79,84,66,82,87,96,78,82,96,100,78,67,77,82,64,71,88,93,72,79,99,101,79,67,84,82,65,67,84,85,69,78,97,101,83,very damp grey soil
63,103,113,87,63,107,113,92,63,99,113,92,59,104,112,92,59,100,104,81,59,96,104,81,63,99,114,90,63,99,110,86,59,95,105,86,red soil
68,73,71,61,64,69,71,57,60,69,74,54,68,75,79,63,60,68,67,52,60,61,67,56,67,75,77,62,63,68,70,54,63,64,67,54,very damp grey soil
68,107,122,96,68,112,128,99,76,112,122,99,67,111,123,100,67,111,118,100,71,111,123,96,66,113,127,100,66,109,122,100,66,109,122,96,red soil
79,91,96,75,79,87,93,71,75,91,96,75,78,87,96,70,78,87,96,70,74,87,92,70,75,84,93,68,75,84,90,68,75,84,90,68,damp grey soil
43,27,108,125,46,29,108,122,49,40,96,100,42,32,101,127,46,30,110,127,46,32,110,120,44,31,110,129,42,29,110,126,42,27,110,129,cotton crop
66,75,80,70,66,75,88,70,70,79,88,74,67,73,86,72,71,77,90,72,71,81,90,75,70,79,85,73,74,84,89,76,74,84,97,76,very damp grey soil
84,103,109,79,88,107,109,83,88,107,109,87,86,100,108,85,86,104,108,89,86,109,112,89,87,103,105,83,83,103,114,86,87,112,119,90,damp grey soil
76,85,98,79,76,85,98,79,80,94,102,83,76,83,96,78,76,83,91,78,80,95,100,81,75,79,96,79,75,83,96,79,88,95,109,87,very damp grey soil
59,83,96,79,71,99,104,87,67,103,109,87,56,83,100,78,59,87,96,81,66,100,108,89,52,84,97,83,56,81,97,79,59,84,93,79,red soil
82,100,100,81,82,100,96,78,78,96,100,81,83,99,101,79,83,95,101,79,79,91,105,79,89,106,101,80,74,75,97,83,53,49,114,108,damp grey soil
63,96,104,89,66,100,108,92,63,100,117,96,59,99,114,90,59,99,114,90,59,95,119,90,60,88,110,83,57,92,110,87,57,97,110,87,red soil
46,32,122,122,46,32,122,125,46,29,122,129,46,30,119,131,46,32,114,127,42,34,119,135,47,37,119,133,53,43,114,119,53,56,101,97,cotton crop
84,103,104,83,84,99,100,79,79,99,104,79,86,113,112,89,86,109,104,85,82,100,104,81,96,112,119,94,92,108,114,90,87,103,105,83,grey soil
64,79,87,67,60,83,91,74,60,99,108,88,63,87,89,71,67,91,100,79,71,103,109,87,63,87,92,78,63,87,96,74,63,91,100,78,red soil
80,102,102,79,76,102,102,79,76,102,106,83,76,99,108,85,76,103,118,88,80,107,118,88,79,107,109,87,79,107,109,87,79,107,113,87,grey soil
90,109,112,89,86,109,108,89,86,104,108,85,87,103,105,86,87,108,110,86,87,112,114,90,89,106,114,87,89,106,110,87,89,106,114,90,grey soil
50,71,85,76,47,67,85,69,47,71,85,73,53,69,82,72,50,66,82,72,50,73,90,76,50,71,87,74,50,75,91,74,53,75,87,78,red soil
64,77,82,65,60,77,82,65,60,77,82,65,64,75,83,67,68,79,83,67,68,83,87,70,67,87,81,71,67,87,93,75,67,87,93,79,very damp grey soil
67,75,78,62,67,79,78,62,67,79,78,62,68,73,74,57,64,73,78,57,68,73,78,61,71,75,75,56,68,75,75,59,68,75,79,59,very damp grey soil
56,81,97,83,59,84,93,83,59,81,101,83,57,84,101,83,53,84,101,87,50,79,93,80,53,77,94,76,53,77,94,76,53,77,90,76,red soil
67,68,89,79,63,68,85,79,67,68,89,79,70,79,96,78,70,79,92,81,70,67,88,78,79,84,93,75,71,81,93,79,71,77,93,79,vegetation stubble
63,63,72,60,63,66,72,64,59,57,75,64,70,79,82,62,67,75,74,62,60,63,74,58,72,81,86,68,72,77,78,61,64,73,74,57,very damp grey soil
75,87,89,71,79,91,93,75,79,95,96,75,66,79,80,59,74,79,84,66,82,87,96,78,67,81,82,64,67,77,82,64,71,88,93,72,very damp grey soil
72,89,94,72,76,89,94,72,80,94,94,72,80,87,96,70,80,91,96,70,80,91,96,74,79,91,96,71,79,91,96,75,79,87,93,71,damp grey soil
53,62,86,83,50,52,82,83,50,52,78,83,56,71,96,85,56,68,91,81,56,64,91,81,59,75,96,87,59,72,96,83,59,75,96,75,vegetation stubble
60,89,102,83,60,85,102,83,64,98,115,91,60,75,91,78,56,68,83,74,64,83,96,88,59,72,85,71,55,68,85,75,63,79,96,83,red soil
60,83,100,78,53,75,87,74,56,79,96,78,63,87,96,83,59,83,89,79,59,95,109,87,59,83,100,81,59,83,100,81,59,87,104,85,red soil
74,84,101,83,74,88,101,80,70,88,93,69,80,98,106,83,76,98,102,79,76,89,94,72,80,99,104,81,80,99,104,81,80,99,104,78,grey soil
71,99,110,94,67,77,97,79,63,66,90,79,67,97,114,90,67,84,101,87,74,92,105,90,76,106,115,94,76,102,111,98,80,111,125,102,red soil
63,73,75,57,63,73,79,57,67,81,82,60,67,79,82,58,67,75,82,62,67,75,82,62,68,81,78,61,68,77,78,61,68,77,78,57,very damp grey soil
59,63,90,75,67,70,86,64,67,77,86,60,74,88,85,73,74,84,85,73,70,84,93,65,76,94,98,76,76,89,94,72,72,85,86,68,damp grey soil
70,79,88,63,74,87,88,70,70,83,84,66,63,73,75,57,67,84,79,68,71,91,90,72,60,71,70,58,63,75,74,62,67,84,85,69,very damp grey soil
56,87,104,85,56,87,100,81,56,87,100,78,63,99,113,92,67,99,109,87,63,95,104,87,63,100,112,92,70,104,117,92,63,96,112,89,red soil
53,46,110,111,60,63,97,94,70,79,97,80,68,77,86,65,68,77,78,61,68,77,82,61,64,68,75,56,64,71,75,56,68,75,75,59,very damp grey soil
70,113,117,96,74,113,117,96,74,113,122,100,67,108,119,98,71,108,114,98,71,112,119,98,67,115,124,97,67,115,119,97,70,111,119,97,red soil
75,87,89,71,75,87,85,71,71,83,89,75,70,83,88,70,78,83,88,74,74,83,88,70,75,84,90,75,75,88,97,75,75,84,93,75,very damp grey soil
63,95,105,86,56,81,90,79,52,77,90,75,57,97,105,90,57,84,101,80,50,79,101,76,57,94,111,87,53,85,102,87,50,73,94,76,red soil
63,79,88,78,56,63,84,70,59,67,84,74,59,73,93,75,63,73,93,75,59,81,93,79,63,92,105,87,63,92,105,87,60,92,110,90,red soil
70,79,84,66,74,87,92,74,74,83,84,66,71,77,82,68,71,88,93,72,75,84,90,68,70,79,85,65,67,79,82,65,67,79,78,65,very damp grey soil
67,73,79,60,63,66,72,60,67,70,72,60,67,71,74,58,63,67,70,55,67,71,70,58,64,69,74,61,64,66,67,54,64,69,74,61,very damp grey soil
101,115,120,94,97,111,115,87,80,89,98,72,97,112,122,88,101,112,118,92,92,107,113,85,97,111,113,87,93,107,113,92,88,111,118,92,grey soil
46,32,138,144,46,32,138,144,46,32,133,144,46,32,130,142,46,32,135,142,46,32,130,142,44,34,129,143,44,31,124,143,44,34,119,140,cotton crop
88,106,106,87,88,106,111,87,88,111,111,87,88,107,113,88,88,107,118,88,88,103,118,85,84,103,109,83,88,103,113,87,88,107,109,87,grey soil
66,71,80,66,66,63,76,66,59,60,73,63,71,77,86,68,67,73,75,60,63,66,68,57,74,84,85,69,74,79,85,69,67,79,82,65,very damp grey soil
97,116,118,96,97,116,123,96,93,116,123,96,99,113,117,92,95,118,122,96,95,118,117,92,92,112,110,90,96,112,119,90,96,112,114,94,grey soil
66,79,84,63,66,79,88,66,70,79,88,66,63,77,86,72,63,73,97,83,59,60,110,98,53,49,110,108,47,40,119,122,42,37,119,129,cotton crop
60,60,93,80,63,63,97,90,67,75,101,87,72,81,102,87,80,94,111,91,84,106,111,91,84,107,118,96,84,112,118,96,92,116,128,103,grey soil
70,88,105,87,74,92,114,94,74,92,110,94,64,85,98,79,64,85,102,91,64,77,106,98,60,75,96,78,64,68,104,88,64,64,108,92,vegetation stubble
76,89,90,68,72,81,82,61,68,77,74,61,76,91,96,74,76,87,96,70,71,79,83,59,75,87,89,67,75,83,89,71,71,83,85,67,damp grey soil
63,71,73,59,63,67,69,55,63,71,73,59,67,77,82,64,71,81,75,68,75,88,90,72,85,106,110,83,85,102,114,83,85,102,110,87,very damp grey soil
51,68,85,71,51,68,77,71,51,64,77,71,49,71,88,74,49,67,88,70,52,67,84,70,49,73,93,79,52,77,93,75,49,73,86,75,red soil
63,71,74,55,67,71,78,58,67,75,78,62,80,89,94,72,80,89,94,76,80,98,98,79,84,103,113,81,84,99,104,85,84,103,108,81,very damp grey soil
