mdr1_6_nbd_ori_total_dock_results_copy3.txt,2hyd_nbd_1_ori_total_dock_results_copy3.txt,3b5x_nbd_ori_total_dock_results_copy3.txt,3b5z_nbd_1_ori_total_dock_results_copy3.txt,3b5z_nbd_2_ori_total_dock_results_copy3.txt,transition_1_nbd_ori_total_dock_results_copy3.txt,transition_2_nbd_ori_total_dock_results_copy3.txt,3b5x_dbd_ori_total_dock_results_copy3.txt,3b5z_dbd_1_ori_total_dock_results_copy3.txt,3b5z_dbd_2_ori_total_dock_results_copy3.txt,mdr1_6_dbd_ori_total_dock_results_copy3.txt,2hyd_dbd_1_ori_total_dock_results_copy3.txt,transition_1_dbd_ori_total_dock_results_copy3.txt,transition_2_dbd_ori_total_dock_results_copy3.txt,pgp_nbd_mean,pgp_dbd_mean,pgp_dbd_mean2,pgp_ratio,mdr1_6_dbd-nbd,2hyd_ratio_1,pgp_ratio_w_3b5xdbd,3b5x_ratio,3b5z_1_dbd-nbd,3b5z_2_dbd-nbd,cLogP,cLogS,H-Acceptors,H-Donors,Total Surface Area,Relative PSA,Polar Surface Area,Druglikeness,Shape Index,Molecular Flexibility,Molecular Complexity,Non-H Atoms,Electronegative Atoms,Stereo Centers,Rotatable Bonds,Small Rings,Aromatic Rings,Aromatic Atoms,sp3-Atoms,Symmetric atoms,Amides,Amines,Alkyl-Amines,Aromatic Amines,Aromatic Nitrogens,Basic Nitrogens,Acidic Oxygens,Total Molweight,Mutagenic,Tumorigenic,Reproductive Effective,Irritant,reverser,group,simple_group,Class
9.24627e-08,2.54445e-07,9.81213e-07,1.29571e-07,4.99664e-07,2.54445e-07,2.54445e-07,3.01207e-07,2.28097e-06,1.37501e-06,1.92685e-06,7.00198e-07,7.00198e-07,1.53384e-07,2.08e-07,1.42e-06,1.24e-06,6.824424474,20.83914647,2.75186475,5.92787988,0.306974099,17.60399318,2.751867255,4.7569,-5.032,5,1,325.4,0.13718,52.65,8.3767,0.55172,0.50514,0.80649,29,8,1,4,3,2,12,8,2,2,1,1,0,0,1,0,454.784,10,10,10,0,1,1,1,0
3.74813e-09,1.03143e-08,3.36e-08,7.36036e-09,9.24627e-08,3.36e-08,1.44539e-08,1.09456e-07,2.83837e-08,1.81573e-07,2.14943e-07,1.09456e-07,3.9775e-08,7.36036e-09,2.35e-08,1.15e-07,1.14e-07,4.88066021,57.34871932,10.61198267,4.842615349,3.257603823,3.856521739,1.963736846,3.5918,-6.091,9,1,327.01,0.31861,126.14,7.3608,0.59375,0.33878,0.87835,32,11,0,3,5,3,17,6,5,1,0,0,0,2,1,0,471.924,10,0,10,10,0,4,4,0
3.56563e-07,8.28881e-07,2.70016e-06,3.56563e-07,2.54445e-07,4.22092e-07,3.01207e-07,1.92685e-06,2.70016e-06,3.1964e-06,7.43049e-06,4.47923e-06,1.62771e-06,8.28881e-07,4.31e-07,4.32e-06,3.92e-06,10.02786226,20.83920093,5.403956054,9.102347432,0.713604596,7.572757128,12.56225117,0.6374,-2.983,9,3,281.76,0.47966,180.76,5.5875,0.59259,0.46824,0.79977,27,11,0,5,3,3,17,1,3,3,0,0,0,2,0,0,403.442,10,10,10,10,0,4,4,1
1.03143e-08,1.53384e-07,3.36e-08,2.14943e-07,3.01207e-07,3.01207e-07,1.53384e-07,3.01207e-07,1.37501e-06,5.91493e-07,4.22092e-07,5.91493e-07,3.56563e-07,9.24627e-08,1.72e-07,7.92e-07,7.1e-07,4.598564697,40.92418073,3.856287875,4.123522949,8.964485131,6.397086669,1.963742543,1.8508,-6.817,8,0,229.95,0.36908,91.5,-5.9709,0.52174,0.32925,0.86986,23,9,0,2,4,3,15,3,0,0,0,0,0,5,0,0,329.703,10,10,0,10,0,5,4,0
2.39771e-08,8.71305e-09,7.8108e-08,1.22099e-08,3.9775e-08,2.83837e-08,7.8108e-08,2.54445e-07,3.01207e-07,3.56563e-07,3.56563e-07,2.54445e-07,3.01207e-07,5.57382e-08,1.8e-08,2.76e-07,2.72e-07,15.32604232,14.87104308,29.20274104,15.12957188,3.257603823,24.66887797,8.964500314,2.3564,-1.964,9,1,287.47,0.34355,120.78,9.0366,0.51724,0.44171,0.89531,29,10,0,2,5,4,18,5,3,2,0,0,0,3,0,0,411.441,0,10,10,10,1,3,3,0
1.29571e-07,5.91493e-07,1.53384e-07,3.56563e-07,8.28881e-07,3.56563e-07,8.28881e-07,1.16154e-06,7.43049e-06,3.78384e-06,6.27691e-06,3.78384e-06,4.99664e-07,5.91493e-07,4.81e-07,5.15e-06,4.49e-06,10.70343706,48.44381845,6.397097787,9.321808974,7.572759602,20.83920093,4.564996664,-1.216,-2.307,10,2,252.62,0.45242,148.13,3.5696,0.56,0.49953,0.84517,25,11,0,4,3,2,11,3,1,3,0,0,0,2,0,0,362.369,10,10,10,0,0,4,4,0
3.16623e-09,4.70849e-08,7.8108e-08,2.83837e-08,6.59818e-08,4.22092e-07,6.59818e-08,7.8108e-08,4.22092e-07,3.56563e-07,4.22092e-07,1.53384e-07,5.57382e-08,3.36e-08,5.08e-08,3.55e-07,3.09e-07,6.991018035,133.320278,3.257603823,6.082035351,1.0,14.87077227,5.4039435,4.2935,-4.516,6,1,361.5,0.21934,95.47,9.449,0.55882,0.43546,0.85699,34,7,0,6,5,4,22,6,6,2,0,0,0,2,0,0,470.595,10,10,10,10,1,1,1,0
6.21767e-09,1.44539e-08,2.02547e-08,1.03143e-08,3.9775e-08,1.22099e-08,2.39771e-08,2.39771e-08,2.14943e-07,1.09456e-07,9.24627e-08,5.57382e-08,1.44539e-08,8.71305e-09,1.82e-08,1.13e-07,9.82e-08,6.208404984,14.8702155,3.856287875,5.393203922,1.183780498,20.83992631,2.751879321,3.9334,-5.991,7,2,336.15,0.21853,82.49,7.1562,0.52941,0.37505,0.9569,34,7,0,4,6,5,22,4,0,1,0,0,0,2,0,0,449.513,0,10,10,0,0,1,1,0
3.9775e-08,1.71102e-08,5.57382e-08,2.39771e-08,5.57382e-08,1.15058e-09,4.70849e-08,7.8108e-08,3.01207e-07,2.54445e-07,1.81573e-07,1.81573e-07,1.22099e-08,1.71102e-08,3.21e-08,2.35e-07,2.09e-07,7.306385614,4.565003143,10.61198267,6.494003511,1.401336267,12.56233057,4.565018479,4.0231,-5.127,7,1,301.52,0.24078,80.23,0.58511,0.51613,0.27829,0.91096,31,8,0,3,5,2,12,8,2,1,0,0,0,0,0,0,421.427,10,10,10,10,0,4,4,0
1.09456e-07,6.59818e-08,2.02547e-08,7.8108e-08,4.70849e-08,3.36e-08,3.9775e-08,5.57382e-08,3.56563e-07,7.00198e-07,3.01207e-07,2.14943e-07,5.57382e-08,5.57382e-08,6.68e-08,3.4e-07,2.93e-07,5.093737896,2.751854627,3.257603823,4.383753165,2.75186475,4.564999744,14.87093554,4.3017,-5.78,8,2,351.67,0.30679,132.53,6.4756,0.60606,0.37389,0.85376,33,10,1,6,4,3,17,6,3,3,0,0,0,2,0,0,483.979,10,10,10,10,0,2,2,0
6.59818e-08,4.70849e-08,9.24627e-08,5.57382e-08,1.53384e-07,1.81573e-07,2.54445e-07,1.29571e-07,5.91493e-07,5.91493e-07,3.01207e-07,4.99664e-07,7.8108e-08,3.01207e-07,9.04e-08,4.4e-07,3.88e-07,4.867182212,4.564987421,10.61198267,4.294997135,1.401336267,10.61202411,3.856288792,3.9847,-8.501,7,1,324.95,0.29506,111.14,2.4887,0.5,0.40269,0.83438,30,8,0,6,4,4,22,5,2,1,0,0,0,4,0,0,419.508,10,0,7,10,0,1,1,0
1.71102e-08,4.70849e-08,1.81573e-07,9.24627e-08,3.36e-08,1.09456e-07,1.29571e-07,3.01207e-07,4.22092e-07,5.91493e-07,4.99664e-07,3.56563e-07,1.53384e-07,9.24627e-08,4.21e-08,4.45e-07,4.21e-07,10.57597355,29.20303916,7.572759602,10.00566646,1.658874543,4.56498275,17.60395833,1.5172,-3.712,9,2,383.86,0.23261,97.2,6.7903,0.57143,0.42331,0.93484,35,10,1,6,5,3,15,15,4,1,1,1,0,4,1,0,499.037,10,10,7,10,0,1,1,0
1.03143e-08,3.9775e-08,9.24627e-08,2.02547e-08,1.09456e-07,2.02547e-08,4.70849e-08,1.81573e-07,1.09456e-07,3.56563e-07,1.81573e-07,4.22092e-07,2.83837e-08,7.8108e-08,3.64e-08,2.74e-07,2.59e-07,7.529920392,17.60451813,10.61198267,7.106042194,1.963743332,5.403900272,3.257592092,2.4181,-5.225,9,1,368.14,0.22399,87.89,4.3755,0.61111,0.37908,0.86559,36,11,0,7,5,4,21,8,2,1,1,0,1,4,1,0,493.516,10,10,10,10,1,5,4,0
2.02547e-08,5.57382e-08,5.57382e-08,2.02547e-08,6.59818e-08,1.09456e-07,4.70849e-08,2.39771e-08,1.81573e-07,1.81573e-07,7.8108e-08,3.56563e-07,1.29571e-07,2.02547e-08,3.65e-08,2.03e-07,1.73e-07,5.54984884,3.856233029,6.397097787,4.734368144,0.430173938,8.96435448,2.751856567,3.8026,-5.634,8,2,329.9,0.28027,101.52,-1.0875,0.44118,0.33048,0.92703,34,11,0,6,5,4,20,3,2,1,0,0,0,2,1,0,467.406,10,10,0,10,0,4,4,1
3.01207e-07,3.01207e-07,9.81213e-07,1.16154e-06,4.99664e-07,1.37501e-06,1.37501e-06,1.62771e-06,2.70016e-06,1.92685e-06,3.78384e-06,1.62771e-06,1.62771e-06,5.91493e-07,6.18e-07,2.24e-06,2.14e-06,3.621699287,12.56225453,5.403956054,3.456700134,1.658874543,2.324642285,3.856291428,2.1712,-4.767,5,2,243.71,0.26482,83.65,4.1333,0.63636,0.51569,0.68745,22,7,0,4,2,2,12,3,3,2,0,0,0,0,0,0,338.814,10,10,10,10,0,1,1,0
2.14e-09,1.71e-09,3.81e-08,1.15e-09,3.81e-08,5.38e-08,1.13e-08,3.17e-09,5.57e-08,7.81e-08,1.57e-07,1.73259e-07,2.71e-08,2.03e-09,9.38e-09,1.16e-07,9.72e-08,12.37175561,73.06996456,101.3212349,10.36606231,0.083114185,48.4436837,2.047846679,7.1278,-9.157,6,1,453.33,0.16857,92.53,3.5633,0.44186,0.47236,0.90777,43,7,0,7,6,5,29,8,9,2,0,0,0,2,0,0,586.758,7,7,10,10,1,6,5,0
3.01207e-07,8.28881e-07,2.70016e-06,7.00198e-07,4.99664e-07,4.99664e-07,4.22092e-07,1.23262e-05,8.79607e-06,7.43049e-06,4.47923e-06,1.72732e-05,1.37501e-06,5.30243e-06,6.32e-07,8.24e-06,8.92e-06,13.03501703,14.87094921,20.83921021,14.11431036,4.56499838,12.56225668,14.87096929,0.2033,-3.153,9,1,278.7,0.46728,158.91,4.2623,0.6,0.56752,0.75402,25,11,0,7,3,2,10,5,0,1,0,0,0,4,0,0,377.452,10,10,10,10,0,4,4,0
6.59818e-08,1.81573e-07,9.81213e-07,2.14943e-07,1.81573e-07,1.29571e-07,1.81573e-07,1.53384e-07,1.81573e-07,7.00198e-07,2.14943e-07,5.91493e-07,1.29571e-07,1.53384e-07,1.47e-07,3.53e-07,3.2e-07,2.398146488,3.257600558,3.257603823,2.171998202,0.156320887,0.844749538,3.856289206,3.7577,-5.179,6,1,292.9,0.24793,81.43,0.90725,0.55172,0.38208,0.8512,29,7,0,6,4,4,21,2,2,1,0,0,0,1,0,0,390.369,10,10,10,10,0,2,2,0
2.02547e-08,4.70849e-08,1.71102e-08,5.57382e-08,1.53384e-07,3.36e-08,5.57382e-08,2.54445e-07,4.99664e-07,4.70849e-08,1.09456e-07,3.01207e-07,3.9775e-08,3.36e-08,6.47e-08,2.13e-07,2.2e-07,3.297412569,5.403900272,6.397097787,3.403196865,14.87095618,8.964512541,0.306974652,4.146,-5.341,6,1,286.96,0.23874,77.52,-7.6149,0.5,0.41065,0.87115,30,9,1,6,4,3,18,4,2,0,0,0,0,1,0,0,414.338,10,10,0,10,0,5,4,0
7.00198e-07,1.62771e-06,1.62771e-06,2.70016e-06,1.92685e-06,1.92685e-06,8.28881e-07,5.30243e-06,4.47923e-06,8.79607e-06,8.79607e-06,8.79607e-06,1.62771e-06,7.43049e-06,1.62e-06,7.23e-06,6.91e-06,4.456358719,12.56225668,5.403956054,4.258043378,3.257603823,1.65887418,4.564998313,1.456,-3.454,8,0,240.8,0.37035,104.1,1.27,0.5,0.33398,0.8534,22,10,2,3,4,2,10,10,0,0,1,1,0,6,1,0,340.842,10,10,10,10,0,4,4,0
7.36036e-09,1.44539e-08,4.70849e-08,3.36e-08,3.9775e-08,4.43696e-09,1.71102e-08,4.70849e-08,1.81573e-07,2.54445e-07,6.59818e-08,1.81573e-07,2.39771e-08,1.22099e-08,2.11e-08,1.63e-07,1.43e-07,7.707262963,8.964945652,12.56225813,6.794625245,1.0,5.403958333,6.397108737,2.7613,-5.123,7,1,351.04,0.19323,75.94,5.3539,0.52941,0.36498,0.93607,34,8,1,5,5,4,21,8,2,1,0,0,0,4,0,0,458.539,10,10,7,10,0,5,4,1
3.16623e-09,2.83837e-08,9.24627e-08,1.22099e-08,1.29571e-07,1.22099e-08,1.09456e-07,5.57382e-08,2.54445e-07,7.8108e-08,9.24627e-08,9.24627e-08,1.09456e-07,2.02547e-08,3.64e-08,1.4e-07,1.26e-07,3.840008741,29.20499052,3.257603823,3.455156942,0.602818341,20.83906634,0.602820075,1.7036,-5.646,8,3,340.94,0.29122,135.69,-3.4933,0.51429,0.41227,0.98084,35,10,1,4,5,4,23,6,5,1,0,0,0,2,0,0,492.53,10,10,10,10,0,4,4,0
2.02547e-08,2.02547e-08,4.22092e-07,3.36e-08,9.24627e-08,1.53384e-07,1.53384e-07,9.24627e-08,4.22092e-07,5.91493e-07,1.81573e-07,4.99664e-07,1.29571e-07,1.09456e-07,5.92e-08,3.99e-07,3.48e-07,6.740075275,8.96435448,24.66905063,5.876914947,0.219058128,12.5622619,6.39707775,3.0077,-3.797,7,0,330.17,0.18148,67.15,8.9238,0.5,0.40176,0.85413,32,7,0,4,5,4,23,5,6,1,0,0,0,4,0,0,424.507,10,10,10,10,1,1,1,0
2.14943e-07,5.91493e-07,3.56563e-07,8.28881e-07,1.16154e-06,1.37501e-06,9.81213e-07,7.43049e-06,5.30243e-06,1.45916e-05,1.04126e-05,1.92685e-06,1.37501e-06,1.62771e-06,7.7e-07,6.59e-06,6.73e-06,8.549815931,48.44359667,3.257603823,8.732353468,20.83921021,6.397094396,12.56226303,3.0065,-5.274,9,3,319.57,0.3653,134.43,4.1347,0.57143,0.44953,0.86525,28,12,0,8,3,3,15,6,0,1,0,0,0,5,2,0,441.346,10,0,0,7,0,1,1,0
9.88e-09,1.37e-08,5.31e-07,6.6e-09,9.25e-08,2.23e-07,4.46e-08,1.09e-08,1.1e-07,4.46e-08,2.27e-08,2.54336e-07,3.36e-08,6.22e-09,2.59e-08,1.02e-07,8.69e-08,3.938600506,2.301557372,18.5646617,3.352537839,0.020624395,16.74553705,0.482878992,6.1229,-7.685,6,2,452.97,0.18617,101.32,4.451,0.47619,0.47165,0.86049,42,7,0,10,5,5,29,7,10,2,0,0,0,2,0,0,574.747,7,7,10,10,1,7,5,1
6.21767e-09,1.29571e-07,3.56563e-07,7.8108e-08,1.53384e-07,1.29571e-07,9.24627e-08,3.01207e-07,3.56563e-07,8.28881e-07,1.62771e-06,2.14943e-07,2.54445e-07,5.57382e-08,1.04e-07,7.24e-07,6.53e-07,6.951854306,261.7737215,1.658874543,6.275298665,0.844751203,4.564999744,5.403959996,2.8862,-5.027,7,2,274.13,0.29563,85.62,-8.205,0.57692,0.47463,0.78935,26,7,0,4,4,2,11,11,2,2,0,0,0,1,0,0,357.409,10,10,7,10,1,1,1,0
3.03e-09,6.6e-09,1.54e-06,4.44e-09,5.29e-08,4.03e-07,6.6e-09,2.84e-08,5.91e-07,6.76e-07,4.3e-08,2.02591e-08,1.89e-07,1.82e-07,1.4e-08,2.71e-07,2.31e-07,19.33622683,14.19219411,3.069561949,16.45099859,0.018389445,133.3104655,12.79468636,5.8921,-8.215,6,2,415.31,0.20305,101.32,4.0202,0.53846,0.45236,0.86921,39,7,0,8,5,5,27,6,2,2,0,0,0,2,0,0,534.682,7,0,10,10,1,6,5,0
2.83837e-08,7.8108e-08,1.09456e-07,2.02547e-08,1.53384e-07,4.70849e-08,1.29571e-07,4.70849e-08,7.00198e-07,1.37501e-06,1.29571e-07,3.56563e-07,3.9775e-08,4.70849e-08,1.07e-07,6.12e-07,5.18e-07,5.726051346,4.564930947,4.56499838,4.845108734,0.430173938,34.56914342,8.964487821,4.3343,-5.7,7,2,351.35,0.27255,113.79,5.0092,0.51515,0.37629,0.86425,33,8,0,7,5,4,22,8,3,1,0,0,0,5,0,0,458.588,7,7,7,10,1,1,1,0
4.70849e-08,1.29571e-07,2.54445e-07,1.29571e-07,1.09456e-07,1.09456e-07,1.09456e-07,1.81573e-07,4.99664e-07,8.28881e-07,8.28881e-07,7.00198e-07,9.24627e-08,1.81573e-07,8.49e-08,7.12e-07,6.23e-07,8.383254009,17.60392906,5.403956054,7.342577064,0.713604596,3.856295004,7.572732422,2.0078,-4.356,7,1,299.53,0.28384,106.63,4.1409,0.64286,0.44559,0.78115,28,9,0,6,3,3,18,4,3,1,0,0,0,2,0,0,417.872,10,10,0,10,0,5,4,0
1.22099e-08,2.67468e-09,4.70849e-08,1.03143e-08,2.39771e-08,5.25239e-09,3.9775e-08,2.39771e-08,6.59818e-08,9.24627e-08,5.57382e-08,5.57382e-08,5.57382e-08,3.74813e-09,1e-08,6.96e-08,6.2e-08,6.960981067,4.564946765,20.83921021,6.200459453,0.509231519,6.397324026,3.856320641,4.2071,-7.32,6,0,290.27,0.24977,94.48,0.026395,0.48387,0.27228,0.98335,31,7,2,2,7,3,17,8,2,0,0,0,0,2,0,0,432.499,7,0,7,0,0,4,4,0
1.53384e-07,9.81213e-07,1.37501e-06,5.91493e-07,4.99664e-07,1.16154e-06,3.01207e-07,4.47923e-06,6.27691e-06,1.23262e-05,1.62771e-06,4.47923e-06,1.37501e-06,9.81213e-07,5.45e-07,5.22e-06,5.09e-06,9.571048177,10.61198691,4.56499838,9.345459531,3.257603823,10.61198357,24.66907162,0.7848,-4.849,9,1,239.76,0.55506,156.55,1.1247,0.63636,0.40673,0.77052,22,11,1,5,4,3,14,7,0,0,0,0,0,7,0,0,336.403,10,10,10,10,0,4,4,1
1.44539e-08,8.71305e-09,1.53384e-07,1.44539e-08,7.8108e-08,1.71102e-08,5.57382e-08,6.59818e-08,8.28881e-07,3.56563e-07,3.56563e-07,4.99664e-07,1.29571e-07,7.8108e-08,2.72e-08,4.59e-07,3.94e-07,16.88525765,24.6688114,57.346688,14.47539759,0.430173938,57.34613256,4.564999744,2.7689,-3.847,8,1,360.13,0.23455,101.91,1.2327,0.48571,0.42911,0.86889,35,9,0,5,5,4,23,6,7,2,0,0,0,2,0,0,488.567,10,10,10,0,1,1,1,0
2.39771e-08,5.57382e-08,7.8108e-08,1.22099e-08,3.9775e-08,7.8108e-08,2.83837e-08,6.59818e-08,5.91493e-07,3.01207e-07,4.22092e-07,3.01207e-07,3.9775e-08,2.02547e-08,2.67e-08,3.66e-07,3.16e-07,13.73419169,17.6040372,5.403956054,11.85761006,0.844751203,48.44332514,7.572771842,3.7667,-7.627,9,1,358.84,0.33165,138.16,6.0088,0.57143,0.4145,0.92681,35,11,0,6,5,4,22,4,2,2,0,0,0,2,0,0,491.502,10,10,10,0,0,5,4,1
1.71102e-08,2.02547e-08,3.56563e-07,7.8108e-08,1.81573e-07,1.81573e-07,3.9775e-08,3.56563e-07,3.56563e-07,4.22092e-07,8.28881e-07,4.22092e-07,1.81573e-07,3.9775e-08,6.88e-08,4.42e-07,4.28e-07,6.425465075,48.44424313,20.83921021,6.217992363,1.0,4.564999744,2.324640778,2.6661,-7.047,8,2,283.0,0.34746,123.74,-0.72616,0.43333,0.26388,0.98768,30,8,0,3,5,3,18,2,2,1,0,0,0,1,1,0,398.377,10,10,10,10,0,1,1,0
8.71305e-09,1.03143e-08,4.70849e-08,2.83837e-08,3.9775e-08,7.8108e-08,1.53384e-07,7.8108e-08,1.53384e-07,3.01207e-07,2.14943e-07,1.81573e-07,6.59818e-08,8.71305e-09,2.22e-08,1.92e-07,1.73e-07,8.641006738,24.66922989,17.6039479,7.786374251,1.658874543,5.403889515,7.572771842,4.6481,-6.842,7,0,328.33,0.22755,81.87,0.54074,0.44118,0.21617,1.0003,34,7,1,4,6,4,21,6,0,1,0,0,0,1,0,0,452.465,7,7,0,10,0,1,1,0
8.71305e-09,1.44539e-08,1.81573e-07,8.71305e-09,9.24627e-08,1.03143e-08,2.02547e-08,7.8108e-08,1.81573e-07,1.53384e-07,7.8108e-08,3.36e-08,1.09456e-07,1.22099e-08,2.66e-08,1.5e-07,1.38e-07,5.620743174,8.964535751,2.324641059,5.173146157,0.430173938,20.83932056,1.658868953,1.7036,-5.646,8,3,340.94,0.29122,135.69,-3.4933,0.51429,0.41227,0.98084,35,10,1,4,5,4,23,6,5,1,0,0,0,2,0,0,492.53,10,10,10,10,0,4,4,0
2.83837e-08,4.22092e-07,4.22092e-07,3.01207e-07,4.99664e-07,3.01207e-07,2.14943e-07,1.16154e-06,2.28097e-06,7.00198e-07,1.92685e-06,4.47923e-06,3.56563e-07,7.00198e-07,2.76e-07,1.91e-06,1.78e-06,6.908904342,67.8850761,10.61198267,6.45836709,2.75186475,7.572755613,1.401337699,1.2575,-2.383,9,2,261.82,0.45065,145.1,3.6912,0.6,0.39547,0.76043,25,10,0,5,4,4,21,2,2,0,0,0,0,7,1,0,351.397,10,10,10,0,0,1,1,0
3.9775e-08,4.99664e-07,1.53384e-07,2.54445e-07,5.91493e-07,4.99664e-07,1.09456e-07,1.81573e-07,1.09456e-07,5.91493e-07,1.92685e-06,8.28881e-07,1.53384e-07,1.81573e-07,2.81e-07,1.02e-06,8.78e-07,3.617154097,48.44374607,1.658874543,3.121941216,1.183780498,0.43017548,1.0,3.0128,-3.511,6,0,343.42,0.15768,62.74,2.7377,0.45455,0.48905,0.84166,33,8,2,6,4,2,12,13,2,2,0,0,0,1,0,0,457.519,10,10,10,10,0,1,1,0
2.02547e-08,1.03143e-08,9.24627e-08,1.03143e-08,1.71102e-08,6.59818e-08,2.02547e-08,7.36036e-09,1.81573e-07,3.01207e-07,1.09456e-07,1.29571e-07,7.36036e-09,6.21767e-09,1.33e-08,1.47e-07,1.24e-07,11.00365688,5.403900272,12.56225813,9.261663431,0.079603523,17.60451813,17.60414962,3.8299,-6.342,8,0,346.75,0.27888,112.49,0.83345,0.52941,0.3384,0.94342,34,9,0,5,6,3,17,7,4,0,0,0,0,2,1,0,470.556,10,10,10,0,1,5,4,0
2.67468e-09,7.8108e-08,2.83837e-08,2.39771e-08,1.53384e-07,2.14943e-07,1.29571e-07,5.57382e-08,4.99664e-07,5.91493e-07,3.01207e-07,8.28881e-07,6.59818e-08,1.22099e-08,6.6e-08,5.16e-07,4.39e-07,7.806151173,112.6007477,10.61198267,6.645781979,1.963743332,20.83930433,3.856288792,5.0958,-5.934,6,2,370.51,0.17703,78.51,1.3585,0.61765,0.44864,0.78821,34,7,1,5,4,2,12,12,7,3,0,0,0,0,0,0,482.022,7,10,10,10,0,1,1,1
8.71305e-09,3.9775e-08,5.91493e-07,1.71102e-08,3.01207e-07,3.56563e-07,1.81573e-07,3.56563e-07,3.56563e-07,1.16154e-06,2.54445e-07,3.56563e-07,5.57382e-08,2.39771e-08,9.19e-08,4.86e-07,4.64e-07,5.291721849,29.20291518,8.964485131,5.056745075,0.602818341,20.83945061,3.85628488,3.6335,-7.006,9,2,363.52,0.30029,119.49,-0.25321,0.48571,0.41209,0.93729,35,9,1,6,5,4,20,9,0,2,0,0,0,2,0,0,474.515,10,10,10,10,0,1,1,0
5.57382e-08,6.59818e-08,4.99664e-07,4.70849e-08,1.81573e-07,1.09456e-07,6.59818e-08,4.99664e-07,5.91493e-07,1.16154e-06,3.56563e-07,1.16154e-06,9.24627e-08,3.01207e-07,8.57e-08,8.5e-07,7.92e-07,9.924127315,6.397125839,17.6039479,9.241869567,1.0,12.5622385,6.397096485,2.0059,-5.383,7,1,284.65,0.3245,114.81,0.63368,0.53571,0.38271,0.86525,28,9,1,4,4,2,12,8,2,0,0,0,0,0,0,0,400.433,0,0,7,10,1,5,4,0
1.03143e-08,1.09456e-07,1.09456e-07,1.09456e-07,3.36e-08,7.8108e-08,1.09456e-07,9.24627e-08,2.54445e-07,1.81573e-07,6.59818e-08,9.24627e-08,3.9775e-08,2.39771e-08,6.82e-08,1.3e-07,1.24e-07,1.907118972,6.397324026,0.844751203,1.815269622,0.844751203,2.324632729,5.403958333,4.4302,-4.381,4,0,266.57,0.23337,76.02,4.8969,0.5,0.24158,0.90348,26,5,1,2,5,4,20,4,0,0,0,0,0,3,1,0,359.452,10,10,10,10,1,5,4,0
1.53384e-07,3.01207e-07,8.28881e-07,1.29571e-07,4.99664e-07,4.99664e-07,9.81213e-07,2.54445e-07,2.70016e-06,6.27691e-06,3.56563e-07,5.30243e-06,6.27691e-06,1.09456e-07,2.53e-07,3.09e-06,2.62e-06,12.22139648,2.324642727,17.6039479,10.35206261,0.306974099,20.83926959,12.56226985,3.2898,-6.077,8,0,359.65,0.27124,117.28,3.6757,0.55882,0.5168,0.87211,34,9,0,8,4,3,17,9,0,2,0,0,0,1,0,0,479.556,10,0,10,7,0,2,2,0
2.39771e-08,1.53384e-07,1.62771e-06,1.09456e-07,4.22092e-07,5.91493e-07,3.01207e-07,4.99664e-07,1.62771e-06,7.00198e-07,1.16154e-06,3.01207e-07,1.16154e-06,2.54445e-07,1.72e-07,8.98e-07,8.32e-07,5.208035368,48.44392543,1.963743332,4.822912993,0.306974099,14.8708979,1.658875316,2.4998,-4.286,10,1,360.64,0.26181,105.48,-12.111,0.58824,0.46062,0.81047,34,10,1,8,4,3,17,10,7,2,0,0,0,4,0,0,463.54,10,10,10,10,1,2,2,0
1.29571e-07,3.01207e-07,4.99664e-07,3.01207e-07,4.22092e-07,8.28881e-07,4.99664e-07,3.01207e-07,9.81213e-07,1.92685e-06,9.81213e-07,1.92685e-06,1.16154e-06,5.91493e-07,2.74e-07,1.7e-06,1.47e-06,6.220720398,7.57278249,6.397097787,5.367280702,0.602818341,3.257603575,4.565000047,3.0566,-6.38,9,0,335.67,0.34468,142.12,-1.7724,0.42424,0.43063,0.8878,33,11,0,6,4,3,18,8,3,1,0,0,0,0,0,0,487.508,10,10,10,10,0,5,4,0
2.03e-08,1.16e-07,1.14e-06,1.37e-08,5e-07,7.5e-07,2.21e-07,3.23e-07,1.38e-06,2.41e-06,1.33e-06,1.19322e-06,4.22e-07,1.76e-07,1.63e-07,1.35e-06,1.18e-06,8.31351636,65.56385607,10.28634579,7.258610254,0.283657285,100.322616,4.817690039,4.4877,-6.663,9,2,447.49,0.25549,129.01,4.0519,0.5122,0.502,0.88256,41,10,0,11,4,4,23,12,6,2,0,0,0,2,0,0,574.7,7,7,10,10,1,7,5,0
4.22092e-07,2.28097e-06,2.70016e-06,2.28097e-06,2.28097e-06,1.37501e-06,1.92685e-06,1.62771e-06,4.47923e-06,1.04126e-05,3.1964e-06,7.43049e-06,1.16154e-06,1.62771e-06,1.55e-06,5.64e-06,4.97e-06,3.634274596,7.572761389,3.257603823,3.203254194,0.602818341,1.963743447,4.564998968,3.015,-4.356,5,0,270.23,0.27184,96.12,-4.8346,0.56,0.52992,0.78055,25,8,0,6,3,3,17,4,5,1,0,0,0,1,0,0,378.447,10,10,10,10,0,4,4,0
9.25e-09,3.36e-08,1.51e-07,3.75e-09,1.38e-07,8.03e-08,3.01e-08,5.04e-08,1.53e-07,1.23e-07,4.71e-08,8.28928e-08,6.4e-08,7.43e-09,4.35e-08,1.45e-07,1.29e-07,3.33416048,5.087545574,2.467048956,2.97144815,0.334439341,40.9228601,0.893513609,5.0642,-7.437,6,2,410.92,0.20522,101.32,4.8743,0.48718,0.45074,0.87464,39,7,0,8,7,3,17,16,8,2,0,0,0,2,0,0,542.746,7,7,10,10,1,7,5,0
1.29571e-07,3.01207e-07,4.99664e-07,3.56563e-07,7.8108e-08,1.09456e-07,3.56563e-07,3.1964e-06,2.28097e-06,6.27691e-06,2.28097e-06,1.16154e-06,7.00198e-07,1.81573e-07,1.86e-07,2.43e-06,2.55e-06,13.02293102,17.60399318,3.856287875,13.71220227,6.397097787,6.397093922,80.36198597,3.0659,-6.114,9,3,295.96,0.48199,174.91,3.8861,0.57143,0.41921,0.81483,28,12,1,6,4,4,20,3,0,1,0,0,0,6,1,0,416.464,0,0,7,0,0,4,4,0
7.8108e-08,3.56563e-07,3.56563e-07,4.99664e-07,7.00198e-07,2.54445e-07,2.54445e-07,1.92685e-06,3.78384e-06,3.78384e-06,3.1964e-06,3.1964e-06,4.22092e-07,1.16154e-06,3.78e-07,2.82e-06,2.67e-06,7.471694003,40.92285041,8.964485131,7.076452391,5.403956054,7.572766899,5.403955738,1.6373,-2.906,10,2,248.82,0.45873,125.97,6.6356,0.54167,0.42667,0.83354,24,10,1,3,4,3,15,5,0,2,0,0,0,5,0,0,329.319,10,10,7,0,0,4,4,0
8.98e-09,1.53e-08,1.27e-07,2.84e-09,4.05e-07,2.98e-07,5.29e-08,9.25e-08,8.29e-07,5.61e-07,1.72e-07,2.16431e-07,4.02e-08,7.36e-09,9.13e-08,4.01e-07,3.5e-07,4.393210615,19.18002671,14.14581258,3.82975551,0.726067122,292.0103776,1.38572838,4.6521,-6.836,7,2,410.01,0.28209,142.45,4.0202,0.52632,0.45248,0.88694,38,9,0,8,5,5,26,6,2,2,0,0,0,3,0,0,541.698,7,0,10,10,1,7,5,0
4.43696e-09,5.25239e-09,1.37501e-06,4.43696e-09,2.39771e-08,1.29571e-07,7.8108e-08,1.81573e-07,7.00198e-07,2.54445e-07,2.54445e-07,7.8108e-08,6.59818e-08,4.70849e-08,1.05e-08,2.88e-07,2.7e-07,27.40970526,57.34617985,14.87095618,25.72039138,0.132052257,157.8088799,10.61204488,2.1777,-4.109,14,4,357.06,0.51277,220.19,3.1042,0.47222,0.29668,0.9244,36,15,0,6,6,5,25,2,0,1,0,0,0,7,1,0,501.49,10,10,10,10,0,3,3,0
6.59818e-08,7.8108e-08,2.54445e-07,4.22092e-07,1.62771e-06,1.09456e-07,4.22092e-07,7.00198e-07,9.81213e-07,3.78384e-06,1.92685e-06,4.99664e-07,4.99664e-07,1.53384e-07,4.54e-07,1.63e-06,1.48e-06,3.597175648,29.20266133,6.397097787,3.254467931,2.75186475,2.324642495,2.324640952,2.4308,-4.498,7,2,319.42,0.35527,154.41,4.3838,0.48387,0.49707,0.86049,31,11,1,6,4,3,17,5,4,2,0,0,0,0,0,0,480.56,10,10,10,10,0,4,4,0
2.02547e-08,2.39771e-08,2.83837e-08,1.71102e-08,1.81573e-07,3.36e-08,4.70849e-08,7.00198e-07,3.56563e-07,1.16154e-06,6.59818e-08,2.14943e-07,1.16154e-06,3.36e-08,5.06e-08,6.35e-07,6.46e-07,12.53423455,3.257566033,8.964485131,12.74942336,24.66905063,20.83945061,6.397096485,2.6831,-5.221,10,0,350.66,0.35775,153.58,-2.8718,0.57576,0.44272,0.84935,33,12,0,6,5,4,22,8,5,1,0,0,0,6,0,0,483.576,10,10,10,10,1,5,4,0
1.22099e-08,3.36e-08,1.53384e-07,1.53384e-07,3.9775e-08,1.81573e-07,2.14943e-07,3.56563e-07,1.37501e-06,9.81213e-07,1.92685e-06,7.00198e-07,1.81573e-07,1.09456e-07,4.87e-08,1.06e-06,9.4e-07,21.71054453,157.8103292,20.83921021,19.3128616,2.324641059,8.964487821,24.66908862,2.5294,-2.577,8,0,287.94,0.34205,116.49,8.3599,0.60714,0.43581,0.8512,28,9,0,3,5,4,20,4,2,1,0,0,0,4,1,0,392.442,10,10,10,10,0,5,4,0
2.02547e-08,7.36036e-09,7.8108e-08,1.71102e-08,5.57382e-08,2.39771e-08,6.59818e-08,6.59818e-08,1.09456e-07,2.14943e-07,5.57382e-08,1.81573e-07,1.22099e-08,8.71305e-09,2.08e-08,1.22e-07,1.12e-07,5.841905793,2.751814367,24.66905063,5.395881758,0.844751203,6.397194623,3.856309878,3.7175,-6.331,8,1,359.88,0.261,111.29,2.9773,0.62857,0.49071,0.84323,35,10,0,6,5,5,28,3,5,1,0,0,0,4,1,0,489.53,10,10,10,10,0,5,4,1
6.21767e-09,5.57382e-08,3.36e-08,7.8108e-08,1.81573e-07,1.53384e-07,1.53384e-07,4.22092e-07,2.54445e-07,8.28881e-07,4.22092e-07,1.16154e-06,1.53384e-07,7.00198e-07,7.75e-08,6.33e-07,5.98e-07,8.169425986,67.88227726,20.83921021,7.715301965,12.56225813,3.257604855,4.565001404,1.9353,-4.243,10,2,270.44,0.42915,137.22,2.4011,0.48148,0.38414,0.86692,27,10,0,4,5,5,25,1,2,0,0,0,0,8,1,0,359.352,10,10,10,10,0,1,1,0
5.57382e-08,4.70849e-08,2.14943e-07,3.9775e-08,3.01207e-07,9.24627e-08,1.81573e-07,3.01207e-07,9.81213e-07,3.56563e-07,3.1964e-06,1.62771e-06,4.22092e-07,3.36e-08,1.15e-07,1.29e-06,1.13e-06,11.27199004,57.34690875,34.56963532,9.831092831,1.401336267,24.66908862,1.183780589,3.5659,-8.233,6,0,340.63,0.20999,90.82,-0.93058,0.53125,0.3687,0.87401,32,9,0,7,3,3,17,7,1,0,0,0,0,1,0,0,477.939,10,10,10,10,0,4,4,0
1.09456e-07,1.81573e-07,4.99664e-07,6.59818e-08,4.22092e-07,2.28097e-06,3.56563e-07,1.09456e-07,2.28097e-06,9.81213e-07,1.62771e-06,9.81213e-07,1.81573e-07,2.54445e-07,2.16e-07,1.45e-06,1.23e-06,6.707439819,14.8708979,5.403956054,5.673965439,0.219058128,34.56953412,2.324642495,4.5599,-4.489,6,0,335.73,0.20433,84.46,4.4987,0.51613,0.38488,0.93319,31,7,0,3,5,1,5,17,4,2,0,0,0,0,1,0,442.626,10,10,10,0,1,1,1,0
2.14943e-07,4.22092e-07,2.14943e-07,1.81573e-07,1.81573e-07,1.53384e-07,2.54445e-07,5.91493e-07,9.81213e-07,1.16154e-06,8.28881e-07,1.16154e-06,4.99664e-07,2.14943e-07,2.31e-07,1.02e-06,9.51e-07,4.433549523,3.856282828,2.75186475,4.12191817,2.75186475,5.403958738,6.397096485,1.8952,-3.351,7,1,267.09,0.27448,78.27,5.0802,0.61538,0.4131,0.83726,26,7,1,4,4,3,15,8,1,1,0,0,0,3,0,0,352.393,10,10,10,10,0,1,1,0
2.02547e-08,2.02547e-08,1.09456e-07,1.44539e-08,3.9775e-08,4.70849e-08,9.24627e-08,4.22092e-07,1.81573e-07,1.16154e-06,1.16154e-06,4.99664e-07,3.01207e-07,2.14943e-07,2.3e-08,7.41e-07,6.88e-07,32.21513802,57.34584053,24.66905063,29.90477242,3.856287875,12.56212813,29.20276556,2.14,-3.535,13,4,325.02,0.45902,175.47,-2.7425,0.45455,0.41252,0.91169,33,13,0,6,5,4,22,5,0,0,0,0,0,5,0,0,448.398,10,10,10,10,0,3,3,0
1.22099e-08,1.44539e-08,2.39771e-08,1.44539e-08,3.36e-08,4.70849e-08,9.24627e-08,1.09456e-07,3.56563e-07,1.81573e-07,5.57382e-08,1.81573e-07,3.36e-08,1.09456e-07,1.62e-08,1.63e-07,1.54e-07,10.07251589,4.564946765,12.56225813,9.520749289,4.56499838,24.6688114,5.403958333,4.3519,-6.444,8,1,316.8,0.28207,98.73,1.6213,0.46875,0.3643,0.90374,32,8,0,5,6,5,26,3,1,1,0,0,0,5,0,0,422.447,10,10,10,10,0,1,1,1
7.36036e-09,1.71102e-08,1.71102e-08,4.43696e-09,6.59818e-08,2.02547e-08,4.70849e-08,1.81573e-07,3.56563e-07,3.56563e-07,1.29571e-07,2.54445e-07,1.53384e-07,7.8108e-08,2.47e-08,2.56e-07,2.43e-07,10.37303502,17.60475543,14.87095618,9.871641331,10.61198267,80.36128014,5.4039435,3.4108,-5.656,9,1,348.3,0.28249,104.3,0.63793,0.52941,0.34985,0.92127,34,9,0,6,5,5,26,5,2,1,0,0,0,4,0,0,455.473,10,10,10,10,1,4,4,0
1.44539e-08,2.02547e-08,1.71102e-08,2.83837e-08,3.36e-08,8.71305e-09,2.39771e-08,6.59818e-08,4.70849e-08,2.54445e-07,1.09456e-07,5.57382e-08,2.39771e-08,1.22099e-08,2.02e-08,1.09e-07,1.02e-07,5.387480312,7.572713436,2.75186475,5.033275842,3.856287875,1.658857103,7.572767857,3.3681,-6.235,8,0,308.9,0.26543,89.41,4.9656,0.6129,0.38895,0.89531,31,11,0,4,5,4,22,1,2,0,0,0,0,4,0,0,440.796,10,10,10,10,0,4,4,0
