Cl.thickness,Cell.size,Cell.shape,Marg.adhesion,Epith.c.size,Bare.nuclei,Bl.cromatin,Normal.nucleoli,Mitoses,Class
8,8,9,6,6,3,10,10,1,malignant
1,1,1,1,2,1,2,1,1,benign
4,1,1,2,2,1,2,1,1,benign
8,4,4,1,2,9,3,3,1,malignant
8,10,10,7,10,10,7,3,8,malignant
3,1,1,1,2,1,3,1,1,benign
10,3,6,2,3,5,4,10,2,malignant
3,1,1,1,2,1,1,1,1,benign
2,1,1,1,1,1,1,1,1,benign
5,4,5,1,8,1,3,6,1,benign
5,1,1,1,2,1,2,1,1,benign
3,2,2,2,2,1,3,2,1,benign
3,1,1,1,2,1,1,1,1,benign
3,1,3,1,3,4,1,1,1,benign
5,1,1,1,2,1,2,1,1,benign
8,10,5,3,8,4,4,10,3,malignant
1,1,1,2,1,1,1,1,1,benign
1,1,4,1,2,1,2,1,1,benign
10,4,7,2,2,8,6,1,1,malignant
10,10,8,6,4,5,8,10,1,malignant
1,1,1,1,1,1,1,3,1,benign
10,1,1,1,2,10,5,4,1,malignant
3,2,2,3,2,1,1,1,1,benign
8,10,10,8,7,10,9,7,1,malignant
10,3,5,1,10,5,3,10,2,malignant
7,5,10,10,10,10,4,10,3,malignant
1,1,1,1,2,1,2,1,1,benign
10,8,10,1,3,10,5,1,1,malignant
5,1,1,3,2,1,1,1,1,benign
1,2,1,3,2,1,2,1,1,benign
2,1,1,1,2,1,3,1,1,benign
5,3,3,4,2,4,3,4,1,malignant
3,4,5,3,7,3,4,6,1,benign
7,6,3,2,5,10,7,4,6,malignant
1,1,1,1,1,1,1,1,1,benign
1,1,1,1,5,1,3,1,1,benign
1,1,1,1,2,1,2,1,1,benign
4,1,2,1,2,1,2,1,1,benign
1,1,1,1,2,1,3,1,1,benign
1,2,2,1,2,1,1,1,1,benign
7,8,7,6,4,3,8,8,4,malignant
5,1,1,1,2,1,1,1,1,benign
1,1,1,1,2,1,3,1,1,benign
5,2,2,2,2,1,2,2,1,benign
6,3,4,1,5,2,3,9,1,malignant
5,8,9,4,3,10,7,1,1,malignant
6,1,1,3,2,1,1,1,1,benign
5,3,3,3,2,3,4,4,1,malignant
6,9,7,5,5,8,4,2,1,benign
5,3,5,5,3,3,4,10,1,malignant
5,1,4,1,2,1,3,2,1,benign
5,1,1,1,2,1,2,1,1,benign
8,10,10,10,6,10,10,10,10,malignant
10,10,10,10,5,10,10,10,7,malignant
1,1,3,1,2,1,2,1,1,benign
10,4,3,1,3,3,6,5,2,malignant
1,1,1,1,2,1,2,1,1,benign
1,1,3,1,2,1,1,1,1,benign
3,1,1,3,8,1,5,8,1,benign
9,6,9,2,10,6,2,9,10,malignant
1,1,1,1,2,1,3,1,1,benign
2,1,1,1,3,1,2,1,1,benign
4,1,1,1,2,1,3,1,1,benign
1,1,3,1,2,1,2,1,1,benign
5,1,1,1,2,1,3,1,1,benign
4,1,1,1,2,1,1,1,1,benign
1,1,1,1,2,5,5,1,1,benign
3,1,1,1,2,4,1,1,1,benign
4,4,4,2,2,3,2,1,1,benign
5,3,3,1,2,1,2,1,1,benign
2,1,1,1,2,1,1,1,1,benign
1,1,1,1,2,1,3,1,1,benign
2,3,4,4,2,5,2,5,1,malignant
9,4,5,10,6,10,4,8,1,malignant
5,1,1,1,2,1,3,1,2,benign
3,1,1,1,2,1,1,1,1,benign
10,10,10,3,10,8,8,1,1,malignant
10,3,3,1,2,10,7,6,1,malignant
1,1,1,1,2,1,2,1,1,benign
4,1,1,1,2,1,2,1,1,benign
1,1,1,1,2,10,3,1,1,benign
8,10,10,1,3,6,3,9,1,malignant
8,7,8,2,4,2,5,10,1,malignant
5,7,4,1,6,1,7,10,3,malignant
4,1,1,3,2,1,3,1,1,benign
6,1,3,1,2,1,3,1,1,benign
1,1,1,1,2,3,3,1,1,benign
10,8,4,4,4,10,3,10,4,malignant
1,1,1,1,2,1,1,1,1,benign
3,1,1,1,2,1,2,1,1,benign
7,5,3,7,4,10,7,5,5,malignant
5,7,10,6,5,10,7,5,1,malignant
5,1,1,1,2,1,2,1,1,benign
8,7,6,4,4,10,5,1,1,malignant
3,1,1,1,2,1,2,1,1,benign
3,1,1,1,2,1,2,1,1,benign
10,5,5,3,6,7,7,10,1,malignant
3,1,1,1,2,1,3,1,1,benign
1,1,1,1,2,1,2,1,1,benign
9,5,8,1,2,3,2,1,5,malignant
5,1,1,1,2,1,2,1,1,benign
5,1,1,1,2,1,1,1,1,benign
5,1,1,1,2,1,3,2,1,benign
1,1,3,2,2,1,3,1,1,benign
6,10,10,2,8,10,7,3,3,malignant
10,8,8,2,3,4,8,7,8,malignant
1,5,8,6,5,8,7,10,1,malignant
6,10,7,7,6,4,8,10,2,malignant
5,1,1,1,2,1,2,1,1,benign
3,1,1,1,2,1,2,1,1,benign
5,7,10,10,5,10,10,10,1,malignant
4,2,2,1,2,1,2,1,1,benign
1,1,1,1,2,1,1,1,1,benign
8,10,4,4,8,10,8,2,1,malignant
4,1,1,1,2,3,1,1,1,benign
8,4,10,5,4,4,7,10,1,malignant
5,6,5,6,10,1,3,1,1,malignant
4,1,1,1,2,1,2,1,1,benign
1,1,1,1,2,1,3,1,1,benign
4,1,2,1,2,1,2,1,1,benign
4,1,1,3,2,1,3,1,1,benign
4,1,1,1,2,1,1,1,1,benign
8,7,8,5,10,10,7,2,1,malignant
1,1,1,1,2,1,1,1,1,benign
1,1,1,1,2,1,2,1,1,benign
5,1,1,2,1,1,2,1,1,benign
3,1,1,1,2,1,2,2,1,benign
10,7,7,4,5,10,5,7,2,malignant
10,5,6,10,6,10,7,7,10,malignant
4,1,1,1,3,1,2,2,1,benign
9,10,10,1,10,8,3,3,1,malignant
10,6,3,6,4,10,7,8,4,malignant
1,1,1,1,2,1,3,1,1,benign
1,1,1,1,1,1,2,1,1,benign
5,3,5,1,8,10,5,3,1,malignant
5,4,6,8,4,1,8,10,1,malignant
9,10,10,10,10,5,10,10,10,malignant
8,5,5,5,2,10,4,3,1,malignant
8,4,4,1,6,10,2,5,2,malignant
7,2,4,1,6,10,5,4,3,malignant
1,1,1,3,2,1,1,1,1,benign
5,1,1,1,2,1,1,1,1,benign
10,10,10,7,9,10,7,10,10,malignant
7,1,2,3,2,1,2,1,1,benign
3,6,4,10,3,3,3,4,1,malignant
3,1,1,2,2,1,1,1,1,benign
2,1,1,1,2,1,1,1,1,benign
6,1,3,2,2,1,1,1,1,benign
10,6,6,2,4,10,9,7,1,malignant
1,1,1,1,2,1,1,1,1,benign
3,1,1,1,3,2,1,1,1,benign
1,1,1,1,2,1,1,1,1,benign
6,1,1,3,2,1,1,1,1,benign
8,2,4,1,5,1,5,4,4,malignant
10,10,10,6,8,4,8,5,1,malignant
5,3,4,1,4,1,3,1,1,benign
9,8,8,9,6,3,4,1,1,malignant
3,1,1,1,2,1,1,1,1,benign
8,6,7,3,3,10,3,4,2,malignant
5,1,2,1,2,1,3,1,1,benign
5,1,1,1,2,2,2,1,1,benign
10,10,10,8,2,10,4,1,1,malignant
4,1,1,1,3,1,1,1,1,benign
5,2,2,2,2,1,1,1,2,benign
5,1,1,1,2,1,2,2,1,benign
3,1,1,1,2,1,1,1,1,benign
3,3,5,2,3,10,7,1,1,malignant
1,1,1,1,2,1,2,1,1,benign
5,1,1,1,2,1,1,1,1,benign
10,10,7,8,7,1,10,10,3,malignant
4,1,2,1,2,1,3,1,1,benign
7,3,4,4,3,3,3,2,7,malignant
1,1,1,1,2,1,3,1,1,benign
5,2,1,1,2,1,3,1,1,benign
5,2,2,4,2,4,1,1,1,benign
1,1,1,1,2,4,1,1,1,benign
3,1,1,1,3,1,2,1,1,benign
10,10,10,1,6,1,2,8,1,malignant
5,5,5,6,3,10,3,1,1,malignant
4,1,1,1,2,1,2,1,1,benign
6,2,3,1,2,1,1,1,1,benign
1,1,2,2,2,1,3,1,1,benign
3,1,1,1,2,1,1,1,1,benign
5,1,2,1,2,1,1,1,1,benign
10,10,10,10,10,10,4,10,10,malignant
10,4,4,10,6,10,5,5,1,malignant
3,1,1,1,2,1,3,1,1,benign
8,6,4,3,5,9,3,1,1,malignant
3,3,5,2,3,10,7,1,1,malignant
5,1,1,1,2,1,3,1,1,benign
3,1,1,1,2,1,2,1,1,benign
5,3,2,4,2,1,1,1,1,benign
2,1,1,1,2,1,2,2,1,benign
3,1,1,1,2,1,2,1,1,benign
1,1,1,1,1,1,3,1,1,benign
5,1,1,1,2,1,1,1,1,benign
9,9,10,3,6,10,7,10,6,malignant
4,3,3,1,2,1,3,3,1,benign
1,1,1,1,1,1,3,1,1,benign
5,1,2,1,2,1,3,1,1,benign
4,1,1,1,2,3,2,1,1,benign
10,8,10,10,6,1,3,1,10,malignant
3,1,1,1,2,1,2,1,1,benign
4,1,1,2,2,1,1,1,1,benign
4,1,1,1,2,2,3,2,1,benign
6,6,6,5,4,10,7,6,2,malignant
4,2,4,3,2,2,2,1,1,benign
1,1,1,1,2,1,3,1,1,benign
6,8,8,1,3,4,3,7,1,benign
3,1,2,1,2,1,3,1,1,benign
4,2,1,1,2,1,1,1,1,benign
3,2,1,1,2,1,2,2,1,benign
2,1,1,1,2,1,2,1,1,benign
8,10,10,10,7,5,4,8,7,malignant
2,1,1,1,2,1,2,1,1,benign
4,1,1,1,2,1,3,1,1,benign
4,4,2,1,2,5,2,1,2,benign
2,1,1,1,2,1,2,1,1,benign
1,1,1,2,2,1,3,1,1,benign
4,1,1,1,2,1,1,2,1,benign
6,5,4,4,3,9,7,8,3,malignant
8,7,5,10,7,9,5,5,4,malignant
8,4,7,1,3,10,3,9,2,malignant
1,1,1,1,2,1,3,2,1,benign
5,6,6,8,6,10,4,10,4,malignant
5,2,3,1,6,10,5,1,1,malignant
1,1,3,1,2,1,1,1,1,benign
4,2,3,5,3,8,7,6,1,malignant
2,1,1,1,2,1,2,1,1,benign
5,2,2,2,3,1,1,3,1,benign
1,1,1,1,2,1,2,1,1,benign
5,3,3,3,6,10,3,1,1,malignant
4,1,3,1,2,1,2,1,1,benign
1,1,1,1,2,1,3,1,1,benign
2,7,10,10,7,10,4,9,4,malignant
3,1,1,1,2,1,3,1,1,benign
1,1,1,1,1,1,3,1,1,benign
6,1,3,1,4,5,5,10,1,malignant
3,1,1,1,2,1,3,1,1,benign
5,1,2,10,4,5,2,1,1,benign
1,1,1,1,3,1,1,1,1,benign
3,1,1,1,2,1,1,1,1,benign
9,10,10,10,10,10,10,10,1,malignant
5,1,1,1,1,1,1,1,1,benign
1,1,1,1,2,1,2,1,2,benign
5,3,6,1,2,1,1,1,1,benign
4,1,1,1,2,1,3,1,1,benign
1,1,1,1,2,1,1,1,1,benign
2,1,1,1,2,1,1,1,1,benign
1,1,1,1,1,1,3,1,1,benign
5,10,10,9,6,10,7,10,5,malignant
5,10,6,1,10,4,4,10,10,malignant
5,10,10,10,6,10,6,5,2,malignant
9,5,5,4,4,5,4,3,3,malignant
5,10,10,10,10,2,10,10,10,malignant
3,1,1,4,3,1,2,2,1,benign
5,1,1,3,2,1,1,1,1,benign
6,6,7,10,3,10,8,10,2,malignant
1,2,3,1,2,1,1,1,1,benign
4,1,1,1,2,1,3,1,1,benign
5,1,1,1,2,1,3,1,1,benign
5,1,1,1,2,1,3,1,1,benign
1,1,1,1,1,1,1,1,1,benign
3,10,3,10,6,10,5,1,4,malignant
4,3,2,1,3,1,2,1,1,benign
10,10,10,10,3,10,10,6,1,malignant
1,1,1,1,2,1,3,1,1,benign
8,10,10,10,8,10,10,7,3,malignant
4,8,6,4,3,4,10,6,1,malignant
4,2,1,1,2,1,2,1,1,benign
3,1,1,1,1,1,2,1,1,benign
10,10,10,2,10,10,5,3,3,malignant
1,1,1,1,2,5,1,1,1,benign
2,3,1,1,2,1,2,1,1,benign
10,10,10,10,7,10,7,10,4,malignant
5,8,7,7,10,10,5,7,1,malignant
3,2,1,1,1,1,2,1,1,benign
3,2,2,2,2,1,4,2,1,benign
1,1,1,1,2,1,1,1,1,benign
5,6,7,8,8,10,3,10,3,malignant
1,1,1,1,2,1,1,1,1,benign
4,1,1,1,2,1,2,1,1,benign
2,1,1,1,1,1,2,1,1,benign
4,1,1,1,1,1,2,1,1,benign
5,1,2,1,2,1,3,1,1,benign
2,1,1,1,2,1,3,1,1,benign
3,1,1,1,3,1,2,1,1,benign
8,10,3,2,6,4,3,10,1,malignant
1,1,1,1,1,1,3,1,1,benign
5,1,3,1,2,1,2,1,1,benign
6,1,1,1,1,1,1,1,1,benign
3,1,1,1,2,1,1,1,1,benign
10,6,4,3,10,10,9,10,1,malignant
3,2,1,2,2,1,3,1,1,benign
5,1,1,1,2,1,3,1,1,benign
3,3,2,6,3,3,3,5,1,benign
9,7,7,5,5,10,7,8,3,malignant
3,3,2,1,2,3,3,1,1,benign
1,1,1,1,2,1,1,1,1,benign
1,2,2,1,2,1,1,1,1,benign
1,1,1,1,2,1,3,1,1,benign
1,1,1,1,2,2,1,1,1,benign
9,5,5,2,2,2,5,1,1,malignant
3,1,1,1,2,1,3,2,1,benign
2,1,1,1,2,1,3,1,1,benign
10,8,8,2,8,10,4,8,10,malignant
5,1,3,1,2,1,3,1,1,benign
4,8,6,3,4,10,7,1,1,malignant
4,1,2,1,2,1,2,1,1,benign
3,1,1,1,2,1,3,1,1,benign
5,1,1,1,2,1,2,1,1,benign
5,10,10,3,7,3,8,10,2,malignant
2,1,1,2,3,1,2,1,1,benign
3,1,2,1,2,1,2,1,1,benign
8,3,3,1,2,2,3,2,1,benign
5,5,7,8,6,10,7,4,1,malignant
3,1,1,2,3,4,1,1,1,benign
1,1,1,1,10,1,1,1,1,benign
4,8,7,10,4,10,7,5,1,malignant
10,6,5,8,5,10,8,6,1,malignant
10,3,3,10,2,10,7,3,3,malignant
3,1,1,1,2,1,2,1,1,benign
1,1,1,1,2,1,3,1,1,benign
1,1,3,1,1,1,2,1,1,benign
4,7,8,3,4,10,9,1,1,malignant
2,1,1,1,2,1,3,1,1,benign
3,1,1,1,2,1,2,1,1,benign
4,5,5,8,6,10,10,7,1,malignant
5,1,1,1,2,1,2,1,1,benign
1,2,3,1,2,1,2,1,1,benign
2,1,1,1,2,1,1,1,1,benign
4,1,1,1,2,1,1,1,1,benign
6,10,10,2,8,10,7,3,3,malignant
7,2,4,1,3,4,3,3,1,malignant
5,1,3,1,2,1,2,1,1,benign
6,10,5,5,4,10,6,10,1,malignant
4,1,1,1,2,1,3,1,1,benign
3,3,2,1,3,1,3,6,1,benign
2,1,1,1,2,1,1,1,1,benign
10,10,10,4,8,1,8,10,1,malignant
7,6,4,8,10,10,9,5,3,malignant
1,1,1,1,2,1,3,1,1,benign
10,4,5,5,5,10,4,1,1,malignant
2,3,1,1,5,1,1,1,1,benign
5,4,6,6,4,10,4,3,1,malignant
3,1,1,1,2,1,1,1,1,benign
2,1,1,1,2,1,2,1,1,benign
4,5,5,10,4,10,7,5,8,malignant
10,10,10,3,10,10,9,10,1,malignant
10,5,5,6,3,10,7,9,2,malignant
5,1,1,1,2,1,1,1,1,benign
5,3,2,1,3,1,1,1,1,benign
2,1,2,1,2,1,3,1,1,benign
5,5,5,2,5,10,4,3,1,malignant
3,1,1,1,2,1,3,1,1,benign
4,10,8,5,4,1,10,1,1,malignant
1,1,2,1,2,1,2,1,1,benign
4,1,1,1,2,1,1,1,1,benign
3,1,1,1,2,1,3,1,1,benign
1,1,1,1,2,1,3,1,1,benign
4,8,8,5,4,5,10,4,1,malignant
4,1,1,1,2,1,1,1,1,benign
3,2,1,1,2,2,3,1,1,benign
2,1,1,1,2,1,3,1,1,benign
1,1,1,2,2,1,2,1,1,benign
1,1,1,1,2,1,1,1,1,benign
2,1,1,1,2,1,1,1,1,benign
5,10,10,10,10,10,10,1,1,malignant
1,1,1,1,2,1,2,1,1,benign
3,1,1,1,2,5,1,1,1,benign
2,1,1,1,2,1,2,1,1,benign
5,1,1,1,2,1,2,2,1,benign
2,1,1,1,2,1,3,1,1,benign
4,1,1,1,2,1,1,1,1,benign
10,5,7,3,3,7,3,3,8,malignant
1,3,1,2,2,2,5,3,2,benign
1,1,1,1,2,1,2,1,1,benign
3,1,1,1,2,1,2,1,1,benign
10,4,3,10,3,10,7,1,2,malignant
5,4,6,10,2,10,4,1,1,malignant
10,6,6,3,4,5,3,6,1,malignant
4,1,1,3,2,1,1,1,1,benign
1,1,1,1,4,3,1,1,1,benign
6,10,10,10,8,10,7,10,7,malignant
4,1,4,1,2,1,1,1,1,benign
5,1,1,1,2,1,3,1,1,benign
5,1,1,2,2,2,3,1,1,benign
1,1,1,1,1,1,2,1,1,benign
8,7,8,7,5,5,5,10,2,malignant
10,3,4,5,3,10,4,1,1,malignant
1,3,1,1,2,1,2,2,1,benign
3,6,6,6,5,10,6,8,3,malignant
7,9,4,10,10,3,5,3,3,malignant
1,3,3,2,2,1,7,2,1,benign
5,3,2,8,5,10,8,1,2,malignant
2,3,1,1,3,1,1,1,1,benign
5,2,2,2,2,2,3,2,2,benign
4,1,1,1,2,1,3,1,1,benign
1,1,1,1,2,1,1,1,1,benign
5,1,1,3,4,1,3,2,1,benign
1,1,1,1,1,1,3,1,1,benign
4,1,1,1,2,1,3,1,1,benign
10,10,8,10,6,5,10,3,1,malignant
1,1,1,1,2,1,3,1,1,benign
8,3,4,9,3,10,3,3,1,malignant
5,1,3,1,2,1,1,1,1,benign
3,1,1,1,2,2,7,1,1,benign
10,6,4,1,3,4,3,2,3,malignant
5,3,1,2,2,1,2,1,1,benign
1,1,1,1,2,1,2,1,1,benign
6,10,10,10,4,10,7,10,1,malignant
4,1,1,1,2,1,1,1,1,benign
8,10,8,8,4,8,7,7,1,malignant
5,2,1,1,2,1,1,1,1,benign
1,1,1,2,1,3,1,1,7,benign
7,8,7,2,4,8,3,8,2,malignant
5,1,1,1,2,1,2,2,1,benign
1,1,1,1,2,1,3,1,1,benign
1,1,1,3,1,3,1,1,1,benign
3,1,1,1,2,5,5,1,1,benign
8,10,10,8,5,10,7,8,1,malignant
1,1,1,1,2,1,1,1,1,benign
5,4,4,9,2,10,5,6,1,malignant
4,1,1,1,2,1,3,2,1,benign
10,5,8,10,3,10,5,1,3,malignant
3,7,7,4,4,9,4,8,1,malignant
1,2,2,1,2,1,2,1,1,benign
10,5,7,4,4,10,8,9,1,malignant
1,1,1,1,2,1,1,1,1,benign
5,1,1,3,2,1,1,1,1,benign
6,5,5,8,4,10,3,4,1,malignant
3,4,4,10,5,1,3,3,1,malignant
3,1,2,1,2,1,2,1,1,benign
5,1,1,1,2,1,3,1,1,benign
1,1,1,1,2,2,2,1,1,benign
4,1,1,1,2,1,1,1,1,benign
5,1,3,1,2,1,2,1,1,benign
8,3,8,3,4,9,8,9,8,malignant
10,10,10,7,10,10,8,2,1,malignant
7,8,3,7,4,5,7,8,2,malignant
5,2,3,4,2,7,3,6,1,malignant
4,1,1,2,2,1,2,1,1,benign
1,1,1,1,2,1,1,1,1,benign
5,3,3,2,3,1,3,1,1,benign
2,1,1,1,2,1,2,1,1,benign
8,10,10,10,6,10,10,10,1,malignant
7,4,5,10,2,10,3,8,2,malignant
7,5,6,10,5,10,7,9,4,malignant
1,1,1,1,1,1,1,1,1,benign
5,10,10,10,5,2,8,5,1,malignant
1,1,1,1,1,1,2,1,1,benign
3,1,1,1,1,1,2,1,1,benign
1,1,1,1,2,1,2,1,1,benign
2,1,1,2,2,1,1,1,1,benign
3,1,1,1,1,1,2,1,1,benign
3,1,1,1,2,1,2,1,2,benign
1,1,1,1,2,1,3,1,1,benign
5,4,4,5,7,10,3,2,1,benign
10,7,7,6,4,10,4,1,2,malignant
7,5,6,10,4,10,5,3,1,malignant
1,1,1,1,2,1,1,1,1,benign
3,1,1,1,1,1,1,1,1,benign
3,1,1,1,2,3,3,1,1,benign
1,1,1,1,3,2,2,1,1,benign
3,10,7,8,5,8,7,4,1,malignant
4,3,1,1,2,1,4,8,1,benign
5,8,8,10,5,10,8,10,3,malignant
5,1,3,3,2,2,2,3,1,benign
4,1,1,1,2,1,2,1,1,benign
1,1,2,1,2,2,4,2,1,benign
2,1,1,1,2,1,3,1,1,benign
2,5,3,3,6,7,7,5,1,malignant
6,8,7,5,6,8,8,9,2,malignant
10,4,2,1,3,2,4,3,10,malignant
8,2,1,1,5,1,1,1,1,benign
1,1,1,3,2,3,1,1,1,benign
7,6,10,5,3,10,9,10,2,malignant
5,8,8,8,5,10,7,8,1,malignant
