,outlook,temp,humidity,windy,play
0,overcast,hot,high,FALSE,yes
1,overcast,cool,normal,TRUE,yes
2,overcast,mild,high,TRUE,yes
3,overcast,hot,normal,FALSE,yes
4,rainy,mild,high,FALSE,yes
5,rainy,cool,normal,FALSE,yes
6,rainy,cool,normal,TRUE,no
7,rainy,mild,normal,FALSE,yes
8,rainy,mild,high,TRUE,no
9,sunny,hot,high,FALSE,no
10,sunny,hot,high,TRUE,no
11,sunny,mild,high,FALSE,no
12,sunny,cool,normal,FALSE,yes
13,sunny,mild,normal,TRUE,yes
