0.9583333333333334,0.9705882352941176,0.9444444444444444,1.0,0.9583333333333334,0.97,0.9540229885057471,0.9807692307692307,1.0,1.0,0.9565217391304348,0.956140350877193,0.9479166666666666,1.0,0.9795918367346939,0.9444444444444444,1.0,0.963855421686747,0.9423076923076923,0.9655172413793104,0.9393939393939394,0.9655172413793104,0.9485294117647058,0.9491525423728814,0.9583333333333334,0.9642857142857143,1.0,0.9732142857142857,0.9753086419753086,0.9230769230769231,0.9666666666666667,0.9545454545454546,0.9655172413793104,0.9682539682539683,0.975609756097561,0.9545454545454546,0.9666666666666667,0.9545454545454546,0.9583333333333334,0.9166666666666666,0.9529411764705882,0.9047619047619048,0.9444444444444444,0.9651162790697675,1.0,0.9696969696969697,1.0,0.9577464788732394,0.9637681159420289,1.0,0.9375
0.7132352941176471,0.8888888888888888,0.7894736842105263,0.875,0.91,0.9310344827586207,0.9807692307692307,1.0,1.0,0.9347826086956522,0.9298245614035088,0.9166666666666666,0.9655172413793104,0.9387755102040817,0.9259259259259259,1.0,0.9397590361445783,0.9230769230769231,0.9655172413793104,0.9393939393939394,0.9655172413793104,0.9411764705882353,0.9322033898305084,0.9583333333333334,0.9761904761904762,1.0,0.9464285714285714,0.9382716049382716,0.8846153846153846,0.9166666666666666,0.9090909090909091,0.9310344827586207,0.9285714285714286,0.926829268292683,0.9545454545454546,0.9222222222222223,0.9090909090909091,0.95,0.8958333333333334,0.9529411764705882,0.9047619047619048,0.9166666666666666,0.9651162790697675,0.9090909090909091,0.9848484848484849,0.9642857142857143,0.9295774647887324,0.9347826086956522,0.972972972972973,0.95
0.9444444444444444,1.0,0.9479166666666666,0.96,0.9310344827586207,0.9807692307692307,1.0,1.0,0.9782608695652174,0.956140350877193,0.9479166666666666,1.0,1.0,0.9444444444444444,1.0,0.9759036144578314,0.9230769230769231,0.9655172413793104,0.9393939393939394,0.9770114942528736,0.9632352941176471,0.9491525423728814,0.9583333333333334,0.9761904761904762,1.0,0.9732142857142857,0.9629629629629629,0.9230769230769231,0.9666666666666667,0.9545454545454546,0.9655172413793104,0.9761904761904762,0.975609756097561,0.9545454545454546,0.9666666666666667,0.9545454545454546,0.975,0.9583333333333334,0.9882352941176471,0.9047619047619048,0.9166666666666666,0.9883720930232558,1.0,0.9848484848484849,1.0,0.971830985915493,0.9710144927536232,1.0,0.9625
0.9473684210526315,0.9375,0.96,0.9540229885057471,0.9807692307692307,1.0,1.0,0.9782608695652174,0.9473684210526315,0.9375,1.0,0.9795918367346939,0.9444444444444444,1.0,0.963855421686747,0.9230769230769231,0.9310344827586207,0.9393939393939394,0.9885057471264368,0.9558823529411765,0.9491525423728814,0.9583333333333334,0.9761904761904762,1.0,0.9642857142857143,0.9382716049382716,0.8846153846153846,0.9416666666666667,0.9318181818181818,0.9482758620689655,0.9523809523809523,0.9512195121951219,0.9545454545454546,0.9444444444444444,0.9545454545454546,0.9666666666666667,0.9583333333333334,0.9647058823529412,0.9047619047619048,0.9166666666666666,0.9767441860465116,1.0,0.9848484848484849,0.9821428571428571,0.9577464788732394,0.9492753623188406,0.972972972972973,0.95
0.7916666666666666,0.83,0.8620689655172413,0.8461538461538461,0.6333333333333333,0.8235294117647058,0.8260869565217391,0.6403508771929824,0.6770833333333334,0.5517241379310345,0.8367346938775511,0.8240740740740741,0.875,0.6867469879518072,0.6730769230769231,0.5862068965517241,0.7272727272727273,0.6551724137931034,0.6691176470588235,0.6271186440677966,0.7708333333333334,0.7023809523809523,0.6666666666666666,0.6964285714285714,0.691358024691358,0.6153846153846154,0.6833333333333333,0.6363636363636364,0.6637931034482759,0.6825396825396826,0.6341463414634146,0.6363636363636364,0.6666666666666666,0.7727272727272727,0.725,0.625,0.6941176470588235,0.5238095238095238,0.6666666666666666,0.7325581395348837,0.8181818181818182,0.6666666666666666,0.75,0.676056338028169,0.6666666666666666,0.7297297297297297,0.6625
0.62,0.9080459770114943,0.9615384615384616,0.9666666666666667,0.9411764705882353,0.9565217391304348,0.9385964912280702,0.9583333333333334,1.0,0.9795918367346939,0.9537037037037037,1.0,0.9759036144578314,0.9423076923076923,1.0,0.9242424242424242,0.9540229885057471,0.9485294117647058,0.9491525423728814,0.9583333333333334,0.9642857142857143,1.0,0.9553571428571429,0.9506172839506173,0.9230769230769231,0.9416666666666667,0.9545454545454546,0.9396551724137931,0.9682539682539683,0.9512195121951219,0.9545454545454546,0.9666666666666667,0.9545454545454546,0.9583333333333334,0.9166666666666666,0.9764705882352941,0.9047619047619048,0.9166666666666666,0.9767441860465116,1.0,0.9545454545454546,0.9821428571428571,0.9436619718309859,0.9565217391304348,1.0,0.9625
0.8735632183908046,0.9615384615384616,0.8666666666666667,1.0,0.8913043478260869,0.9385964912280702,0.9479166666666666,1.0,0.9795918367346939,0.9444444444444444,0.875,0.9156626506024096,0.9230769230769231,0.9310344827586207,0.8939393939393939,0.9540229885057471,0.9044117647058824,0.9152542372881356,0.9375,0.9285714285714286,0.9444444444444444,0.9553571428571429,0.9382716049382716,0.8846153846153846,0.9416666666666667,0.9318181818181818,0.9482758620689655,0.9523809523809523,0.975609756097561,0.9545454545454546,0.9555555555555556,1.0,0.975,0.9791666666666666,0.9529411764705882,0.9047619047619048,0.9444444444444444,0.9651162790697675,1.0,0.9848484848484849,0.9821428571428571,0.971830985915493,0.9492753623188406,1.0,0.9625
0.9615384615384616,1.0,1.0,0.9782608695652174,0.956140350877193,0.9583333333333334,1.0,0.9795918367346939,0.9629629629629629,1.0,0.963855421686747,0.9423076923076923,1.0,0.9545454545454546,1.0,0.9632352941176471,0.9661016949152542,0.9583333333333334,0.9880952380952381,1.0,0.9732142857142857,0.9506172839506173,0.8846153846153846,0.9666666666666667,0.9772727272727273,0.9741379310344828,0.9841269841269841,1.0,0.9545454545454546,0.9666666666666667,0.9545454545454546,0.9583333333333334,0.9583333333333334,0.9882352941176471,0.9047619047619048,0.9166666666666666,0.9767441860465116,1.0,0.9848484848484849,0.9821428571428571,0.9577464788732394,0.9565217391304348,1.0,0.95
1.0,1.0,0.9782608695652174,0.9473684210526315,0.9375,0.9655172413793104,0.9591836734693877,0.9444444444444444,1.0,0.963855421686747,0.9230769230769231,1.0,0.9393939393939394,0.9655172413793104,0.9485294117647058,0.9491525423728814,0.9791666666666666,0.9880952380952381,1.0,0.9553571428571429,0.9506172839506173,0.9230769230769231,0.9333333333333333,0.9431818181818182,0.9482758620689655,0.9523809523809523,0.975609756097561,0.9545454545454546,0.9333333333333333,0.9090909090909091,0.9416666666666667,0.9166666666666666,0.9529411764705882,0.9047619047619048,0.9444444444444444,0.9883720930232558,1.0,0.9696969696969697,1.0,0.9577464788732394,0.9710144927536232,1.0,0.975
1.0,0.9347826086956522,0.9736842105263158,0.96875,1.0,0.9795918367346939,0.9444444444444444,1.0,0.963855421686747,0.9423076923076923,1.0,0.9393939393939394,0.9770114942528736,0.9632352941176471,0.9661016949152542,0.9791666666666666,0.9880952380952381,1.0,0.9910714285714286,0.9753086419753086,0.9230769230769231,0.975,0.9545454545454546,0.9568965517241379,0.9682539682539683,1.0,0.9545454545454546,0.9444444444444444,0.9545454545454546,0.9583333333333334,0.9375,0.9647058823529412,0.9523809523809523,0.9444444444444444,0.9767441860465116,1.0,0.9848484848484849,1.0,0.9859154929577465,0.9782608695652174,1.0,0.9625
0.9565217391304348,0.9385964912280702,0.9479166666666666,0.9655172413793104,0.9795918367346939,0.9444444444444444,0.875,0.963855421686747,0.9615384615384616,0.9655172413793104,0.9393939393939394,0.9770114942528736,0.9485294117647058,0.9491525423728814,0.9583333333333334,0.9761904761904762,1.0,0.9553571428571429,0.9382716049382716,0.9615384615384616,0.95,0.9659090909090909,0.9655172413793104,0.9603174603174603,0.975609756097561,0.9545454545454546,0.9666666666666667,0.9545454545454546,0.9583333333333334,0.9791666666666666,0.9764705882352941,0.9523809523809523,0.9722222222222222,0.9883720930232558,1.0,0.9848484848484849,1.0,0.9859154929577465,0.9710144927536232,1.0,0.9375
0.8947368421052632,0.9270833333333334,0.9310344827586207,0.9795918367346939,0.9074074074074074,0.875,0.9397590361445783,0.9423076923076923,0.9310344827586207,0.9393939393939394,0.9655172413793104,0.9558823529411765,0.9322033898305084,0.9583333333333334,0.9880952380952381,1.0,0.9553571428571429,0.9506172839506173,0.8846153846153846,0.95,0.9545454545454546,0.9568965517241379,0.9603174603174603,0.975609756097561,0.9545454545454546,0.9555555555555556,1.0,0.95,0.9583333333333334,0.9647058823529412,0.9047619047619048,0.9166666666666666,0.9767441860465116,1.0,0.9848484848484849,0.9821428571428571,0.9436619718309859,0.9492753623188406,1.0,0.9625
0.8958333333333334,0.9655172413793104,0.9795918367346939,0.9351851851851852,1.0,0.963855421686747,0.9423076923076923,0.9655172413793104,0.9393939393939394,0.9655172413793104,0.9485294117647058,0.9491525423728814,0.9583333333333334,0.9523809523809523,1.0,0.9553571428571429,0.9506172839506173,0.8846153846153846,0.9416666666666667,0.9318181818181818,0.9568965517241379,0.9523809523809523,0.9512195121951219,0.9545454545454546,0.9444444444444444,0.9545454545454546,0.9666666666666667,0.9375,0.9529411764705882,0.9047619047619048,0.8888888888888888,0.9767441860465116,1.0,0.9848484848484849,0.9821428571428571,0.9577464788732394,0.9492753623188406,1.0,0.95
0.9655172413793104,0.9591836734693877,0.9351851851851852,1.0,0.9518072289156626,0.9230769230769231,0.9655172413793104,0.9393939393939394,0.9655172413793104,0.9485294117647058,0.9491525423728814,0.9583333333333334,0.9761904761904762,1.0,0.9642857142857143,0.9506172839506173,0.9230769230769231,0.9666666666666667,0.9318181818181818,0.9396551724137931,0.9444444444444444,0.9512195121951219,0.9545454545454546,0.9222222222222223,0.9090909090909091,0.95,0.8958333333333334,0.9647058823529412,0.9047619047619048,0.9444444444444444,0.9651162790697675,1.0,0.9696969696969697,0.9642857142857143,0.9295774647887324,0.9565217391304348,0.972972972972973,0.95
0.9591836734693877,0.9629629629629629,1.0,0.963855421686747,0.9615384615384616,1.0,0.9696969696969697,0.9655172413793104,0.9705882352941176,0.9830508474576272,0.9791666666666666,0.9761904761904762,1.0,0.9732142857142857,0.9753086419753086,0.9615384615384616,0.95,0.9431818181818182,0.9482758620689655,0.9444444444444444,0.975609756097561,0.9545454545454546,0.9333333333333333,0.9090909090909091,0.95,0.9166666666666666,0.9529411764705882,0.9047619047619048,0.9444444444444444,0.9651162790697675,1.0,0.9696969696969697,0.9821428571428571,0.9436619718309859,0.9492753623188406,1.0,0.9375
0.9351851851851852,0.75,0.9397590361445783,0.9423076923076923,0.9655172413793104,0.9545454545454546,0.9655172413793104,0.9264705882352942,0.9491525423728814,0.9583333333333334,0.8571428571428571,0.7777777777777778,0.9375,0.9506172839506173,0.8461538461538461,0.9166666666666666,0.8977272727272727,0.9310344827586207,0.9206349206349206,0.926829268292683,0.9090909090909091,0.9333333333333333,0.8636363636363636,0.9583333333333334,0.9166666666666666,0.9764705882352941,0.8571428571428571,0.9166666666666666,0.9651162790697675,1.0,0.9545454545454546,0.9821428571428571,0.9577464788732394,0.9492753623188406,1.0,0.9625
1.0,0.9518072289156626,0.9230769230769231,0.9655172413793104,0.9545454545454546,0.9885057471264368,0.9558823529411765,0.9661016949152542,0.9583333333333334,0.9761904761904762,1.0,0.9642857142857143,0.9506172839506173,0.8846153846153846,0.9416666666666667,0.9318181818181818,0.9568965517241379,0.9523809523809523,0.9512195121951219,0.9545454545454546,0.9555555555555556,0.9545454545454546,0.975,0.9583333333333334,0.9764705882352941,0.9047619047619048,0.9166666666666666,0.9767441860465116,1.0,0.9848484848484849,0.9821428571428571,0.9577464788732394,0.9492753623188406,1.0,0.95
0.9518072289156626,0.9807692307692307,1.0,0.9242424242424242,0.9655172413793104,0.9632352941176471,0.9491525423728814,0.9583333333333334,0.9880952380952381,1.0,0.9821428571428571,0.9629629629629629,0.9230769230769231,0.9583333333333334,0.9545454545454546,0.9741379310344828,0.9841269841269841,1.0,0.9545454545454546,0.9777777777777777,0.9545454545454546,0.9583333333333334,0.9375,0.9647058823529412,0.9523809523809523,0.9166666666666666,0.9883720930232558,1.0,0.9848484848484849,0.9821428571428571,0.971830985915493,0.9637681159420289,1.0,0.9625
0.9230769230769231,1.0,0.9090909090909091,0.9770114942528736,0.9485294117647058,0.9491525423728814,0.9583333333333334,0.9761904761904762,0.9444444444444444,0.9642857142857143,0.9506172839506173,0.9230769230769231,0.95,0.9431818181818182,0.9568965517241379,0.9603174603174603,1.0,0.9545454545454546,0.9333333333333333,0.9090909090909091,0.95,0.9375,0.9529411764705882,0.9523809523809523,0.9444444444444444,0.9651162790697675,1.0,0.9848484848484849,0.9821428571428571,0.9859154929577465,0.9565217391304348,1.0,0.9625
0.9655172413793104,0.9545454545454546,1.0,0.9632352941176471,0.9491525423728814,0.9583333333333334,0.9761904761904762,1.0,0.9821428571428571,0.9753086419753086,0.9230769230769231,0.95,0.9431818181818182,0.9482758620689655,0.9444444444444444,0.975609756097561,0.9545454545454546,0.9333333333333333,0.9545454545454546,0.9583333333333334,0.9375,0.9529411764705882,0.9523809523809523,0.9722222222222222,0.9651162790697675,1.0,0.9696969696969697,1.0,0.9577464788732394,0.9710144927536232,1.0,0.95
0.9090909090909091,0.9770114942528736,0.9485294117647058,0.9491525423728814,0.9583333333333334,0.9880952380952381,0.9444444444444444,0.9642857142857143,0.9506172839506173,0.9230769230769231,0.95,0.9431818181818182,0.9568965517241379,0.9761904761904762,1.0,0.9545454545454546,0.9333333333333333,0.9090909090909091,0.95,0.9375,0.9647058823529412,0.9047619047619048,0.9444444444444444,0.9418604651162791,1.0,0.9545454545454546,0.9642857142857143,0.9436619718309859,0.9420289855072463,1.0,0.9625
0.9655172413793104,0.9632352941176471,0.9491525423728814,0.9583333333333334,0.9761904761904762,1.0,0.9553571428571429,0.9382716049382716,0.8846153846153846,0.95,0.9318181818181818,0.9482758620689655,0.9603174603174603,0.926829268292683,0.9545454545454546,0.9555555555555556,0.9090909090909091,0.9333333333333333,0.875,0.9529411764705882,0.9047619047619048,0.9166666666666666,0.9883720930232558,1.0,0.9696969696969697,0.9821428571428571,0.9295774647887324,0.9565217391304348,0.972972972972973,0.9625
0.6544117647058824,0.6101694915254238,0.75,0.7023809523809523,0.5555555555555556,0.6785714285714286,0.654320987654321,0.6153846153846154,0.6583333333333333,0.625,0.646551724137931,0.6666666666666666,0.6097560975609756,0.6363636363636364,0.6555555555555556,0.7727272727272727,0.7083333333333334,0.6666666666666666,0.6941176470588235,0.5714285714285714,0.6666666666666666,0.7093023255813954,0.7272727272727273,0.6212121212121212,0.7321428571428571,0.676056338028169,0.6666666666666666,0.7297297297297297,0.6875
0.8983050847457628,0.9583333333333334,0.9404761904761905,1.0,0.9375,0.9259259259259259,0.8846153846153846,0.9666666666666667,0.9545454545454546,0.9741379310344828,0.9603174603174603,0.975609756097561,0.9545454545454546,0.9444444444444444,0.9545454545454546,0.9666666666666667,0.9375,0.9882352941176471,0.9047619047619048,0.9444444444444444,0.9767441860465116,1.0,0.9848484848484849,1.0,0.971830985915493,0.9710144927536232,1.0,0.9625
0.9583333333333334,0.9642857142857143,1.0,0.9553571428571429,0.9506172839506173,0.8846153846153846,0.9416666666666667,0.9431818181818182,0.9568965517241379,0.9523809523809523,0.9512195121951219,0.9545454545454546,0.9444444444444444,0.9545454545454546,0.9666666666666667,0.9583333333333334,0.9647058823529412,0.9047619047619048,0.8888888888888888,0.9767441860465116,1.0,0.9848484848484849,0.9821428571428571,0.9577464788732394,0.9492753623188406,1.0,0.95
0.9642857142857143,1.0,0.9553571428571429,0.9506172839506173,0.8846153846153846,0.95,0.9659090909090909,0.9655172413793104,0.9603174603174603,0.975609756097561,0.9545454545454546,0.9666666666666667,0.9545454545454546,0.95,0.9583333333333334,0.9647058823529412,0.9047619047619048,0.9166666666666666,0.9767441860465116,1.0,0.9848484848484849,0.9821428571428571,0.971830985915493,0.9565217391304348,1.0,0.9625
1.0,0.9553571428571429,0.9382716049382716,0.8846153846153846,0.9416666666666667,0.9545454545454546,0.9655172413793104,0.9603174603174603,0.975609756097561,0.9545454545454546,0.9444444444444444,0.9545454545454546,0.9666666666666667,0.9583333333333334,0.9647058823529412,0.9047619047619048,0.9166666666666666,0.9767441860465116,1.0,0.9848484848484849,0.9821428571428571,0.9577464788732394,0.9565217391304348,1.0,0.95
0.9017857142857143,0.9135802469135802,0.8461538461538461,0.8916666666666667,0.8636363636363636,0.9137931034482759,0.8968253968253969,0.926829268292683,0.9545454545454546,0.9222222222222223,0.9545454545454546,0.95,0.9375,0.9294117647058824,0.9047619047619048,0.8888888888888888,0.9534883720930233,1.0,0.9696969696969697,0.9642857142857143,0.9295774647887324,0.9347826086956522,0.972972972972973,0.9375
0.9382716049382716,0.8846153846153846,0.95,0.9431818181818182,0.9568965517241379,0.9603174603174603,0.975609756097561,0.9545454545454546,0.9444444444444444,0.9545454545454546,0.9666666666666667,0.9583333333333334,0.9647058823529412,0.9047619047619048,0.9166666666666666,0.9767441860465116,1.0,0.9848484848484849,0.9821428571428571,0.9577464788732394,0.9565217391304348,1.0,0.95
0.8846153846153846,0.9666666666666667,0.9659090909090909,0.9655172413793104,0.9761904761904762,0.975609756097561,0.9545454545454546,0.9555555555555556,0.9545454545454546,0.95,0.9583333333333334,0.9882352941176471,0.9047619047619048,0.9166666666666666,0.9883720930232558,1.0,0.9696969696969697,0.9821428571428571,0.9577464788732394,0.9492753623188406,1.0,0.9375
0.8916666666666667,0.9318181818181818,0.9310344827586207,0.9444444444444444,0.9512195121951219,0.9090909090909091,0.9333333333333333,0.8636363636363636,0.8166666666666667,0.8125,0.9647058823529412,0.9047619047619048,0.9444444444444444,0.9651162790697675,1.0,0.9545454545454546,0.9821428571428571,0.9154929577464789,0.7898550724637681,0.8108108108108109,0.7625
0.9431818181818182,0.9482758620689655,0.9444444444444444,0.975609756097561,0.9545454545454546,0.9333333333333333,0.9545454545454546,0.9416666666666667,0.8958333333333334,0.9411764705882353,0.9523809523809523,0.9722222222222222,0.9651162790697675,1.0,0.9696969696969697,0.9642857142857143,0.9154929577464789,0.9565217391304348,0.972972972972973,0.95
0.9482758620689655,0.9285714285714286,0.926829268292683,0.9090909090909091,0.9444444444444444,0.9545454545454546,0.95,0.9375,0.9647058823529412,0.9047619047619048,0.9166666666666666,0.9767441860465116,1.0,0.9545454545454546,0.9821428571428571,0.9295774647887324,0.9492753623188406,0.9459459459459459,0.95
0.7619047619047619,0.8048780487804879,0.7727272727272727,0.9,0.9090909090909091,0.9166666666666666,0.8958333333333334,0.9294117647058824,0.9047619047619048,0.9166666666666666,0.9767441860465116,1.0,0.9848484848484849,0.9642857142857143,0.9295774647887324,0.9492753623188406,1.0,0.95
0.926829268292683,0.9545454545454546,0.9555555555555556,0.9545454545454546,0.9416666666666667,0.875,0.9764705882352941,0.9047619047619048,0.9166666666666666,0.9883720930232558,1.0,1.0,0.9821428571428571,0.9436619718309859,0.9637681159420289,0.972972972972973,0.95
0.9090909090909091,0.9444444444444444,0.9545454545454546,0.95,0.9583333333333334,0.9647058823529412,0.9047619047619048,0.9166666666666666,0.9767441860465116,1.0,0.9848484848484849,0.9821428571428571,0.971830985915493,0.9565217391304348,1.0,0.95
0.9333333333333333,0.9545454545454546,0.9583333333333334,0.9375,0.9647058823529412,0.9523809523809523,0.9722222222222222,0.9651162790697675,1.0,0.9696969696969697,0.9821428571428571,0.9295774647887324,0.9492753623188406,0.972972972972973,0.95
0.9090909090909091,0.9666666666666667,0.9166666666666666,0.9647058823529412,0.9047619047619048,0.9166666666666666,0.9651162790697675,1.0,0.9545454545454546,0.9821428571428571,0.9436619718309859,0.9492753623188406,1.0,0.9625
0.5583333333333333,0.5833333333333334,0.611764705882353,0.6190476190476191,0.6666666666666666,0.5465116279069767,0.5454545454545454,0.6212121212121212,0.8928571428571429,0.8732394366197183,0.9130434782608695,0.918918918918919,0.925
0.9166666666666666,0.9647058823529412,0.9047619047619048,0.9444444444444444,0.9651162790697675,1.0,0.9696969696969697,0.9821428571428571,0.971830985915493,0.9637681159420289,1.0,0.9375
0.9411764705882353,0.9047619047619048,0.8888888888888888,0.9534883720930233,1.0,0.9696969696969697,0.9642857142857143,0.9295774647887324,0.9420289855072463,0.972972972972973,0.9375
0.9047619047619048,0.8888888888888888,0.9767441860465116,1.0,0.9848484848484849,0.9821428571428571,0.9577464788732394,0.9492753623188406,1.0,0.95
0.8888888888888888,0.9767441860465116,1.0,0.9848484848484849,0.9821428571428571,0.971830985915493,0.9492753623188406,1.0,0.95
0.9651162790697675,1.0,0.9696969696969697,0.9642857142857143,0.9295774647887324,0.9420289855072463,0.972972972972973,0.95
1.0,0.9696969696969697,0.9821428571428571,0.9577464788732394,0.9637681159420289,1.0,0.9375
0.9848484848484849,0.9821428571428571,0.9436619718309859,0.9420289855072463,1.0,0.95
1.0,0.971830985915493,0.9565217391304348,1.0,0.9625
0.9295774647887324,0.927536231884058,0.972972972972973,0.95
0.5,0.4864864864864865,0.6125
0.972972972972973,0.9625
0.95
