0.9625,0.9692307692307692,0.9705882352941176,0.9776119402985075,0.9666666666666667,0.9761904761904762,0.9609375,1.0,0.9866666666666667,0.9624060150375939,0.9868421052631579,0.9655172413793104,0.9736842105263158,0.9534883720930233,1.0,0.9781021897810219,0.9696969696969697,1.0,0.9692307692307692,0.9591836734693877,0.963963963963964,0.972972972972973,0.956989247311828,0.9491525423728814,0.9473684210526315,0.9333333333333333,0.9545454545454546,0.9504132231404959,1.0,0.948051948051948,0.941747572815534,0.9626168224299065,0.9666666666666667,1.0,1.0,0.990990990990991,0.9836065573770492,0.96875,0.9523809523809523,0.9558823529411765,1.0,0.958041958041958,0.952,0.9495798319327731,0.9716981132075472,1.0,0.9873417721518988,0.9495798319327731,0.9572649572649573,0.9645390070921985,0.9772727272727273
0.9230769230769231,0.9705882352941176,0.9477611940298507,0.9666666666666667,0.9523809523809523,0.953125,1.0,0.9866666666666667,0.9624060150375939,0.9868421052631579,0.9655172413793104,0.9736842105263158,0.9534883720930233,1.0,0.9635036496350365,0.9696969696969697,1.0,0.9615384615384616,0.9727891156462585,0.963963963963964,0.972972972972973,0.967741935483871,0.9491525423728814,0.956140350877193,0.9333333333333333,0.9545454545454546,0.9504132231404959,1.0,0.948051948051948,0.941747572815534,0.9626168224299065,0.9777777777777777,1.0,1.0,0.990990990990991,0.9836065573770492,0.96875,0.9523809523809523,0.9558823529411765,1.0,0.958041958041958,0.952,0.9495798319327731,0.9716981132075472,1.0,0.9873417721518988,0.9495798319327731,0.9572649572649573,0.9645390070921985,0.9772727272727273
0.8529411764705882,0.917910447761194,0.9333333333333333,0.9285714285714286,0.9375,1.0,0.9866666666666667,0.9624060150375939,0.9736842105263158,0.9310344827586207,0.9473684210526315,0.9302325581395349,1.0,0.948905109489051,0.9696969696969697,1.0,0.9538461538461539,0.9591836734693877,0.963963963963964,0.9594594594594594,0.956989247311828,0.9322033898305084,0.9473684210526315,0.9333333333333333,0.9090909090909091,0.9421487603305785,1.0,0.948051948051948,0.941747572815534,0.9532710280373832,0.9666666666666667,0.9906542056074766,1.0,0.9819819819819819,0.9836065573770492,0.9609375,0.9523809523809523,0.9485294117647058,0.96,0.951048951048951,0.952,0.9495798319327731,0.9622641509433962,1.0,0.9746835443037974,0.9495798319327731,0.9572649572649573,0.9574468085106383,0.9772727272727273
0.5522388059701493,0.9666666666666667,0.9523809523809523,0.9140625,1.0,0.9866666666666667,0.9624060150375939,0.9868421052631579,0.9482758620689655,0.9736842105263158,0.9534883720930233,1.0,0.9708029197080292,0.9696969696969697,1.0,0.9615384615384616,0.9659863945578231,0.963963963963964,0.972972972972973,0.946236559139785,0.9491525423728814,0.9385964912280702,0.9333333333333333,0.9545454545454546,0.9504132231404959,1.0,0.948051948051948,0.941747572815534,0.9626168224299065,0.9777777777777777,1.0,1.0,0.990990990990991,0.9836065573770492,0.96875,0.9523809523809523,0.9485294117647058,1.0,0.958041958041958,0.952,0.9495798319327731,0.9716981132075472,1.0,0.9873417721518988,0.9495798319327731,0.9572649572649573,0.9645390070921985,0.9772727272727273
0.9,0.9285714285714286,0.9296875,1.0,0.9866666666666667,0.9548872180451128,0.9868421052631579,0.9310344827586207,0.9473684210526315,0.9302325581395349,1.0,0.948905109489051,0.9696969696969697,1.0,0.9692307692307692,0.9591836734693877,0.963963963963964,0.9459459459459459,0.956989247311828,0.9152542372881356,0.9473684210526315,0.9333333333333333,0.9090909090909091,0.9421487603305785,1.0,0.948051948051948,0.941747572815534,0.9532710280373832,0.9555555555555556,0.9906542056074766,1.0,0.972972972972973,0.9836065573770492,0.9609375,0.9404761904761905,0.9485294117647058,0.96,0.951048951048951,0.952,0.9411764705882353,0.9622641509433962,1.0,0.9746835443037974,0.9495798319327731,0.9487179487179487,0.9574468085106383,0.9772727272727273
0.9523809523809523,0.953125,1.0,0.9866666666666667,0.9473684210526315,0.9868421052631579,0.9310344827586207,0.956140350877193,0.9534883720930233,1.0,0.9635036496350365,0.9696969696969697,1.0,0.9615384615384616,0.9523809523809523,0.963963963963964,0.9594594594594594,0.956989247311828,0.9322033898305084,0.9385964912280702,0.9333333333333333,0.9090909090909091,0.9421487603305785,1.0,0.948051948051948,0.941747572815534,0.9532710280373832,0.9666666666666667,1.0,1.0,0.990990990990991,0.9836065573770492,0.9609375,0.9523809523809523,0.9485294117647058,0.96,0.951048951048951,0.952,0.9495798319327731,0.9716981132075472,1.0,0.9746835443037974,0.9495798319327731,0.9572649572649573,0.9574468085106383,0.9772727272727273
0.65625,1.0,0.9866666666666667,0.9624060150375939,0.9868421052631579,0.9655172413793104,0.9649122807017544,0.9534883720930233,1.0,0.9781021897810219,0.9393939393939394,1.0,0.9692307692307692,0.9591836734693877,0.963963963963964,0.972972972972973,0.967741935483871,0.9491525423728814,0.9473684210526315,0.9333333333333333,0.9545454545454546,0.9421487603305785,1.0,0.948051948051948,0.941747572815534,0.9626168224299065,0.9666666666666667,0.9906542056074766,1.0,0.9819819819819819,0.9836065573770492,0.96875,0.9404761904761905,0.9558823529411765,1.0,0.958041958041958,0.952,0.9411764705882353,0.9716981132075472,1.0,0.9746835443037974,0.9495798319327731,0.9487179487179487,0.9574468085106383,0.9772727272727273
0.9285714285714286,0.9866666666666667,0.9548872180451128,0.9736842105263158,0.9482758620689655,0.9649122807017544,0.9767441860465116,1.0,0.9635036496350365,0.9696969696969697,1.0,0.9615384615384616,0.9591836734693877,0.963963963963964,0.9594594594594594,0.956989247311828,0.9322033898305084,0.9385964912280702,0.9333333333333333,0.9090909090909091,0.9586776859504132,1.0,0.948051948051948,0.9514563106796117,0.9626168224299065,0.9777777777777777,0.9906542056074766,1.0,0.9819819819819819,0.9836065573770492,0.96875,0.9523809523809523,0.9632352941176471,1.0,0.965034965034965,0.952,0.9495798319327731,0.9716981132075472,1.0,0.9873417721518988,0.9495798319327731,0.9572649572649573,0.9645390070921985,0.9772727272727273
0.9866666666666667,0.9473684210526315,0.9868421052631579,0.9310344827586207,0.956140350877193,0.9534883720930233,1.0,0.9635036496350365,0.9696969696969697,1.0,0.9769230769230769,0.9523809523809523,0.963963963963964,0.9459459459459459,0.946236559139785,0.9152542372881356,0.9298245614035088,0.9333333333333333,0.9090909090909091,0.9504132231404959,1.0,0.948051948051948,0.941747572815534,0.9532710280373832,0.9666666666666667,1.0,1.0,0.990990990990991,0.9836065573770492,0.96875,0.9404761904761905,0.9558823529411765,0.96,0.958041958041958,0.952,0.9411764705882353,0.9622641509433962,1.0,0.9746835443037974,0.957983193277311,0.9487179487179487,0.9574468085106383,0.9772727272727273
0.5789473684210527,0.5921052631578947,0.5862068965517241,0.9210526315789473,0.9069767441860465,1.0,0.927007299270073,0.9393939393939394,1.0,0.9461538461538461,0.9387755102040817,0.9459459459459459,0.9324324324324325,0.9354838709677419,0.8983050847457628,0.9122807017543859,1.0,0.9090909090909091,0.9256198347107438,1.0,0.948051948051948,0.9223300970873787,0.9532710280373832,0.9555555555555556,0.9906542056074766,1.0,0.972972972972973,0.9672131147540983,0.953125,0.9404761904761905,0.9411764705882353,0.96,0.951048951048951,0.96,0.9495798319327731,0.9716981132075472,1.0,0.9746835443037974,0.957983193277311,0.9572649572649573,0.9645390070921985,0.9772727272727273
0.9473684210526315,0.9137931034482759,0.9736842105263158,0.9767441860465116,1.0,0.9708029197080292,0.9696969696969697,1.0,0.9615384615384616,0.9591836734693877,0.963963963963964,0.972972972972973,0.946236559139785,0.9491525423728814,0.9298245614035088,0.9333333333333333,0.9545454545454546,0.9421487603305785,1.0,0.948051948051948,0.941747572815534,0.9532710280373832,0.9777777777777777,1.0,1.0,0.990990990990991,0.9836065573770492,0.9609375,0.9523809523809523,0.9485294117647058,0.96,0.951048951048951,0.952,0.9495798319327731,0.9622641509433962,1.0,0.9746835443037974,0.9495798319327731,0.9572649572649573,0.9574468085106383,0.9772727272727273
0.9482758620689655,0.956140350877193,0.9534883720930233,1.0,0.9562043795620438,0.9696969696969697,1.0,0.9615384615384616,0.9591836734693877,0.954954954954955,0.972972972972973,0.946236559139785,0.9491525423728814,0.9385964912280702,0.9333333333333333,0.9545454545454546,0.9421487603305785,1.0,0.948051948051948,0.941747572815534,0.9532710280373832,0.9666666666666667,1.0,1.0,0.990990990990991,0.9836065573770492,0.9609375,0.9523809523809523,0.9485294117647058,0.96,0.951048951048951,0.952,0.9495798319327731,0.9716981132075472,1.0,0.9746835443037974,0.9495798319327731,0.9572649572649573,0.9574468085106383,0.9772727272727273
0.9035087719298246,0.9069767441860465,1.0,0.9416058394160584,0.9393939393939394,1.0,0.9461538461538461,0.9455782312925171,0.9279279279279279,0.9594594594594594,0.9354838709677419,0.9322033898305084,0.9473684210526315,0.9333333333333333,0.9545454545454546,0.9338842975206612,1.0,0.961038961038961,0.9320388349514563,0.9626168224299065,0.9666666666666667,0.9813084112149533,1.0,0.9819819819819819,0.9836065573770492,0.96875,0.9523809523809523,0.9558823529411765,1.0,0.965034965034965,0.96,0.9495798319327731,0.9716981132075472,1.0,0.9746835443037974,0.9495798319327731,0.9487179487179487,0.9645390070921985,0.9772727272727273
0.9302325581395349,1.0,0.9708029197080292,0.9696969696969697,1.0,0.9538461538461539,0.9591836734693877,0.963963963963964,0.972972972972973,0.946236559139785,0.9491525423728814,0.9385964912280702,0.9333333333333333,0.9545454545454546,0.9504132231404959,1.0,0.948051948051948,0.941747572815534,0.9532710280373832,0.9666666666666667,0.9906542056074766,1.0,0.9819819819819819,0.9836065573770492,0.9609375,0.9523809523809523,0.9558823529411765,0.96,0.951048951048951,0.952,0.9495798319327731,0.9716981132075472,1.0,0.9746835443037974,0.9495798319327731,0.9572649572649573,0.9574468085106383,0.9772727272727273
1.0,0.9708029197080292,0.9393939393939394,1.0,0.9692307692307692,0.9455782312925171,0.954954954954955,0.972972972972973,0.946236559139785,0.9491525423728814,0.9385964912280702,0.9333333333333333,0.9545454545454546,0.9338842975206612,1.0,0.948051948051948,0.941747572815534,0.9626168224299065,0.9666666666666667,0.9906542056074766,1.0,0.9819819819819819,0.9836065573770492,0.96875,0.9523809523809523,0.9485294117647058,1.0,0.965034965034965,0.952,0.9411764705882353,0.9716981132075472,1.0,0.9746835443037974,0.9495798319327731,0.9487179487179487,0.9574468085106383,0.9772727272727273
0.8978102189781022,0.9696969696969697,1.0,0.9615384615384616,0.9591836734693877,0.963963963963964,0.9459459459459459,0.9354838709677419,0.9152542372881356,0.9210526315789473,0.9333333333333333,0.9090909090909091,0.9421487603305785,1.0,0.948051948051948,0.941747572815534,0.9532710280373832,0.9666666666666667,0.9906542056074766,1.0,0.9819819819819819,0.9836065573770492,0.9609375,0.9404761904761905,0.9485294117647058,0.96,0.951048951048951,0.952,0.9411764705882353,0.9622641509433962,1.0,0.9746835443037974,0.9495798319327731,0.9487179487179487,0.9574468085106383,0.9772727272727273
0.9393939393939394,1.0,0.9538461538461539,0.9523809523809523,0.954954954954955,0.972972972972973,0.956989247311828,0.9491525423728814,0.9473684210526315,0.9333333333333333,0.9545454545454546,0.9338842975206612,1.0,0.948051948051948,0.9320388349514563,0.9626168224299065,0.9777777777777777,0.9813084112149533,1.0,0.9819819819819819,0.9836065573770492,0.96875,0.9642857142857143,0.9558823529411765,1.0,0.965034965034965,0.952,0.9495798319327731,0.9716981132075472,1.0,0.9873417721518988,0.9495798319327731,0.9487179487179487,0.9645390070921985,0.9772727272727273
1.0,0.9615384615384616,0.9659863945578231,0.963963963963964,0.972972972972973,0.946236559139785,0.9491525423728814,0.9385964912280702,0.9333333333333333,0.9545454545454546,0.9504132231404959,1.0,0.948051948051948,0.941747572815534,0.9626168224299065,0.9777777777777777,1.0,1.0,0.990990990990991,0.9836065573770492,0.96875,0.9523809523809523,0.9558823529411765,1.0,0.958041958041958,0.952,0.9495798319327731,0.9716981132075472,1.0,0.9873417721518988,0.9495798319327731,0.9572649572649573,0.9645390070921985,0.9772727272727273
0.6846153846153846,0.8707482993197279,0.9369369369369369,0.9594594594594594,0.946236559139785,0.9491525423728814,0.956140350877193,0.9333333333333333,0.9090909090909091,0.9421487603305785,1.0,0.948051948051948,0.9320388349514563,0.9626168224299065,0.9666666666666667,0.9813084112149533,1.0,0.9819819819819819,0.9836065573770492,0.9765625,0.9523809523809523,0.9558823529411765,1.0,0.965034965034965,0.952,0.9495798319327731,0.9716981132075472,1.0,0.9746835443037974,0.9495798319327731,0.9487179487179487,0.9645390070921985,0.9772727272727273
0.3197278911564626,0.2972972972972973,0.35135135135135137,0.3333333333333333,0.8983050847457628,0.32456140350877194,1.0,0.9090909090909091,0.8842975206611571,1.0,0.961038961038961,0.8932038834951457,0.9439252336448598,0.9444444444444444,0.9813084112149533,1.0,0.972972972972973,0.9508196721311475,0.953125,0.9404761904761905,0.9411764705882353,0.96,0.951048951048951,0.96,0.9495798319327731,0.9716981132075472,1.0,0.9746835443037974,0.957983193277311,0.9572649572649573,0.9645390070921985,0.9772727272727273
0.5495495495495496,0.9459459459459459,0.956989247311828,0.9322033898305084,0.9385964912280702,0.9333333333333333,0.9090909090909091,0.9256198347107438,1.0,0.948051948051948,0.9029126213592233,0.9532710280373832,0.9666666666666667,0.9813084112149533,1.0,0.9819819819819819,0.9836065573770492,0.96875,0.9523809523809523,0.9558823529411765,1.0,0.965034965034965,0.952,0.9495798319327731,0.9716981132075472,1.0,0.9746835443037974,0.9495798319327731,0.9487179487179487,0.9645390070921985,0.9772727272727273
0.9594594594594594,0.956989247311828,0.9491525423728814,0.9473684210526315,0.9333333333333333,0.9545454545454546,0.9421487603305785,1.0,0.948051948051948,0.9320388349514563,0.9532710280373832,0.9666666666666667,1.0,1.0,0.990990990990991,0.9836065573770492,0.9609375,0.9523809523809523,0.9485294117647058,0.96,0.951048951048951,0.952,0.9495798319327731,0.9622641509433962,1.0,0.9746835443037974,0.9495798319327731,0.9572649572649573,0.9574468085106383,0.9772727272727273
0.8924731182795699,0.9322033898305084,0.9298245614035088,0.9333333333333333,0.9545454545454546,0.9421487603305785,1.0,0.961038961038961,0.941747572815534,0.9626168224299065,0.9777777777777777,0.9906542056074766,1.0,0.9819819819819819,0.9836065573770492,0.9609375,0.9642857142857143,0.9558823529411765,0.96,0.958041958041958,0.96,0.957983193277311,0.9622641509433962,1.0,0.9746835443037974,0.957983193277311,0.9572649572649573,0.9645390070921985,0.9772727272727273
0.8983050847457628,0.9473684210526315,0.9333333333333333,0.9545454545454546,0.9504132231404959,1.0,0.948051948051948,0.941747572815534,0.9626168224299065,0.9777777777777777,0.9906542056074766,1.0,0.9819819819819819,0.9836065573770492,0.96875,0.9523809523809523,0.9485294117647058,1.0,0.958041958041958,0.952,0.9495798319327731,0.9716981132075472,1.0,0.9873417721518988,0.9495798319327731,0.9572649572649573,0.9645390070921985,0.9772727272727273
0.5964912280701754,0.5333333333333333,0.8636363636363636,0.7933884297520661,1.0,0.948051948051948,0.941747572815534,0.9439252336448598,0.9666666666666667,0.9813084112149533,1.0,0.972972972972973,0.9836065573770492,0.9609375,0.9523809523809523,0.9558823529411765,0.96,0.951048951048951,0.952,0.9495798319327731,0.9622641509433962,1.0,0.9746835443037974,0.9495798319327731,0.9572649572649573,0.9574468085106383,0.9772727272727273
0.9333333333333333,0.9090909090909091,0.9504132231404959,1.0,0.961038961038961,0.941747572815534,0.9719626168224299,0.9666666666666667,0.9813084112149533,1.0,0.9819819819819819,0.9836065573770492,0.9765625,0.9642857142857143,0.9632352941176471,1.0,0.972027972027972,0.96,0.957983193277311,0.9716981132075472,1.0,0.9746835443037974,0.957983193277311,0.9487179487179487,0.9716312056737588,0.9772727272727273
0.9090909090909091,0.9256198347107438,1.0,0.948051948051948,0.9320388349514563,0.9626168224299065,0.9666666666666667,0.9719626168224299,1.0,0.9819819819819819,0.9836065573770492,0.96875,0.9285714285714286,0.9558823529411765,1.0,0.958041958041958,0.952,0.9411764705882353,0.9716981132075472,1.0,0.9746835443037974,0.9495798319327731,0.9487179487179487,0.9574468085106383,0.9772727272727273
0.5950413223140496,0.7894736842105263,0.9090909090909091,0.9029126213592233,0.9532710280373832,0.9555555555555556,0.9626168224299065,1.0,0.9819819819819819,0.9508196721311475,0.9609375,0.9404761904761905,0.9485294117647058,1.0,0.965034965034965,0.952,0.9411764705882353,0.9716981132075472,1.0,0.9746835443037974,0.9495798319327731,0.9487179487179487,0.9574468085106383,0.9772727272727273
1.0,0.974025974025974,0.9320388349514563,0.9719626168224299,0.9666666666666667,0.9813084112149533,1.0,0.9819819819819819,0.9836065573770492,0.96875,0.9642857142857143,0.9632352941176471,1.0,0.972027972027972,0.952,0.9495798319327731,0.9811320754716981,1.0,0.9746835443037974,0.957983193277311,0.9572649572649573,0.9645390070921985,0.9772727272727273
0.8701298701298701,0.883495145631068,0.9252336448598131,0.9444444444444444,0.9626168224299065,1.0,0.963963963963964,0.9836065573770492,0.96875,0.9523809523809523,0.9558823529411765,1.0,0.958041958041958,0.952,0.9495798319327731,0.9716981132075472,1.0,0.9873417721518988,0.9495798319327731,0.9572649572649573,0.9645390070921985,0.9772727272727273
0.5825242718446602,0.9065420560747663,0.9444444444444444,0.9906542056074766,1.0,0.972972972972973,0.9508196721311475,0.9609375,0.9285714285714286,0.9411764705882353,0.96,0.958041958041958,0.952,0.9411764705882353,0.9622641509433962,1.0,0.9746835443037974,0.957983193277311,0.9487179487179487,0.9574468085106383,0.9772727272727273
0.8878504672897196,0.9666666666666667,0.9719626168224299,1.0,0.963963963963964,0.9508196721311475,0.9609375,0.9761904761904762,0.9485294117647058,1.0,0.972027972027972,0.952,0.9495798319327731,0.9716981132075472,1.0,0.9873417721518988,0.9495798319327731,0.9572649572649573,0.9645390070921985,0.9772727272727273
0.9333333333333333,0.9813084112149533,1.0,0.9819819819819819,0.9508196721311475,0.953125,0.9285714285714286,0.9411764705882353,0.96,0.951048951048951,0.952,0.9411764705882353,0.9622641509433962,1.0,0.9746835443037974,0.9495798319327731,0.9487179487179487,0.9574468085106383,0.9772727272727273
0.9532710280373832,1.0,0.963963963963964,0.9508196721311475,0.953125,0.9523809523809523,0.9632352941176471,1.0,0.965034965034965,0.96,0.957983193277311,0.9716981132075472,1.0,0.9746835443037974,0.9495798319327731,0.9401709401709402,0.9716312056737588,0.9772727272727273
1.0,0.9819819819819819,0.9836065573770492,0.9609375,0.9523809523809523,0.9558823529411765,0.96,0.958041958041958,0.96,0.9495798319327731,0.9716981132075472,1.0,0.9620253164556962,0.957983193277311,0.9572649572649573,0.9574468085106383,0.9772727272727273
0.9279279279279279,0.9508196721311475,0.9609375,0.9404761904761905,0.9485294117647058,0.96,0.965034965034965,0.96,0.9495798319327731,0.9716981132075472,1.0,0.9746835443037974,0.957983193277311,0.9572649572649573,0.9645390070921985,0.9772727272727273
0.9180327868852459,0.9609375,0.9642857142857143,0.9411764705882353,1.0,0.965034965034965,0.952,0.957983193277311,0.9622641509433962,0.9743589743589743,0.9746835443037974,0.9495798319327731,0.9572649572649573,0.9645390070921985,0.9772727272727273
0.9609375,0.9404761904761905,0.8308823529411765,0.96,0.958041958041958,0.96,0.9495798319327731,0.9716981132075472,1.0,0.9746835443037974,0.9495798319327731,0.9572649572649573,0.9645390070921985,0.9772727272727273
0.9285714285714286,0.9485294117647058,0.96,0.958041958041958,0.96,0.9411764705882353,0.9622641509433962,1.0,0.9746835443037974,0.9495798319327731,0.9487179487179487,0.9574468085106383,0.9772727272727273
0.6397058823529411,0.84,0.6503496503496503,0.832,0.8739495798319328,0.9716981132075472,1.0,0.9746835443037974,0.907563025210084,0.9401709401709402,0.9645390070921985,0.9772727272727273
1.0,0.9790209790209791,0.968,0.9663865546218487,0.9716981132075472,1.0,0.9746835443037974,0.957983193277311,0.9487179487179487,0.9716312056737588,0.9772727272727273
0.32167832167832167,0.656,0.8571428571428571,0.9622641509433962,0.9743589743589743,0.9620253164556962,0.8907563025210085,0.9401709401709402,0.9645390070921985,0.9772727272727273
0.648,0.6470588235294118,0.8773584905660378,0.9743589743589743,0.9620253164556962,0.9411764705882353,0.905982905982906,0.950354609929078,0.9545454545454546
0.6302521008403361,0.6509433962264151,0.7435897435897436,0.8734177215189873,0.9159663865546218,0.8632478632478633,0.8936170212765957,0.9545454545454546
0.8679245283018868,0.9743589743589743,0.9493670886075949,0.9495798319327731,0.9230769230769231,0.9574468085106383,0.9772727272727273
1.0,0.9620253164556962,0.9495798319327731,0.9401709401709402,0.9574468085106383,0.9772727272727273
0.8860759493670886,0.9495798319327731,0.905982905982906,0.9361702127659575,0.9772727272727273
0.6554621848739496,0.6752136752136753,0.6737588652482269,0.9318181818181818
0.6153846153846154,0.6666666666666666,0.8636363636363636
0.6595744680851063,0.9772727272727273
0.9772727272727273
